70760718
121652526
474849254
28579002
26538483
30777889
31106024
83402203
30104304
489155160
127550308
109809539
45682631
136765278
56331611
51533859
40972890
12826
527115020
197886470
149747285
492141441
