{
  "Preload": false,
  "WaitForBloomFilterOnDeploy": true,
  "AWSRegion": "us-west-2",
  "BadgeServiceMaxIdleConnections" : 200,
  "BadgeServiceEndpoint" : "https://prod.badges.twitch.a2z.com/",
  "EnvironmentPrefix": "prod",
  "EventsSQSWorkerCount" : 50,
  "EventsSQSQueueName": "prod-mako-events-sqs",
  "PrefixUpdatesSQSWorkerCount": 50,
  "PrefixUpdatesSQSQueueName": "prod-prefix-updates-sqs",
  "RedisHosts": ["prod-mako-redis.vcwigy.clustercfg.usw2.cache.amazonaws.com:6379"],
  "RedisNodeConnectionPoolSize": 80,
  "RedisPoolTimeoutSeconds": 60,
  "RedisDialTimeoutSeconds": 60,
  "RedisReadTimeoutSeconds": 60,
  "RedisWriteTimeoutSeconds": 60,
  "RedisMaxRetryCount": 1,
  "RailsClientID": "pogofhumlor5rsdq403j17gs8a52iom",
  "EmoteRedisConnectionPoolSize": 35,
  "EmoteRedisMinIdleConnections": 30,
  "EmoteModifiersRedisConnectionPoolSize": 25,
  "EmoteModifiersRedisMinIdleConnections":  20,
  "EmoteDBCacheRedisHost": "emotedb-cache-production.vcwigy.clustercfg.usw2.cache.amazonaws.com:6379",
  "EmoteDBDynamoTable": "prod_emotes",
  "EmoteDBDynamoGroupHystrixTimeoutMilliseconds": 250,
  "EmoteDBDynamoCodeHystrixTimeoutMilliseconds": 80,
  "EmoteGroupDBDynamoTable": "prod_emote_groups",
  "EmoteModifierDBDynamoGetHystrixTimeoutMilliseconds": 200,
  "EmoteModifierDBRedisGetHystrixTimeoutMilliseconds": 100,
  "EmoteModifierDBRedisOwnerHystrixTimeoutMilliseconds": 200,
  "EntitlementDBMateriaGetHystrixTimeoutMilliseconds": 250,
  "EntitlementDBRedisGetHystrixTimeoutMilliseconds": 100,
  "EntitlementDBLegacyGetHystrixTimeoutMilliseconds": 150,
  "FollowingEntitlementsDBRedisConnectionPoolSize": 25,
  "FollowingEntitlementsDBRedisMinIdleConnections": 10,
  "FollowingEntitlementsDBRedisIDHystrixTimeoutMilliseconds": 200,
  "FollowingEntitlementsDBRedisOwnerHystrixTimeoutMilliseconds": 200,
  "EmoteModifierGroupsTable": "prod_emote_modifier_groups",
  "EmoteStandingOverridesTable": "prod_emote_standing_overrides",
  "EmoteDBRedisGetHystrixTimeoutMilliseconds": 100,
  "EmoteDBRedisCodeGetHystrixTimeoutMilliseconds": 100,
  "EmoteRedisWorkerLockWaitTimeout" : 0,
  "RailsGetEmotesBatchSize" : 100,
  "CloudwatchBufferSize" : 1000000,
  "CloudwatchBatchSize" : 20,
  "CloudwatchFlushIntervalSeconds" : 10,
  "CloudwatchFlushCheckDelayMs" : 100,
  "CloudwatchEmergencyFlushPercentage" : 0.75,
  "CloudwatchRegion" : "us-west-2",
  "SandstormRoleArn" : "arn:aws:iam::734326455073:role/sandstorm/production/templated/role/mako-prod",
  "SandstormEnvironment": "production",
  "SalesforceClientID": "revenue/subscriptions/%s/salesforce_client_id",
  "SalesforceClientSecret": "revenue/subscriptions/%s/salesforce_client_secret",
  "SalesforceUsername": "revenue/subscriptions/%s/salesforce_username",
  "SalesforcePassword": "revenue/subscriptions/%s/salesforce_password",
  "SalesforceInGoodStandingHystrixTimeoutMilliseconds": 1000,
  "MakoEventsSNS": "arn:aws:sns:us-west-2:671452935478:prod-mako-events",
  "PrefixUpdatesSNS": "arn:aws:sns:us-west-2:671452935478:prod-mako-prefix-updates",
  "EventEmoteCollections": {
    "halloween2017": {
      "EmoteSets": {
        "399768": true,
        "399769": true,
        "400789": true,
        "400790": true,
        "400791": true,
        "400795": true
      },
      "BonusEmoteSet": "400796"
    }
  },
  "pubsubHost": "https://prod.pubsub-broker.twitch.a2z.com/v1/message",
  "RollbarToken": "4d6dfb01555c47b4bfbd108395bca929",
  "UploadServiceURL": "https://prod.upload-service.twitch.a2z.com",
  "UploadCallbackSNSTopic": "arn:aws:sns:us-west-2:435569175256:prod-upload-service-callback",
  "UploadS3Host": "https://s3-us-west-2.amazonaws.com",
  "UploadS3BucketName": "prod-emoticon-uploads",
  "AnimatedEmoteFramesS3BucketName": "prod-animated-emote-frames",
  "SubscriptionsHost": "https://main.us-west-2.prod.subscriptions.twitch.a2z.com",
  "PaydayHost": "https://prod.payday.twitch.a2z.com",
  "PubsubTimeoutMilliseconds": 1000,
  "DynamoDBTimeoutMilliseconds": 2000,
  "MateriaTimeoutMilliseconds": 450,
  "FollowingServiceTimeoutMilliseconds": 200,
  "InferenceAcceptableNamesTimeoutMilliseconds": 400,
  "InferenceClassifyEmoteTimeoutMilliseconds": 500,
  "PepperTimeoutMilliseconds": 300,
  "SubscriptionsGetChannelEmoteLimitsTimeoutMilliseconds": 600,
  "SubscriptionsGetChannelProductsTimeoutMilliseconds": 500,
  "PaydayGetBitsTierEmoteGroupsTimeoutMilliseconds": 500,
  "ChemtrailGetEmoteUsageHystrixTimeoutMilliseconds": 2000,
  "AutoprofS3BucketName": "mako-prod-autoprof",
  "ConfigS3Endpoint": "https://s3-us-west-2.amazonaws.com",
  "ConfigS3Bucket": "mako-prod-config",
  "CampaignEmoteOwnersConfigS3Filename": "campaign_owners.json",
  "KnownOrVerifiedBotsS3Filename": "known_or_verified_bots.json",
  "DefaultEmoteImagesDataS3Endpoint": "https://s3-us-west-2.amazonaws.com",
  "DefaultEmoteImagesDataS3Bucket": "mako-prod-default-emote-images-data",
  "DefaultEmoteImagesDataS3Filename": "default_emote_images_data.json",
  "PaintHost": "https://main.us-west-2.prod.paint.twitch.a2z.com",
  "MateriaHost": "https://main.us-west-2.prod.materia.twitch.a2z.com",
  "FollowingServiceHost": "https://us-west-2.prod.twitchvxfollowingserviceecs.s.twitch.a2z.com",
  "CommunityPointsTicketProductID": "300238151",
  "CommunityPointsEmoteSetID": "300238151",
  "CommunityPointsOwnerID": "436872863",
  "SpecialEventOwnerIDs": {
    "477339272": true,
    "472873131": true,
    "488737509": true,
    "537206155": true,
    "564265402": true,
    "592920959": true,
    "610186276": true
  },
  "InferenceServiceEndpoint": "https://inference.service.safety.twitch.a2z.com",
  "RipleyServiceEndpoint": "https://prod.ripley.twitch.a2z.com",
  "RipleyGetPayoutTypeHystrixTimeoutMilliseconds": 500,
  "PepperServiceEndpoint": "https://prod.pepper.twitch.a2z.com",
  "SalesforceOauthHost": "https://login.salesforce.com",
  "MateriaDenylist": {
    "19264788": true,
    "100135110": true,
    "1564983": true,
    "105166207": true,
    "52268235": true,
    "25681094": true
  },
  "PrefixEditabilityOverrideList": {
    "408653515": true,
    "264323767": true,
    "72182602": true,
    "566198773": true,
    "408666169": true,
    "454462538": true
  },
  "ExperimentOverridesS3BucketName": "mako-production-experiment-overrides",
  "UserServiceHost": "https://prod.users-service.twitch.a2z.com",
  "DartReceiverHost": "https://us-west-2.prod.twitchdartreceiver.s.twitch.a2z.com",
  "S2SServiceName": "mako-prod",
  "S2SEnabled": false,
  "S2SPassthroughEnabled": true,
  "UserDestroySQSQueueURL": "https://sqs.us-west-2.amazonaws.com/671452935478/eventbus_user_destroy_prod",
  "UserDestroySFNARN": "arn:aws:states:us-west-2:671452935478:stateMachine:user_destroy_sfn_prod",
  "AnimatedEmoteFrameSplittingSFNARN": "arn:aws:states:us-west-2:671452935478:stateMachine:gif_frame_splitting_sfn_prod",
  "DeleteS3ImagesQueueURL": "https://sqs.us-west-2.amazonaws.com/671452935478/delete_emote_assets_from_s3_prod",
  "DefaultImageLibraryS3Bucket": "prod-default-emote-library-images",
  "ChemtrailLambdaARN": "arn:aws:lambda:us-west-2:873624430394:function:ChemtrailStack-APIFunctionDD57B14D-1L8ODXNF8YVGW:Live"
}
