{
  "Preload": false,
  "WaitForBloomFilterOnDeploy": false,
  "AWSRegion": "us-west-2",
  "BadgeServiceMaxIdleConnections" : 10,
  "BadgeServiceEndpoint" : "https://staging.badges.twitch.a2z.com/",
  "EnvironmentPrefix": "staging",
  "EventsSQSWorkerCount" : 10,
  "EventsSQSQueueName": "staging-mako-events-sqs",
  "PrefixUpdatesSQSWorkerCount": 10,
  "PrefixUpdatesSQSQueueName": "staging-prefix-updates-sqs",
  "RedisHosts": ["staging-mako-redis.0fm4q0.clustercfg.usw2.cache.amazonaws.com:6379"],
  "RedisNodeConnectionPoolSize": 80,
  "RedisPoolTimeoutSeconds": 60,
  "RedisDialTimeoutSeconds": 60,
  "EmoteDBCacheRedisHost": "emotedb-cache-staging.0fm4q0.clustercfg.usw2.cache.amazonaws.com:6379",
  "RedisReadTimeoutSeconds": 60,
  "RedisWriteTimeoutSeconds": 60,
  "RedisMaxRetryCount": 1,
  "RailsClientID": "6drd0ze7evfyl4cefke0z7ae2edgjyb",
  "EmoteRedisConnectionPoolSize": 20,
  "EmoteRedisMinIdleConnections": 5,
  "EmoteModifiersRedisConnectionPoolSize": 15,
  "EmoteModifiersRedisMinIdleConnections":  2,
  "EmoteDBDynamoTable": "staging_emotes",
  "EmoteDBDynamoGroupHystrixTimeoutMilliseconds": 250,
  "EmoteDBDynamoCodeHystrixTimeoutMilliseconds": 80,
  "EmoteGroupDBDynamoTable": "staging_emote_groups",
  "EmoteModifierDBDynamoGetHystrixTimeoutMilliseconds": 200,
  "EmoteModifierDBRedisGetHystrixTimeoutMilliseconds": 100,
  "EmoteModifierDBRedisOwnerHystrixTimeoutMilliseconds": 200,
  "EntitlementDBMateriaGetHystrixTimeoutMilliseconds": 130,
  "EntitlementDBRedisGetHystrixTimeoutMilliseconds": 100,
  "EntitlementDBLegacyGetHystrixTimeoutMilliseconds": 80,
  "FollowingEntitlementsDBRedisConnectionPoolSize": 10,
  "FollowingEntitlementsDBRedisMinIdleConnections": 1,
  "FollowingEntitlementsDBRedisIDHystrixTimeoutMilliseconds": 200,
  "FollowingEntitlementsDBRedisOwnerHystrixTimeoutMilliseconds": 200,
  "EmoteModifierGroupsTable": "staging_emote_modifier_groups",
  "EmoteStandingOverridesTable": "staging_emote_standing_overrides",
  "EmoteDBRedisGetHystrixTimeoutMilliseconds": 100,
  "EmoteDBRedisCodeGetHystrixTimeoutMilliseconds": 100,
  "EmoteRedisWorkerLockWaitTimeout" : 0,
  "RailsGetEmotesBatchSize" : 100,
  "CloudwatchBufferSize" : 1000000,
  "CloudwatchBatchSize" : 20,
  "CloudwatchFlushIntervalSeconds" : 10,
  "CloudwatchFlushCheckDelayMs" : 100,
  "CloudwatchEmergencyFlushPercentage" : 0.75,
  "CloudwatchRegion" : "us-west-2",
  "SandstormRoleArn" : "arn:aws:iam::734326455073:role/sandstorm/production/templated/role/mako-staging",
  "SandstormEnvironment": "staging",
  "SalesforceClientID": "revenue/subscriptions/%s/salesforce_client_id",
  "SalesforceClientSecret": "revenue/subscriptions/%s/salesforce_client_secret",
  "SalesforceUsername": "revenue/subscriptions/%s/salesforce_username",
  "SalesforcePassword": "revenue/subscriptions/%s/salesforce_password",
  "SalesforceInGoodStandingHystrixTimeoutMilliseconds": 1000,
  "makoeventssns": "arn:aws:sns:us-west-2:077362005997:staging-mako-events",
  "PrefixUpdatesSNS": "arn:aws:sns:us-west-2:077362005997:staging-mako-prefix-updates",
  "eventemotecollections": {
    "halloween2017": {
      "emotesets": {
        "21889": true,
        "21971": true,
        "12345": true
      },
      "bonusemoteset": "4"
    }
  },
  "pubsubhost": "https://darklaunch.pubsub-broker.twitch.a2z.com/v1/message",
  "rollbartoken": "4d6dfb01555c47b4bfbd108395bca929",
  "uploadserviceurl": "https://staging.upload-service.twitch.a2z.com",
  "uploadcallbacksnstopic": "arn:aws:sns:us-west-2:995367761609:staging-upload-service-callback",
  "uploads3host": "https://s3-us-west-2.amazonaws.com",
  "uploads3bucketname": "staging-emoticon-uploads",
  "AnimatedEmoteFramesS3BucketName": "staging-animated-emote-frames",
  "SubscriptionsHost": "https://main.us-west-2.beta.subscriptions.twitch.a2z.com",
  "PaydayHost": "https://main.us-west-2.beta.payday.twitch.a2z.com",
  "pubsubtimeoutmilliseconds": 5000,
  "dynamodbtimeoutmilliseconds": 1000,
  "MateriaTimeoutMilliseconds": 1000,
  "FollowingServiceTimeoutMilliseconds": 1000,
  "InferenceAcceptableNamesTimeoutMilliseconds": 1000,
  "InferenceClassifyEmoteTimeoutMilliseconds": 1000,
  "PepperTimeoutMilliseconds": 1000,
  "SubscriptionsGetChannelEmoteLimitsTimeoutMilliseconds": 1000,
  "SubscriptionsGetChannelProductsTimeoutMilliseconds": 1000,
  "PaydayGetBitsTierEmoteGroupsTimeoutMilliseconds": 1000,
  "ChemtrailGetEmoteUsageHystrixTimeoutMilliseconds": 2000,
  "autoprofs3bucketname": "mako-staging-autoprof",
  "configs3endpoint": "https://s3-us-west-2.amazonaws.com",
  "configs3bucket": "mako-staging-config",
  "CampaignEmoteOwnersConfigS3Filename": "campaign_owners.json",
  "KnownOrVerifiedBotsS3Filename": "known_or_verified_bots.json",
  "DefaultEmoteImagesDataS3Endpoint": "https://s3-us-west-2.amazonaws.com",
  "DefaultEmoteImagesDataS3Bucket": "mako-staging-default-emote-images-data",
  "DefaultEmoteImagesDataS3Filename": "default_emote_images_data.json",
  "PaintHost": "https://main.us-west-2.beta.paint.twitch.a2z.com",
  "MateriaHost": "https://main.us-west-2.beta.materia.twitch.a2z.com",
  "FollowingServiceHost": "https://us-west-2.beta.twitchvxfollowingserviceecs.s.twitch.a2z.com",
  "CommunityPointsTicketProductID": "300000028",
  "CommunityPointsEmoteSetID": "300000028",
  "CommunityPointsOwnerID": "436872863",
  "SpecialEventOwnerIDs": {
    "477339272": true,
    "472873131": true,
    "488737509": true,
    "537206155": true,
    "564265402": true,
    "592920959": true,
    "610186276": true
  },
  "InferenceServiceEndpoint": "https://inference.service.safety-staging.twitch.a2z.com",
  "RipleyServiceEndpoint": "https://beta.ripley.twitch.a2z.com",
  "RipleyGetPayoutTypeHystrixTimeoutMilliseconds": 500,
  "PepperServiceEndpoint": "https://beta.pepper.twitch.a2z.com",
  "SalesforceOauthHost": "https://test.salesforce.com",
  "MateriaDenylist": {
    "19264788": true,
    "100135110": true,
    "1564983": true,
    "105166207": true,
    "52268235": true,
    "25681094": true
  },
  "PrefixEditabilityOverrideList": {
    "408653515": true,
    "264323767": true,
    "72182602": true,
    "566198773": true,
    "408666169": true,
    "454462538": true
  },
  "ExperimentOverridesS3BucketName": "mako-staging-experiment-overrides",
  "UserServiceHost": "https://dev.users-service.twitch.a2z.com",
  "DartReceiverHost": "https://us-west-2.beta.twitchdartreceiver.s.twitch.a2z.com",
  "S2SServiceName": "mako-staging",
  "S2SEnabled": false,
  "S2SPassthroughEnabled": true,
  "UserDestroySQSQueueURL": "https://sqs.us-west-2.amazonaws.com/077362005997/eventbus_user_destroy_staging",
  "UserDestroySFNARN": "arn:aws:states:us-west-2:077362005997:stateMachine:user_destroy_sfn_staging",
  "AnimatedEmoteFrameSplittingSFNARN": "arn:aws:states:us-west-2:077362005997:stateMachine:gif_frame_splitting_sfn_staging",
  "DeleteS3ImagesQueueURL": "https://sqs.us-west-2.amazonaws.com/077362005997/delete_emote_assets_from_s3_staging",
  "DefaultImageLibraryS3Bucket": "staging-default-emote-library-images",
  "ChemtrailLambdaARN": "arn:aws:lambda:us-west-2:141429874596:function:ChemtrailStack-APIFunctionDD57B14D-1N7VTOF6W0ANT:Live"
}
