{
"fps": 12,
"width": 26,
"height": 40,
"frames": [
[
"", "", "", "", "", "", "", "", "", "", "", "", "", "", "", "", "", "", "", "", "", "", "", "", "", "", 
"", "", "", "", "", "", "", "", "", "", "", "", "", "", "", "", "", "", "", "", "", "", "", "", "", "", 
"", "", "", "", "", "", "", "", "", "", "", "", "", "", "", "", "", "", "", "", "", "", "", "", "", "", 
"", "", "", "", "", "", "", "", "", "", "", "", "", "", "", "", "", "", "", "", "", "", "", "", "", "", 
"", "", "", "", "", "", "", "", "", "", "", "", "", "", "", "", "", "", "", "", "", "", "", "", "", "", 
"", "", "", "", "", "", "", "", "", "", "", "", "", "", "", "", "", "", "", "", "", "", "", "", "", "", 
"", "", "", "", "", "", "", "", "", "", "", "", "", "", "", "", "", "", "", "", "", "", "", "", "", "", 
"", "", "", "", "", "", "", "", "", "", "", "", "", "", "383838", "272727", "272727", "", "", "", "", "", "", "", "", "", 
"", "", "", "", "", "", "", "", "", "", "", "", "", "747476", "747476", "272727", "272727", "272727", "", "", "", "", "", "", "", "", 
"", "", "", "", "", "", "", "", "", "", "", "", "747476", "e3e3e3", "e3e3e3", "747476", "222222", "272727", "272727", "", "", "", "", "", "", "", 
"", "", "", "", "", "", "", "", "", "", "", "747476", "4c4c4d", "ffffff", "ffffff", "e3e3e3", "747476", "222222", "272727", "", "", "", "", "", "", "", 
"", "", "", "", "", "", "", "", "", "", "", "747476", "4c4c4d", "ffffff", "ffffff", "e3e3e3", "747476", "222222", "272727", "", "", "", "", "", "", "", 
"", "", "", "", "", "", "", "", "", "", "", "747476", "474747", "383838", "383838", "e3e3e3", "747476", "222222", "272727", "", "", "", "", "", "", "", 
"", "", "", "", "", "", "", "", "", "", "", "747476", "4c4c4d", "474747", "383838", "e3e3e3", "747476", "272727", "", "", "", "", "", "", "", "", 
"", "", "", "", "", "", "", "", "", "", "", "", "747476", "4c4c4d", "474747", "747476", "272727", "272727", "", "", "", "", "", "", "", "", 
"", "", "", "", "", "", "", "", "", "", "", "", "272727", "747476", "747476", "4a4a4b", "4a4a4b", "272727", "222222", "", "", "", "", "", "", "", 
"", "", "", "", "", "", "", "", "", "", "", "", "272727", "4a4a4b", "4a4a4b", "555556", "555556", "272727", "222222", "1e1e1e", "", "", "", "", "", "", 
"", "", "", "", "", "", "", "", "", "", "", "272727", "272727", "4a4a4b", "555556", "555556", "515151", "515151", "272727", "222222", "", "", "", "", "", "", 
"", "", "", "", "", "", "", "", "", "", "", "272727", "1b1b1c", "4a4a4b", "555556", "515151", "515151", "515151", "272727", "222222", "1e1e1e", "", "", "", "", "", 
"", "", "", "", "", "", "", "", "", "", "", "272727", "1b1b1c", "4a4a4b", "555556", "515151", "515151", "515151", "272727", "272727", "1e1e1e", "", "", "", "", "", 
"", "", "", "", "", "", "", "dddddd", "", "", "", "272727", "1b1b1c", "4a4a4b", "dddddd", "515151", "515151", "515151", "272727", "272727", "222222", "", "", "", "", "", 
"", "", "", "", "", "", "", "dddddd", "", "", "", "1b1b1c", "272727", "4a4a4b", "dddddd", "515151", "515151", "515151", "1b1b1c", "272727", "222222", "", "", "", "", "", 
"", "", "", "", "", "", "", "87878b", "87878b", "", "", "1b1b1c", "272727", "4a4a4b", "87878b", "87878b", "515151", "515151", "1b1b1c", "272727", "222222", "1e1e1e", "", "", "", "", 
"", "", "", "", "", "", "", "", "ffffff", "ffffff", "1b1b1c", "272727", "272727", "4a4a4b", "555556", "ffffff", "ffffff", "1b1b1c", "4a4a4b", "272727", "222222", "1e1e1e", "", "", "", "", 
"", "", "", "", "", "", "", "", "87878b", "", "", "272727", "272727", "555556", "555556", "87878b", "515151", "4a4a4b", "4a4a4b", "272727", "272727", "1e1e1e", "", "", "", "", 
"", "", "", "", "", "", "", "", "", "", "", "272727", "272727", "1212ce", "1212ce", "0000b2", "0000b2", "0000b2", "040490", "272727", "272727", "222222", "1e1e1e", "", "", "", 
"", "", "", "", "", "", "", "", "", "", "", "272727", "272727", "1212ce", "0000b2", "040490", "040490", "0000b2", "0000b2", "272727", "272727", "222222", "1e1e1e", "", "", "", 
"", "", "", "", "", "", "", "", "", "", "", "272727", "272727", "0000b2", "040490", "1b1b1c", "1b1b1c", "040490", "0000b2", "272727", "272727", "222222", "1e1e1e", "", "", "", 
"", "", "", "", "", "", "", "", "", "", "", "272727", "1212ce", "0000b2", "1b1b1c", "1b1b1c", "1b1b1c", "1b1b1c", "0000b2", "272727", "272727", "222222", "1e1e1e", "", "", "", 
"", "", "", "", "", "", "", "", "", "", "", "1212ce", "0000b2", "1b1b1c", "1b1b1c", "1b1b1c", "1b1b1c", "1b1b1c", "1b1b1c", "272727", "272727", "222222", "1e1e1e", "", "", "", 
"", "", "", "", "", "", "", "", "", "", "1212ce", "0000b2", "1b1b1c", "1b1b1c", "", "", "", "", "272727", "222222", "222222", "1e1e1e", "", "", "", "", 
"", "", "", "", "", "", "", "", "", "", "0000b2", "0000b2", "040490", "", "", "", "", "", "1e1e1e", "1e1e1e", "0000b2", "040490", "", "", "", "", 
"", "", "", "", "", "", "", "", "", "", "", "0000b2", "0000b2", "040490", "", "", "", "", "", "", "", "0000b2", "040490", "", "", "", 
"", "", "", "", "", "", "", "", "", "", "", "", "", "0000b2", "040490", "", "", "", "", "", "", "", "0000b2", "040490", "", "", 
"", "", "", "", "", "", "", "", "", "", "", "", "", "", "000000", "", "", "", "", "", "", "", "", "000000", "", "", 
"", "", "", "", "", "", "", "", "", "", "", "", "", "", "000000", "", "", "", "", "", "", "", "", "000000", "", "", 
"", "", "", "", "", "", "", "", "", "", "", "", "", "000000", "000000", "", "", "", "", "", "", "", "000000", "000000", "", "", 
"", "", "", "", "", "", "", "", "", "", "", "", "", "", "", "", "", "", "", "", "", "", "", "", "", "", 
"", "", "", "", "", "", "", "", "", "", "", "", "", "", "", "", "", "", "", "", "", "", "", "", "", "", 
"", "", "", "", "", "", "", "", "", "", "", "", "", "", "", "", "", "", "", "", "", "", "", "", "", ""
],
[
"", "", "", "", "", "", "", "", "", "", "", "", "", "", "", "", "", "", "", "", "", "", "", "", "", "", 
"", "", "", "", "", "", "", "", "", "", "", "", "", "", "", "", "", "", "", "", "", "", "", "", "", "", 
"", "", "", "", "", "", "", "", "", "", "", "", "", "", "", "", "", "", "", "", "", "", "", "", "", "", 
"", "", "", "", "", "", "", "", "", "", "", "", "", "", "", "", "", "", "", "", "", "", "", "", "", "", 
"", "", "", "", "", "", "", "", "", "", "", "", "", "", "", "", "", "", "", "", "", "", "", "", "", "", 
"", "", "", "", "", "", "", "", "", "", "", "", "", "", "", "", "", "", "", "", "", "", "", "", "", "", 
"", "", "", "", "", "", "", "", "", "", "", "", "", "", "", "", "", "", "", "", "", "", "", "", "", "", 
"", "", "", "", "", "", "", "", "", "", "", "", "", "", "383838", "272727", "272727", "", "", "", "", "", "", "", "", "", 
"", "", "", "", "", "", "", "", "", "", "", "", "", "747476", "747476", "272727", "272727", "272727", "", "", "", "", "", "", "", "", 
"", "", "", "", "", "", "", "", "", "", "", "", "747476", "e3e3e3", "e3e3e3", "747476", "222222", "272727", "272727", "", "", "", "", "", "", "", 
"", "", "", "", "", "", "", "", "", "", "", "747476", "4c4c4d", "ffffff", "ffffff", "e3e3e3", "747476", "222222", "272727", "", "", "", "", "", "", "", 
"", "", "", "", "", "", "", "", "", "", "", "747476", "4c4c4d", "ffffff", "ffffff", "e3e3e3", "747476", "222222", "272727", "", "", "", "", "", "", "", 
"", "", "", "", "", "", "", "", "", "", "", "747476", "474747", "383838", "383838", "e3e3e3", "747476", "222222", "272727", "", "", "", "", "", "", "", 
"", "", "", "", "", "", "", "", "", "", "", "747476", "4c4c4d", "474747", "383838", "e3e3e3", "747476", "272727", "", "", "", "", "", "", "", "", 
"", "", "", "", "", "", "", "", "", "", "", "", "747476", "4c4c4d", "474747", "747476", "272727", "272727", "", "", "", "", "", "", "", "", 
"", "", "", "", "", "", "", "", "", "", "", "", "272727", "747476", "747476", "4a4a4b", "4a4a4b", "272727", "222222", "", "", "", "", "", "", "", 
"", "", "", "", "", "", "", "", "", "", "", "", "272727", "4a4a4b", "4a4a4b", "555556", "555556", "272727", "222222", "1e1e1e", "", "", "", "", "", "", 
"", "", "", "", "", "", "", "", "", "", "", "272727", "272727", "4a4a4b", "555556", "555556", "515151", "515151", "272727", "222222", "", "", "", "", "", "", 
"", "", "", "", "", "", "", "", "", "", "", "272727", "1b1b1c", "4a4a4b", "555556", "515151", "515151", "515151", "272727", "222222", "1e1e1e", "", "", "", "", "", 
"", "", "", "", "", "", "", "", "", "", "", "272727", "1b1b1c", "4a4a4b", "555556", "515151", "515151", "515151", "272727", "272727", "1e1e1e", "", "", "", "", "", 
"", "", "", "", "", "", "", "dddddd", "", "", "", "272727", "1b1b1c", "4a4a4b", "dddddd", "515151", "515151", "515151", "272727", "272727", "222222", "", "", "", "", "", 
"", "", "", "", "", "", "", "dddddd", "", "", "", "1b1b1c", "272727", "4a4a4b", "dddddd", "515151", "515151", "515151", "1b1b1c", "272727", "222222", "", "", "", "", "", 
"", "", "", "", "", "", "", "87878b", "87878b", "", "", "1b1b1c", "272727", "4a4a4b", "87878b", "87878b", "515151", "515151", "1b1b1c", "272727", "222222", "1e1e1e", "", "", "", "", 
"", "", "", "", "", "", "", "", "ffffff", "ffffff", "1b1b1c", "272727", "272727", "4a4a4b", "555556", "ffffff", "ffffff", "1b1b1c", "4a4a4b", "272727", "222222", "1e1e1e", "", "", "", "", 
"", "", "", "", "", "", "", "", "87878b", "", "", "272727", "272727", "555556", "555556", "87878b", "515151", "4a4a4b", "4a4a4b", "272727", "272727", "1e1e1e", "", "", "", "", 
"", "", "", "", "", "", "", "", "", "", "", "272727", "272727", "1212ce", "1212ce", "0000b2", "0000b2", "0000b2", "040490", "272727", "272727", "222222", "1e1e1e", "", "", "", 
"", "", "", "", "", "", "", "", "", "", "", "272727", "272727", "1212ce", "0000b2", "040490", "040490", "0000b2", "0000b2", "272727", "272727", "222222", "1e1e1e", "", "", "", 
"", "", "", "", "", "", "", "", "", "", "", "272727", "272727", "0000b2", "040490", "1b1b1c", "1b1b1c", "040490", "0000b2", "272727", "272727", "222222", "1e1e1e", "", "", "", 
"", "", "", "", "", "", "", "", "", "", "", "272727", "1212ce", "0000b2", "1b1b1c", "1b1b1c", "1b1b1c", "1b1b1c", "0000b2", "272727", "272727", "222222", "1e1e1e", "", "", "", 
"", "", "", "", "", "", "", "", "", "", "", "1212ce", "0000b2", "1b1b1c", "1b1b1c", "1b1b1c", "1b1b1c", "1b1b1c", "1b1b1c", "272727", "272727", "222222", "1e1e1e", "", "", "", 
"", "", "", "", "", "", "", "", "", "", "1212ce", "0000b2", "1b1b1c", "1b1b1c", "", "", "", "", "272727", "222222", "222222", "1e1e1e", "", "", "", "", 
"", "", "", "", "", "", "", "", "", "", "0000b2", "0000b2", "040490", "", "", "", "", "", "1e1e1e", "1e1e1e", "0000b2", "040490", "", "", "", "", 
"", "", "", "", "", "", "", "", "", "", "", "0000b2", "0000b2", "040490", "", "", "", "", "", "", "", "0000b2", "040490", "", "", "", 
"", "", "", "", "", "", "", "", "", "", "", "", "", "0000b2", "040490", "", "", "", "", "", "", "", "0000b2", "040490", "", "", 
"", "", "", "", "", "", "", "", "", "", "", "", "", "", "000000", "", "", "", "", "", "", "", "", "000000", "", "", 
"", "", "", "", "", "", "", "", "", "", "", "", "", "", "000000", "", "", "", "", "", "", "", "", "000000", "", "", 
"", "", "", "", "", "", "", "", "", "", "", "", "", "000000", "000000", "", "", "", "", "", "", "", "000000", "000000", "", "", 
"", "", "", "", "", "", "", "", "", "", "", "", "", "", "", "", "", "", "", "", "", "", "", "", "", "", 
"", "", "", "", "", "", "", "", "", "", "", "", "", "", "", "", "", "", "", "", "", "", "", "", "", "", 
"", "", "", "", "", "", "", "", "", "", "", "", "", "", "", "", "", "", "", "", "", "", "", "", "", ""
],
[
"", "", "", "", "", "", "", "", "", "", "", "", "", "", "", "", "", "", "", "", "", "", "", "", "", "", 
"", "", "", "", "", "", "", "", "", "", "", "", "", "", "", "", "", "", "", "", "", "", "", "", "", "", 
"", "", "", "", "", "", "", "", "", "", "", "", "", "", "", "", "", "", "", "", "", "", "", "", "", "", 
"", "", "", "", "", "", "", "", "", "", "", "", "", "", "", "", "", "", "", "", "", "", "", "", "", "", 
"", "", "", "", "", "", "", "", "", "", "", "", "", "", "", "", "", "", "", "", "", "", "", "", "", "", 
"", "", "", "", "", "", "", "", "", "", "", "", "", "", "", "", "", "", "", "", "", "", "", "", "", "", 
"", "", "", "", "", "", "", "", "", "", "", "", "", "", "", "", "", "", "", "", "", "", "", "", "", "", 
"", "", "", "", "", "", "", "", "", "", "", "", "", "", "", "", "", "", "", "", "", "", "", "", "", "", 
"", "", "", "", "", "", "", "", "", "", "", "", "", "383838", "272727", "272727", "", "", "", "", "", "", "", "", "", "", 
"", "", "", "", "", "", "", "", "", "", "", "", "747476", "747476", "272727", "272727", "272727", "", "", "", "", "", "", "", "", "", 
"", "", "", "", "", "", "", "", "", "", "", "747476", "e3e3e3", "e3e3e3", "747476", "222222", "272727", "272727", "", "", "", "", "", "", "", "", 
"", "", "", "", "", "", "", "", "", "", "747476", "4c4c4d", "ffffff", "ffffff", "e3e3e3", "747476", "222222", "272727", "", "", "", "", "", "", "", "", 
"", "", "", "", "", "", "", "", "", "", "747476", "4c4c4d", "ffffff", "ffffff", "e3e3e3", "747476", "222222", "272727", "", "", "", "", "", "", "", "", 
"", "", "", "", "", "", "", "", "", "", "747476", "474747", "383838", "383838", "e3e3e3", "747476", "222222", "272727", "", "", "", "", "", "", "", "", 
"", "", "", "", "", "", "", "", "", "", "747476", "4c4c4d", "474747", "383838", "e3e3e3", "747476", "272727", "", "", "", "", "", "", "", "", "", 
"", "", "", "", "", "", "", "", "", "", "", "747476", "4c4c4d", "474747", "747476", "272727", "272727", "", "", "", "", "", "", "", "", "", 
"", "", "", "", "", "", "", "", "", "", "", "272727", "747476", "747476", "4a4a4b", "383838", "272727", "222222", "", "", "", "", "", "", "", "", 
"", "", "", "", "", "", "", "", "", "", "", "272727", "4a4a4b", "4a4a4b", "555556", "555556", "272727", "222222", "1e1e1e", "", "", "", "", "", "", "", 
"", "", "", "", "", "", "", "", "", "", "272727", "1b1b1c", "4a4a4b", "555556", "555556", "515151", "515151", "272727", "222222", "1e1e1e", "", "", "", "", "", "", 
"", "", "", "", "", "", "", "", "", "", "272727", "1b1b1c", "4a4a4b", "555556", "515151", "515151", "515151", "272727", "272727", "222222", "", "", "", "", "", "", 
"", "", "", "", "", "", "", "", "", "", "272727", "1b1b1c", "4a4a4b", "555556", "515151", "515151", "515151", "272727", "272727", "222222", "", "", "", "", "", "", 
"", "", "", "", "", "", "dddddd", "", "", "", "1b1b1c", "272727", "4a4a4b", "dddddd", "515151", "515151", "515151", "1b1b1c", "272727", "222222", "1e1e1e", "", "", "", "", "", 
"", "", "", "", "", "", "dddddd", "", "", "", "1b1b1c", "272727", "272727", "dddddd", "515151", "515151", "515151", "1b1b1c", "272727", "272727", "1e1e1e", "", "", "", "", "", 
"", "", "", "", "", "", "87878b", "87878b", "", "", "1b1b1c", "272727", "272727", "87878b", "87878b", "515151", "515151", "1b1b1c", "272727", "272727", "222222", "1b1b1c", "", "", "", "", 
"", "", "", "", "", "", "", "ffffff", "ffffff", "1b1b1c", "", "272727", "272727", "555556", "ffffff", "ffffff", "1b1b1c", "4a4a4b", "272727", "272727", "222222", "1b1b1c", "", "", "", "", 
"", "", "", "", "", "", "", "87878b", "", "", "", "272727", "272727", "1212ce", "87878b", "0000b2", "0000b2", "040490", "272727", "272727", "272727", "1e1e1e", "1b1b1c", "", "", "", 
"", "", "", "", "", "", "", "", "", "", "", "272727", "272727", "1212ce", "0000b2", "040490", "040490", "0000b2", "0000b2", "272727", "272727", "222222", "1b1b1c", "", "", "", 
"", "", "", "", "", "", "", "", "", "", "", "", "272727", "0000b2", "040490", "1b1b1c", "1b1b1c", "040490", "0000b2", "272727", "272727", "222222", "1e1e1e", "", "", "", 
"", "", "", "", "", "", "", "", "", "", "", "", "1212ce", "0000b2", "1b1b1c", "1b1b1c", "1b1b1c", "1b1b1c", "0000b2", "272727", "272727", "222222", "1e1e1e", "", "", "", 
"", "", "", "", "", "", "", "", "", "", "", "1212ce", "0000b2", "1b1b1c", "1b1b1c", "1b1b1c", "1b1b1c", "1b1b1c", "1b1b1c", "272727", "272727", "222222", "1e1e1e", "", "", "", 
"", "", "", "", "", "", "", "", "", "", "1212ce", "0000b2", "", "1b1b1c", "1b1b1c", "1b1b1c", "1b1b1c", "", "", "272727", "222222", "222222", "1b1b1c", "", "", "", 
"", "", "", "", "", "", "", "", "", "", "0000b2", "0000b2", "040490", "", "1b1b1c", "1b1b1c", "", "", "", "1b1b1c", "1b1b1c", "1b1b1c", "", "", "", "", 
"", "", "", "", "", "", "", "", "", "", "", "0000b2", "0000b2", "040490", "", "", "", "", "", "", "", "0000b2", "040490", "", "", "", 
"", "", "", "", "", "", "", "", "", "", "", "", "", "0000b2", "040490", "", "", "", "", "", "", "", "0000b2", "040490", "", "", 
"", "", "", "", "", "", "", "", "", "", "", "", "", "", "000000", "", "", "", "", "", "", "", "", "000000", "", "", 
"", "", "", "", "", "", "", "", "", "", "", "", "", "", "000000", "", "", "", "", "", "", "", "", "000000", "", "", 
"", "", "", "", "", "", "", "", "", "", "", "", "", "000000", "000000", "", "", "", "", "", "", "", "000000", "000000", "", "", 
"", "", "", "", "", "", "", "", "", "", "", "", "", "", "", "", "", "", "", "", "", "", "", "", "", "", 
"", "", "", "", "", "", "", "", "", "", "", "", "", "", "", "", "", "", "", "", "", "", "", "", "", "", 
"", "", "", "", "", "", "", "", "", "", "", "", "", "", "", "", "", "", "", "", "", "", "", "", "", ""
],
[
"", "", "", "", "", "", "", "", "", "", "", "", "", "", "", "", "", "", "", "", "", "", "", "", "", "", 
"", "", "", "", "", "", "", "", "", "", "", "", "", "", "", "", "", "", "", "", "", "", "", "", "", "", 
"", "", "", "", "", "", "", "", "", "", "", "", "", "", "", "", "", "", "", "", "", "", "", "", "", "", 
"", "", "", "", "", "", "", "", "", "", "", "", "", "", "", "", "", "", "", "", "", "", "", "", "", "", 
"", "", "", "", "", "", "", "", "", "", "", "", "", "", "", "", "", "", "", "", "", "", "", "", "", "", 
"", "", "", "", "", "", "", "", "", "", "", "", "", "", "", "", "", "", "", "", "", "", "", "", "", "", 
"", "", "", "", "", "", "", "", "", "", "", "", "", "", "", "", "", "", "", "", "", "", "", "", "", "", 
"", "", "", "", "", "", "", "", "", "", "", "", "", "", "", "", "", "", "", "", "", "", "", "", "", "", 
"", "", "", "", "", "", "", "", "", "", "", "", "", "383838", "272727", "272727", "", "", "", "", "", "", "", "", "", "", 
"", "", "", "", "", "", "", "", "", "", "", "", "747476", "747476", "272727", "272727", "272727", "", "", "", "", "", "", "", "", "", 
"", "", "", "", "", "", "", "", "", "", "", "747476", "e3e3e3", "e3e3e3", "747476", "222222", "272727", "272727", "", "", "", "", "", "", "", "", 
"", "", "", "", "", "", "", "", "", "", "747476", "4c4c4d", "ffffff", "ffffff", "e3e3e3", "747476", "222222", "272727", "", "", "", "", "", "", "", "", 
"", "", "", "", "", "", "", "", "", "", "747476", "4c4c4d", "ffffff", "ffffff", "e3e3e3", "747476", "222222", "272727", "", "", "", "", "", "", "", "", 
"", "", "", "", "", "", "", "", "", "", "747476", "474747", "383838", "383838", "e3e3e3", "747476", "222222", "272727", "", "", "", "", "", "", "", "", 
"", "", "", "", "", "", "", "", "", "", "747476", "4c4c4d", "474747", "383838", "e3e3e3", "747476", "272727", "", "", "", "", "", "", "", "", "", 
"", "", "", "", "", "", "", "", "", "", "", "747476", "4c4c4d", "474747", "747476", "272727", "272727", "", "", "", "", "", "", "", "", "", 
"", "", "", "", "", "", "", "", "", "", "", "272727", "747476", "747476", "4a4a4b", "383838", "272727", "222222", "", "", "", "", "", "", "", "", 
"", "", "", "", "", "", "", "", "", "", "", "272727", "4a4a4b", "4a4a4b", "555556", "555556", "272727", "222222", "1e1e1e", "", "", "", "", "", "", "", 
"", "", "", "", "", "", "", "", "", "", "272727", "1b1b1c", "4a4a4b", "555556", "555556", "515151", "515151", "272727", "222222", "1e1e1e", "", "", "", "", "", "", 
"", "", "", "", "", "", "", "", "", "", "272727", "1b1b1c", "4a4a4b", "555556", "515151", "515151", "515151", "272727", "272727", "222222", "", "", "", "", "", "", 
"", "", "", "", "", "", "", "", "", "", "272727", "1b1b1c", "4a4a4b", "555556", "515151", "515151", "515151", "272727", "272727", "222222", "", "", "", "", "", "", 
"", "", "", "", "", "", "dddddd", "", "", "", "1b1b1c", "272727", "4a4a4b", "dddddd", "515151", "515151", "515151", "1b1b1c", "272727", "222222", "1e1e1e", "", "", "", "", "", 
"", "", "", "", "", "", "dddddd", "", "", "", "1b1b1c", "272727", "272727", "dddddd", "515151", "515151", "515151", "1b1b1c", "272727", "272727", "1e1e1e", "", "", "", "", "", 
"", "", "", "", "", "", "87878b", "87878b", "", "", "1b1b1c", "272727", "272727", "87878b", "87878b", "515151", "515151", "1b1b1c", "272727", "272727", "222222", "1b1b1c", "", "", "", "", 
"", "", "", "", "", "", "", "ffffff", "ffffff", "1b1b1c", "", "272727", "272727", "555556", "ffffff", "ffffff", "1b1b1c", "4a4a4b", "272727", "272727", "222222", "1b1b1c", "", "", "", "", 
"", "", "", "", "", "", "", "87878b", "", "", "", "272727", "272727", "1212ce", "87878b", "0000b2", "0000b2", "040490", "272727", "272727", "272727", "1e1e1e", "1b1b1c", "", "", "", 
"", "", "", "", "", "", "", "", "", "", "", "272727", "272727", "1212ce", "0000b2", "040490", "040490", "0000b2", "0000b2", "272727", "272727", "222222", "1b1b1c", "", "", "", 
"", "", "", "", "", "", "", "", "", "", "", "", "272727", "0000b2", "040490", "1b1b1c", "1b1b1c", "040490", "0000b2", "272727", "272727", "222222", "1e1e1e", "", "", "", 
"", "", "", "", "", "", "", "", "", "", "", "", "1212ce", "0000b2", "1b1b1c", "1b1b1c", "1b1b1c", "1b1b1c", "0000b2", "272727", "272727", "222222", "1e1e1e", "", "", "", 
"", "", "", "", "", "", "", "", "", "", "", "1212ce", "0000b2", "1b1b1c", "1b1b1c", "1b1b1c", "1b1b1c", "1b1b1c", "1b1b1c", "272727", "272727", "222222", "1e1e1e", "", "", "", 
"", "", "", "", "", "", "", "", "", "", "1212ce", "0000b2", "", "1b1b1c", "1b1b1c", "1b1b1c", "1b1b1c", "", "", "272727", "222222", "222222", "1b1b1c", "", "", "", 
"", "", "", "", "", "", "", "", "", "", "0000b2", "0000b2", "040490", "", "1b1b1c", "1b1b1c", "", "", "", "1b1b1c", "1b1b1c", "1b1b1c", "", "", "", "", 
"", "", "", "", "", "", "", "", "", "", "", "0000b2", "0000b2", "040490", "", "", "", "", "", "", "", "0000b2", "040490", "", "", "", 
"", "", "", "", "", "", "", "", "", "", "", "", "", "0000b2", "040490", "", "", "", "", "", "", "", "0000b2", "040490", "", "", 
"", "", "", "", "", "", "", "", "", "", "", "", "", "", "000000", "", "", "", "", "", "", "", "", "000000", "", "", 
"", "", "", "", "", "", "", "", "", "", "", "", "", "", "000000", "", "", "", "", "", "", "", "", "000000", "", "", 
"", "", "", "", "", "", "", "", "", "", "", "", "", "000000", "000000", "", "", "", "", "", "", "", "000000", "000000", "", "", 
"", "", "", "", "", "", "", "", "", "", "", "", "", "", "", "", "", "", "", "", "", "", "", "", "", "", 
"", "", "", "", "", "", "", "", "", "", "", "", "", "", "", "", "", "", "", "", "", "", "", "", "", "", 
"", "", "", "", "", "", "", "", "", "", "", "", "", "", "", "", "", "", "", "", "", "", "", "", "", ""
],
[
"", "", "", "", "", "", "", "", "", "", "", "", "", "", "", "", "", "", "", "", "", "", "", "", "", "", 
"", "", "", "", "", "", "", "", "", "", "", "", "", "", "", "", "", "", "", "", "", "", "", "", "", "", 
"", "", "", "", "", "", "", "", "", "", "", "", "", "", "", "", "", "", "", "", "", "", "", "", "", "", 
"", "", "", "", "", "", "", "", "", "", "", "", "", "", "", "", "", "", "", "", "", "", "", "", "", "", 
"", "", "", "", "", "", "", "", "", "", "", "", "", "", "", "", "", "", "", "", "", "", "", "", "", "", 
"", "", "", "", "", "", "", "", "", "", "", "", "", "", "", "", "", "", "", "", "", "", "", "", "", "", 
"", "", "", "", "", "", "", "", "", "", "", "", "", "", "", "", "", "", "", "", "", "", "", "", "", "", 
"", "", "", "", "", "", "", "", "", "", "", "", "", "", "", "", "", "", "", "", "", "", "", "", "", "", 
"", "", "", "", "", "", "", "", "", "", "", "", "", "", "", "", "", "", "", "", "", "", "", "", "", "", 
"", "", "", "", "", "", "", "", "", "", "", "", "", "", "383838", "272727", "272727", "", "", "", "", "", "", "", "", "", 
"", "", "", "", "", "", "", "", "", "", "", "", "", "747476", "747476", "272727", "272727", "272727", "", "", "", "", "", "", "", "", 
"", "", "", "", "", "", "", "", "", "", "", "", "747476", "e3e3e3", "e3e3e3", "747476", "222222", "272727", "272727", "", "", "", "", "", "", "", 
"", "", "", "", "", "", "", "", "", "", "", "747476", "4c4c4d", "ffffff", "ffffff", "e3e3e3", "747476", "222222", "272727", "", "", "", "", "", "", "", 
"", "", "", "", "", "", "", "", "", "", "", "747476", "4c4c4d", "ffffff", "ffffff", "e3e3e3", "747476", "222222", "272727", "", "", "", "", "", "", "", 
"", "", "", "", "", "", "", "", "", "", "", "747476", "474747", "383838", "383838", "e3e3e3", "747476", "222222", "272727", "", "", "", "", "", "", "", 
"", "", "", "", "", "", "", "", "", "", "", "747476", "4c4c4d", "474747", "383838", "e3e3e3", "747476", "272727", "", "", "", "", "", "", "", "", 
"", "", "", "", "", "", "", "", "", "", "", "", "747476", "4c4c4d", "474747", "747476", "272727", "272727", "", "", "", "", "", "", "", "", 
"", "", "", "", "", "", "", "", "", "", "", "", "272727", "747476", "747476", "4a4a4b", "383838", "272727", "222222", "", "", "", "", "", "", "", 
"", "", "", "", "", "", "", "", "", "", "", "", "272727", "4a4a4b", "4a4a4b", "555556", "555556", "272727", "222222", "1e1e1e", "", "", "", "", "", "", 
"", "", "", "", "", "", "", "", "", "", "", "272727", "1b1b1c", "4a4a4b", "555556", "555556", "515151", "515151", "272727", "222222", "1e1e1e", "", "", "", "", "", 
"", "", "", "", "", "", "", "", "", "", "", "272727", "1b1b1c", "4a4a4b", "555556", "515151", "515151", "515151", "272727", "222222", "1e1e1e", "", "", "", "", "", 
"", "", "", "", "", "", "", "", "", "", "", "272727", "1b1b1c", "4a4a4b", "555556", "515151", "515151", "515151", "272727", "272727", "222222", "", "", "", "", "", 
"", "", "", "", "", "", "", "dddddd", "", "", "", "1b1b1c", "272727", "4a4a4b", "dddddd", "515151", "515151", "515151", "1b1b1c", "272727", "222222", "1e1e1e", "", "", "", "", 
"", "", "", "", "", "", "", "dddddd", "", "", "", "1b1b1c", "272727", "4a4a4b", "dddddd", "515151", "515151", "515151", "1b1b1c", "272727", "272727", "222222", "", "", "", "", 
"", "", "", "", "", "", "", "87878b", "87878b", "", "", "1b1b1c", "272727", "555556", "87878b", "87878b", "515151", "515151", "1b1b1c", "272727", "272727", "222222", "1e1e1e", "", "", "", 
"", "", "", "", "", "", "", "", "ffffff", "ffffff", "1b1b1c", "272727", "272727", "1212ce", "1212ce", "ffffff", "ffffff", "1b1b1c", "040490", "272727", "272727", "222222", "1e1e1e", "", "", "", 
"", "", "", "", "", "", "", "", "87878b", "", "", "272727", "272727", "1212ce", "0000b2", "87878b", "040490", "0000b2", "0000b2", "272727", "272727", "222222", "1e1e1e", "1b1b1c", "", "", 
"", "", "", "", "", "", "", "", "", "", "", "272727", "272727", "0000b2", "040490", "1b1b1c", "1b1b1c", "040490", "0000b2", "1b1b1c", "272727", "222222", "1e1e1e", "1b1b1c", "", "", 
"", "", "", "", "", "", "", "", "", "", "", "", "1212ce", "0000b2", "1b1b1c", "1b1b1c", "1b1b1c", "1b1b1c", "0000b2", "0000b2", "272727", "222222", "1e1e1e", "1b1b1c", "", "", 
"", "", "", "", "", "", "", "", "", "", "", "1212ce", "0000b2", "1b1b1c", "1b1b1c", "1b1b1c", "1b1b1c", "1b1b1c", "1b1b1c", "0000b2", "272727", "222222", "1e1e1e", "1b1b1c", "", "", 
"", "", "", "", "", "", "", "", "", "", "1212ce", "0000b2", "", "1b1b1c", "1b1b1c", "1b1b1c", "1b1b1c", "1b1b1c", "1b1b1c", "1b1b1c", "272727", "222222", "1e1e1e", "1b1b1c", "", "", 
"", "", "", "", "", "", "", "", "", "", "0000b2", "0000b2", "040490", "1b1b1c", "1b1b1c", "1b1b1c", "", "", "", "1b1b1c", "222222", "222222", "1e1e1e", "1b1b1c", "", "", 
"", "", "", "", "", "", "", "", "", "", "", "0000b2", "0000b2", "040490", "1b1b1c", "", "", "", "", "", "1e1e1e", "1e1e1e", "1e1e1e", "", "", "", 
"", "", "", "", "", "", "", "", "", "", "", "", "", "0000b2", "040490", "", "", "", "", "", "", "", "0000b2", "040490", "", "", 
"", "", "", "", "", "", "", "", "", "", "", "", "", "", "000000", "", "", "", "", "", "", "", "", "000000", "", "", 
"", "", "", "", "", "", "", "", "", "", "", "", "", "", "000000", "", "", "", "", "", "", "", "", "000000", "", "", 
"", "", "", "", "", "", "", "", "", "", "", "", "", "000000", "000000", "", "", "", "", "", "", "", "000000", "000000", "", "", 
"", "", "", "", "", "", "", "", "", "", "", "", "", "", "", "", "", "", "", "", "", "", "", "", "", "", 
"", "", "", "", "", "", "", "", "", "", "", "", "", "", "", "", "", "", "", "", "", "", "", "", "", "", 
"", "", "", "", "", "", "", "", "", "", "", "", "", "", "", "", "", "", "", "", "", "", "", "", "", ""
],
[
"", "", "", "", "", "", "", "", "", "", "", "", "", "", "", "", "", "", "", "", "", "", "", "", "", "", 
"", "", "", "", "", "", "", "", "", "", "", "", "", "", "", "", "", "", "", "", "", "", "", "", "", "", 
"", "", "", "", "", "", "", "", "", "", "", "", "", "", "", "", "", "", "", "", "", "", "", "", "", "", 
"", "", "", "", "", "", "", "", "", "", "", "", "", "", "", "", "", "", "", "", "", "", "", "", "", "", 
"", "", "", "", "", "", "", "", "", "", "", "", "", "", "", "", "", "", "", "", "", "", "", "", "", "", 
"", "", "", "", "", "", "", "", "", "", "", "", "", "", "", "", "", "", "", "", "", "", "", "", "", "", 
"", "", "", "", "", "", "", "", "", "", "", "", "", "", "", "", "", "", "", "", "", "", "", "", "", "", 
"", "", "", "", "", "", "", "", "", "", "", "", "", "", "", "", "", "", "", "", "", "", "", "", "", "", 
"", "", "", "", "", "", "", "", "", "", "", "", "", "", "", "", "", "", "", "", "", "", "", "", "", "", 
"", "", "", "", "", "", "", "", "", "", "", "", "", "", "383838", "272727", "272727", "", "", "", "", "", "", "", "", "", 
"", "", "", "", "", "", "", "", "", "", "", "", "", "747476", "747476", "272727", "272727", "272727", "", "", "", "", "", "", "", "", 
"", "", "", "", "", "", "", "", "", "", "", "", "747476", "e3e3e3", "e3e3e3", "747476", "222222", "272727", "272727", "", "", "", "", "", "", "", 
"", "", "", "", "", "", "", "", "", "", "", "747476", "4c4c4d", "ffffff", "ffffff", "e3e3e3", "747476", "222222", "272727", "", "", "", "", "", "", "", 
"", "", "", "", "", "", "", "", "", "", "", "747476", "4c4c4d", "ffffff", "ffffff", "e3e3e3", "747476", "222222", "272727", "", "", "", "", "", "", "", 
"", "", "", "", "", "", "", "", "", "", "", "747476", "474747", "383838", "383838", "e3e3e3", "747476", "222222", "272727", "", "", "", "", "", "", "", 
"", "", "", "", "", "", "", "", "", "", "", "747476", "4c4c4d", "474747", "383838", "e3e3e3", "747476", "272727", "", "", "", "", "", "", "", "", 
"", "", "", "", "", "", "", "", "", "", "", "", "747476", "4c4c4d", "474747", "747476", "272727", "272727", "", "", "", "", "", "", "", "", 
"", "", "", "", "", "", "", "", "", "", "", "", "272727", "747476", "747476", "4a4a4b", "383838", "272727", "222222", "", "", "", "", "", "", "", 
"", "", "", "", "", "", "", "", "", "", "", "", "272727", "4a4a4b", "4a4a4b", "555556", "555556", "272727", "222222", "1e1e1e", "", "", "", "", "", "", 
"", "", "", "", "", "", "", "", "", "", "", "272727", "1b1b1c", "4a4a4b", "555556", "555556", "515151", "515151", "272727", "222222", "1e1e1e", "", "", "", "", "", 
"", "", "", "", "", "", "", "", "", "", "", "272727", "1b1b1c", "4a4a4b", "555556", "515151", "515151", "515151", "272727", "222222", "1e1e1e", "", "", "", "", "", 
"", "", "", "", "", "", "", "", "", "", "", "272727", "1b1b1c", "4a4a4b", "555556", "515151", "515151", "515151", "272727", "272727", "222222", "", "", "", "", "", 
"", "", "", "", "", "", "", "dddddd", "", "", "", "1b1b1c", "272727", "4a4a4b", "dddddd", "515151", "515151", "515151", "1b1b1c", "272727", "222222", "1e1e1e", "", "", "", "", 
"", "", "", "", "", "", "", "dddddd", "", "", "", "1b1b1c", "272727", "4a4a4b", "dddddd", "515151", "515151", "515151", "1b1b1c", "272727", "272727", "222222", "", "", "", "", 
"", "", "", "", "", "", "", "87878b", "87878b", "", "", "1b1b1c", "272727", "555556", "87878b", "87878b", "515151", "515151", "1b1b1c", "272727", "272727", "222222", "1e1e1e", "", "", "", 
"", "", "", "", "", "", "", "", "ffffff", "ffffff", "1b1b1c", "272727", "272727", "1212ce", "1212ce", "ffffff", "ffffff", "1b1b1c", "040490", "272727", "272727", "222222", "1e1e1e", "", "", "", 
"", "", "", "", "", "", "", "", "87878b", "", "", "272727", "272727", "1212ce", "0000b2", "87878b", "040490", "0000b2", "0000b2", "272727", "272727", "222222", "1b1b1c", "1b1b1c", "", "", 
"", "", "", "", "", "", "", "", "", "", "", "272727", "272727", "0000b2", "040490", "1b1b1c", "1b1b1c", "040490", "0000b2", "1b1b1c", "272727", "222222", "1e1e1e", "1b1b1c", "", "", 
"", "", "", "", "", "", "", "", "", "", "", "", "1212ce", "0000b2", "1b1b1c", "1b1b1c", "1b1b1c", "1b1b1c", "0000b2", "0000b2", "272727", "222222", "1e1e1e", "1b1b1c", "", "", 
"", "", "", "", "", "", "", "", "", "", "", "1212ce", "0000b2", "1b1b1c", "1b1b1c", "1b1b1c", "1b1b1c", "1b1b1c", "1b1b1c", "0000b2", "272727", "222222", "1e1e1e", "1b1b1c", "", "", 
"", "", "", "", "", "", "", "", "", "", "1212ce", "0000b2", "", "1b1b1c", "1b1b1c", "1b1b1c", "1b1b1c", "1b1b1c", "1b1b1c", "1b1b1c", "272727", "222222", "1e1e1e", "1b1b1c", "", "", 
"", "", "", "", "", "", "", "", "", "", "0000b2", "0000b2", "040490", "1b1b1c", "1b1b1c", "1b1b1c", "", "", "", "1b1b1c", "222222", "222222", "1e1e1e", "1b1b1c", "", "", 
"", "", "", "", "", "", "", "", "", "", "", "0000b2", "0000b2", "040490", "1b1b1c", "", "", "", "", "", "1e1e1e", "1e1e1e", "1e1e1e", "", "", "", 
"", "", "", "", "", "", "", "", "", "", "", "", "", "0000b2", "040490", "", "", "", "", "", "", "", "0000b2", "040490", "", "", 
"", "", "", "", "", "", "", "", "", "", "", "", "", "", "000000", "", "", "", "", "", "", "", "", "000000", "", "", 
"", "", "", "", "", "", "", "", "", "", "", "", "", "", "000000", "", "", "", "", "", "", "", "", "000000", "", "", 
"", "", "", "", "", "", "", "", "", "", "", "", "", "000000", "000000", "", "", "", "", "", "", "", "000000", "000000", "", "", 
"", "", "", "", "", "", "", "", "", "", "", "", "", "", "", "", "", "", "", "", "", "", "", "", "", "", 
"", "", "", "", "", "", "", "", "", "", "", "", "", "", "", "", "", "", "", "", "", "", "", "", "", "", 
"", "", "", "", "", "", "", "", "", "", "", "", "", "", "", "", "", "", "", "", "", "", "", "", "", ""
],
[
"", "", "", "", "", "", "", "", "", "", "", "", "", "", "", "", "", "", "", "", "", "", "", "", "", "", 
"", "", "", "", "", "", "", "", "", "", "", "", "", "", "", "", "", "", "", "", "", "", "", "", "", "", 
"", "", "", "", "", "", "", "", "", "", "", "", "", "", "", "", "", "", "", "", "", "", "", "", "", "", 
"", "", "", "", "", "", "", "", "", "", "", "", "", "", "", "", "", "", "", "", "", "", "", "", "", "", 
"", "", "", "", "", "", "", "", "", "", "", "", "", "", "", "", "", "", "", "", "", "", "", "", "", "", 
"", "", "", "", "", "", "", "", "", "", "", "", "", "", "", "", "", "", "", "", "", "", "", "", "", "", 
"", "", "", "", "", "", "", "", "", "", "", "", "", "", "", "", "", "", "", "", "", "", "", "", "", "", 
"", "", "", "", "", "", "", "", "", "", "", "", "", "", "", "", "", "", "", "", "", "", "", "", "", "", 
"", "", "", "", "", "", "", "", "", "", "", "", "", "", "", "383838", "272727", "272727", "", "", "", "", "", "", "", "", 
"", "", "", "", "", "", "", "", "", "", "", "", "", "", "747476", "747476", "272727", "272727", "272727", "", "", "", "", "", "", "", 
"", "", "", "", "", "", "", "", "", "", "", "", "", "747476", "e3e3e3", "e3e3e3", "747476", "222222", "272727", "272727", "", "", "", "", "", "", 
"", "", "", "", "", "", "", "", "", "", "", "", "747476", "4c4c4d", "ffffff", "ffffff", "e3e3e3", "747476", "222222", "272727", "", "", "", "", "", "", 
"", "", "", "", "", "", "", "", "", "", "", "", "747476", "4c4c4d", "ffffff", "ffffff", "e3e3e3", "747476", "222222", "272727", "", "", "", "", "", "", 
"", "", "", "", "", "", "", "", "", "", "", "", "747476", "474747", "383838", "383838", "e3e3e3", "747476", "222222", "272727", "", "", "", "", "", "", 
"", "", "", "", "", "", "", "", "", "", "", "", "747476", "4c4c4d", "474747", "383838", "e3e3e3", "747476", "272727", "", "", "", "", "", "", "", 
"", "", "", "", "", "", "", "", "", "", "", "", "", "747476", "4c4c4d", "474747", "747476", "272727", "272727", "", "", "", "", "", "", "", 
"", "", "", "", "", "", "", "", "", "", "", "", "", "272727", "747476", "747476", "4a4a4b", "383838", "272727", "222222", "", "", "", "", "", "", 
"", "", "", "", "", "", "", "", "", "", "", "", "", "272727", "4a4a4b", "4a4a4b", "555556", "555556", "272727", "222222", "1e1e1e", "", "", "", "", "", 
"", "", "", "", "", "", "", "", "", "", "", "", "272727", "1b1b1c", "4a4a4b", "555556", "555556", "515151", "515151", "272727", "222222", "", "", "", "", "", 
"", "", "", "", "", "", "", "", "", "", "", "", "272727", "1b1b1c", "4a4a4b", "555556", "515151", "515151", "515151", "272727", "222222", "1e1e1e", "", "", "", "", 
"", "", "", "", "", "", "", "", "", "", "", "", "272727", "1b1b1c", "4a4a4b", "555556", "515151", "515151", "515151", "272727", "222222", "1e1e1e", "", "", "", "", 
"", "", "", "", "", "", "", "", "dddddd", "", "", "", "1b1b1c", "272727", "4a4a4b", "dddddd", "515151", "515151", "515151", "1b1b1c", "272727", "222222", "", "", "", "", 
"", "", "", "", "", "", "", "", "dddddd", "", "", "", "1b1b1c", "4a4a4b", "555556", "dddddd", "515151", "515151", "515151", "1b1b1c", "272727", "222222", "1e1e1e", "", "", "", 
"", "", "", "", "", "", "", "", "87878b", "87878b", "", "", "1b1b1c", "4a4a4b", "555556", "87878b", "87878b", "515151", "4a4a4b", "1b1b1c", "272727", "222222", "222222", "", "", "", 
"", "", "", "", "", "", "", "", "", "ffffff", "ffffff", "1b1b1c", "272727", "555556", "555556", "515151", "ffffff", "ffffff", "1b1b1c", "1b1b1c", "272727", "272727", "222222", "1e1e1e", "", "", 
"", "", "", "", "", "", "", "", "", "87878b", "", "272727", "272727", "1212ce", "1212ce", "0000b2", "87878b", "0000b2", "040490", "1b1b1c", "272727", "272727", "222222", "1e1e1e", "", "", 
"", "", "", "", "", "", "", "", "", "", "", "272727", "272727", "1212ce", "0000b2", "040490", "040490", "0000b2", "0000b2", "1b1b1c", "1b1b1c", "272727", "222222", "1e1e1e", "", "", 
"", "", "", "", "", "", "", "", "", "", "", "272727", "272727", "0000b2", "040490", "1b1b1c", "1b1b1c", "040490", "0000b2", "1b1b1c", "1b1b1c", "222222", "1e1e1e", "1e1e1e", "", "", 
"", "", "", "", "", "", "", "", "", "", "", "272727", "1212ce", "0000b2", "1b1b1c", "1b1b1c", "1b1b1c", "1b1b1c", "0000b2", "0000b2", "1b1b1c", "222222", "1e1e1e", "1e1e1e", "", "", 
"", "", "", "", "", "", "", "", "", "", "", "1212ce", "0000b2", "1b1b1c", "1b1b1c", "1b1b1c", "1b1b1c", "1b1b1c", "1b1b1c", "0000b2", "272727", "222222", "1e1e1e", "1e1e1e", "", "", 
"", "", "", "", "", "", "", "", "", "", "1212ce", "0000b2", "1b1b1c", "1b1b1c", "1b1b1c", "", "", "", "1b1b1c", "1b1b1c", "272727", "222222", "1e1e1e", "", "", "", 
"", "", "", "", "", "", "", "", "", "", "0000b2", "0000b2", "040490", "1b1b1c", "", "", "", "", "", "", "1e1e1e", "1e1e1e", "", "", "", "", 
"", "", "", "", "", "", "", "", "", "", "", "0000b2", "0000b2", "040490", "", "", "", "", "", "", "", "0000b2", "040490", "", "", "", 
"", "", "", "", "", "", "", "", "", "", "", "", "", "0000b2", "040490", "", "", "", "", "", "", "", "0000b2", "040490", "", "", 
"", "", "", "", "", "", "", "", "", "", "", "", "", "", "000000", "", "", "", "", "", "", "", "", "000000", "", "", 
"", "", "", "", "", "", "", "", "", "", "", "", "", "", "000000", "", "", "", "", "", "", "", "", "000000", "", "", 
"", "", "", "", "", "", "", "", "", "", "", "", "", "000000", "000000", "", "", "", "", "", "", "", "000000", "000000", "", "", 
"", "", "", "", "", "", "", "", "", "", "", "", "", "", "", "", "", "", "", "", "", "", "", "", "", "", 
"", "", "", "", "", "", "", "", "", "", "", "", "", "", "", "", "", "", "", "", "", "", "", "", "", "", 
"", "", "", "", "", "", "", "", "", "", "", "", "", "", "", "", "", "", "", "", "", "", "", "", "", ""
],
[
"", "", "", "", "", "", "", "", "", "", "", "", "", "", "", "", "", "", "", "", "", "", "", "", "", "", 
"", "", "", "", "", "", "", "", "", "", "", "", "", "", "", "", "", "", "", "", "", "", "", "", "", "", 
"", "", "", "", "", "", "", "", "", "", "", "", "", "", "", "", "", "", "", "", "", "", "", "", "", "", 
"", "", "", "", "", "", "", "", "", "", "", "", "", "", "", "", "", "", "", "", "", "", "", "", "", "", 
"", "", "", "", "", "", "", "", "", "", "", "", "", "", "", "", "", "", "", "", "", "", "", "", "", "", 
"", "", "", "", "", "", "", "", "", "", "", "", "", "", "", "", "", "", "", "", "", "", "", "", "", "", 
"", "", "", "", "", "", "", "", "", "", "", "", "", "", "", "", "", "", "", "", "", "", "", "", "", "", 
"", "", "", "", "", "", "", "", "", "", "", "", "", "", "", "", "", "", "", "", "", "", "", "", "", "", 
"", "", "", "", "", "", "", "", "", "", "", "", "", "", "", "383838", "272727", "272727", "", "", "", "", "", "", "", "", 
"", "", "", "", "", "", "", "", "", "", "", "", "", "", "747476", "747476", "272727", "272727", "272727", "", "", "", "", "", "", "", 
"", "", "", "", "", "", "", "", "", "", "", "", "", "747476", "e3e3e3", "e3e3e3", "747476", "222222", "272727", "272727", "", "", "", "", "", "", 
"", "", "", "", "", "", "", "", "", "", "", "", "747476", "4c4c4d", "ffffff", "ffffff", "e3e3e3", "747476", "222222", "272727", "", "", "", "", "", "", 
"", "", "", "", "", "", "", "", "", "", "", "", "747476", "4c4c4d", "ffffff", "ffffff", "e3e3e3", "747476", "222222", "272727", "", "", "", "", "", "", 
"", "", "", "", "", "", "", "", "", "", "", "", "747476", "474747", "383838", "383838", "e3e3e3", "747476", "222222", "272727", "", "", "", "", "", "", 
"", "", "", "", "", "", "", "", "", "", "", "", "747476", "4c4c4d", "474747", "383838", "e3e3e3", "747476", "272727", "", "", "", "", "", "", "", 
"", "", "", "", "", "", "", "", "", "", "", "", "", "747476", "4c4c4d", "474747", "747476", "272727", "272727", "", "", "", "", "", "", "", 
"", "", "", "", "", "", "", "", "", "", "", "", "", "272727", "747476", "747476", "4a4a4b", "383838", "272727", "222222", "", "", "", "", "", "", 
"", "", "", "", "", "", "", "", "", "", "", "", "", "272727", "4a4a4b", "4a4a4b", "555556", "555556", "272727", "222222", "1e1e1e", "", "", "", "", "", 
"", "", "", "", "", "", "", "", "", "", "", "", "272727", "1b1b1c", "4a4a4b", "555556", "555556", "515151", "515151", "272727", "222222", "", "", "", "", "", 
"", "", "", "", "", "", "", "", "", "", "", "", "272727", "1b1b1c", "4a4a4b", "555556", "515151", "515151", "515151", "272727", "222222", "1e1e1e", "", "", "", "", 
"", "", "", "", "", "", "", "", "", "", "", "", "272727", "1b1b1c", "4a4a4b", "555556", "515151", "515151", "515151", "272727", "222222", "1e1e1e", "", "", "", "", 
"", "", "", "", "", "", "", "", "dddddd", "", "", "", "1b1b1c", "272727", "4a4a4b", "dddddd", "515151", "515151", "515151", "1b1b1c", "272727", "222222", "", "", "", "", 
"", "", "", "", "", "", "", "", "dddddd", "", "", "", "1b1b1c", "4a4a4b", "555556", "dddddd", "515151", "515151", "515151", "1b1b1c", "272727", "222222", "1e1e1e", "", "", "", 
"", "", "", "", "", "", "", "", "87878b", "87878b", "", "", "1b1b1c", "4a4a4b", "555556", "87878b", "87878b", "515151", "4a4a4b", "1b1b1c", "272727", "222222", "222222", "", "", "", 
"", "", "", "", "", "", "", "", "", "ffffff", "ffffff", "1b1b1c", "272727", "555556", "555556", "515151", "ffffff", "ffffff", "1b1b1c", "1b1b1c", "272727", "272727", "222222", "1e1e1e", "", "", 
"", "", "", "", "", "", "", "", "", "87878b", "", "272727", "272727", "1212ce", "1212ce", "0000b2", "87878b", "0000b2", "040490", "1b1b1c", "272727", "272727", "222222", "1e1e1e", "", "", 
"", "", "", "", "", "", "", "", "", "", "", "272727", "272727", "1212ce", "0000b2", "040490", "040490", "0000b2", "0000b2", "1b1b1c", "1b1b1c", "272727", "222222", "1e1e1e", "", "", 
"", "", "", "", "", "", "", "", "", "", "", "272727", "272727", "0000b2", "040490", "1b1b1c", "1b1b1c", "040490", "0000b2", "1b1b1c", "1b1b1c", "222222", "1e1e1e", "1e1e1e", "", "", 
"", "", "", "", "", "", "", "", "", "", "", "272727", "1212ce", "0000b2", "1b1b1c", "1b1b1c", "1b1b1c", "1b1b1c", "0000b2", "0000b2", "1b1b1c", "222222", "1e1e1e", "1e1e1e", "", "", 
"", "", "", "", "", "", "", "", "", "", "", "1212ce", "0000b2", "1b1b1c", "1b1b1c", "1b1b1c", "1b1b1c", "1b1b1c", "1b1b1c", "0000b2", "272727", "222222", "1e1e1e", "1e1e1e", "", "", 
"", "", "", "", "", "", "", "", "", "", "1212ce", "0000b2", "1b1b1c", "1b1b1c", "1b1b1c", "", "", "", "1b1b1c", "1b1b1c", "272727", "222222", "1e1e1e", "", "", "", 
"", "", "", "", "", "", "", "", "", "", "0000b2", "0000b2", "040490", "1b1b1c", "", "", "", "", "", "", "1e1e1e", "1e1e1e", "", "", "", "", 
"", "", "", "", "", "", "", "", "", "", "", "0000b2", "0000b2", "040490", "", "", "", "", "", "", "", "0000b2", "040490", "", "", "", 
"", "", "", "", "", "", "", "", "", "", "", "", "", "0000b2", "040490", "", "", "", "", "", "", "", "0000b2", "040490", "", "", 
"", "", "", "", "", "", "", "", "", "", "", "", "", "", "000000", "", "", "", "", "", "", "", "", "000000", "", "", 
"", "", "", "", "", "", "", "", "", "", "", "", "", "", "000000", "", "", "", "", "", "", "", "", "000000", "", "", 
"", "", "", "", "", "", "", "", "", "", "", "", "", "000000", "000000", "", "", "", "", "", "", "", "000000", "000000", "", "", 
"", "", "", "", "", "", "", "", "", "", "", "", "", "", "", "", "", "", "", "", "", "", "", "", "", "", 
"", "", "", "", "", "", "", "", "", "", "", "", "", "", "", "", "", "", "", "", "", "", "", "", "", "", 
"", "", "", "", "", "", "", "", "", "", "", "", "", "", "", "", "", "", "", "", "", "", "", "", "", ""
]
]
}
