{
  "os": "ubuntu",
  "image": "docker.pkgs.xarth.tv/devtools/bionic/go1.14.1:latest",
  "env": [
    "PATH=/go/bin/:/usr/local/go/bin:$PATH",
    "GOPATH=/go"
  ],
  "setup": [
    "go get golang.org/x/tools/cmd/goimports",
    "go get github.com/surullabs/lint",
    "go get github.com/alecthomas/gometalinter",
    "gometalinter --install --update",
    "apt-get update",
    "apt-get -y install redis-server"
  ],
  "build": [
    "make all",
    "make redis_test"
  ],
  "extract": {
    "source": "/go/src/code.justin.tv/commerce/pantheon",
    "destination": ".manta/"
  },
  "mount": "/go/src/code.justin.tv/commerce/pantheon"
}
