{
    "_comment": "A template for constructing automated dashboards and alarms. Please see the TwitchTelemetryOpsGenerator README for more info",
    "serviceTemplateArgs": {
        "name": "Materia",
        "serviceInfo": [
            {
                "accountId": "230661757906",
                "region": "us-west-2",
                "stage": "beta",
                "substage": "primary",
                "ignoreAlarms": true
            }
        ],
        "alarms": [
            {
                "severity": 3,
                "stat": "avg",
                "threshold": 0.5,
                "metric": "ServerError",
                "unit": "",
                "consecutiveToAlarm": 7,
                "consecutiveToClear": 2,
                "period": 60
            }
        ]
    },
    "apiTemplateArgsList": [
        {
            "name": "GetPrice"
        },
        {
            "name": "UpdatePrice"
        }
    ],
    "solution": "ecs",
    "storeLocation": "cw",
    "wikiPath": "Twitch/Fulton/Materia/Dashboard"
}