{
  "Tools": [
    {
      "Repository": "code.justin.tv/common/retool",
      "Commit": "ff9a1fda7478ede6250ee3c7e4ce32dc30096236"
    },
    {
      "Repository": "github.com/golang/protobuf/protoc-gen-go",
      "Commit": "8ee79997227bf9b34611aee7946ae64735e6fd93"
    },
    {
      "Repository": "code.justin.tv/common/twirp/protoc-gen-twirp",
      "Commit": "a9aa7f559393b9eeac99c6e5bf3f5a227fb2bd5f"
    },
    {
      "Repository": "github.com/Masterminds/glide",
      "Commit": "9699d354aa616a99bde47fb442a1b4e9d276fe1b"
    },
    {
      "Repository": "github.com/sgotti/glide-vc",
      "Commit": "6ddf6eee9d582c9722e5a927adbd8a3bbd58a008"
    }
  ]
}