{
  "Tools": [
    {
      "Repository": "github.com/twitchtv/retool",
      "Commit": "86fa3c04c0d9f63032267f80bb0a296049a0fcf5"
    },
    {
      "Repository": "github.com/vektra/mockery/cmd/mockery",
      "Commit": "35af6ab863ac461de148c218959646621c1c3d2c"
    },
    {
      "Repository": "github.com/kisielk/errcheck",
      "Commit": "23699b7e2cbfdb89481023524954ba2aeff6be90"
    },
    {
      "Repository": "github.com/golang/lint",
      "Commit": "cb00e5669539f047b2f4c53a421a01b0c8e172c6"
    },
    {
      "Repository": "github.com/golang/lint/golint",
      "Commit": "cb00e5669539f047b2f4c53a421a01b0c8e172c6"
    },
    {
      "Repository": "github.com/Masterminds/glide",
      "Commit": "869001d1571ce5f03fd0078bff188b9d3f272807"
    },
    {
      "Repository": "github.com/sgotti/glide-vc",
      "Commit": "6ddf6eee9d582c9722e5a927adbd8a3bbd58a008"
    },
    {
      "Repository": "github.com/golang/protobuf/protoc-gen-go",
      "Commit": "8ee79997227bf9b34611aee7946ae64735e6fd93"
    },
    {
      "Repository": "code.justin.tv/common/twirp/protoc-gen-twirp",
      "Commit": "da954ebbf7d65742b12157be77ac58a5ffce2989"
    },
    {
      "Repository": "github.com/bradfitz/goimports",
      "Commit": "919f4f2bcea0744d4da4ae851fbf818ae11cba87"
    },
    {
      "Repository": "code.justin.tv/release/manta-style/cmd/manta",
      "Commit": "bbf023a6ba7a159c88808c9ccc26384179a74c18"
    },
    {
      "Repository": "github.com/jstemmer/go-junit-report",
      "Commit": "cce73b49960a6473b4bb18efada12ce5f0208c37"
    },
    {
      "Repository": "github.com/onsi/ginkgo/ginkgo",
      "Commit": "1e72798a2620664d2ab32ffd4473c102fcd4894d"
    }
  ]
}