{
  "Tools": [
    {
      "Repository": "github.com/twitchtv/retool",
      "Commit": "df3234678b5953c752c3da3dace7e5e28db70c41"
    },
    {
      "Repository": "github.com/twitchtv/twirp/protoc-gen-twirp",
      "Commit": "1b8455b42110feb46a56aeec1ea0020067f46b11"
    },
    {
      "Repository": "github.com/golang/dep/cmd/dep",
      "Commit": "3e697f6afb332b6e12b8b399365e724e2e8dea7e"
    },
    {
      "Repository": "github.com/vektra/mockery/cmd",
      "Commit": "6c09e924baf82c067f2a34ea9eaaffd0f582617b"
    },
    {
      "Repository": "github.com/golang/protobuf/protoc-gen-go",
      "Commit": "52132540909e117f2b98b0694383dc0ab1e1deca"
    },
    {
      "Repository": "github.com/hashicorp/terraform",
      "Commit": "12bf5f6afec2a9dcc97357671fdfa9fb972884eb"
    },
    {
      "Repository": "github.com/golangci/golangci-lint/cmd/golangci-lint",
      "Commit": "39f46be46090828834b920f59994c97767694238"
    }
  ],
  "RetoolVersion": "1.3.7"
}