{
  "AWSRegion": "us-west-2",
  "ClipsCacheTTLMinutes": 1,
  "ClipsClientTimeout": 1000,
  "ClipsEndpoint": "https://staging.clips.twitch.a2z.com",
  "ClipsMaxIdleConnections": 200,
  "ChannelsCacheTTLMinutes": 5,
  "CloudwatchBatchSize" : 20,
  "CloudwatchBufferSize" : 500000,
  "CloudwatchRegion" : "us-west-2",
  "TwitchTelemetryFlush": 30,
  "EnableFallbackCache": true,
  "EnablePrimaryCache": true,
  "FallbackCacheTTLMinutes": 120,
  "FallbackCacheTimeout": 200,
  "HallpassServiceCacheTTLMinutes": 5,
  "HallpassServiceClientTimeout": 1000,
  "HallpassServiceEndpoint": "http://staging.hallpass.cb.twitch.a2z.com",
  "NitroServiceCacheTTLMinutes": 5,
  "NitroServiceClientTimeout": 150,
  "NitroServiceEndpoint": "http://staging-nitro.us-west-2.elasticbeanstalk.com",
  "NitroServiceMaxIdleConnections": 200,
  "DadsCacheTTLMinutes": 5,
  "DadsClientTimeout": 1000,
  "DadsEndpoint": "http://dads-staging.us-west-2.elasticbeanstalk.com",
  "DadsMaxIdleConnections": 200,
  "NiohCacheTTLMilliseconds": 1000,
  "NiohClientTimeout": 300,
  "NiohEndpoint": "https://beta.nioh.twitch.a2z.com",
  "NiohMaxIdleConnections": 200,
  "RedisHost": "bo-staging-redis5.w6cjpp.clustercfg.usw2.cache.amazonaws.com:6379",
  "RedisNodeConnectionPoolSize": 80,
  "RedisPoolTimeoutMilliseconds": 1350,
  "RedisStatSampleRate": 1,
  "RedisMonitorIntervalMilliseconds": 5000,
  "RedisDialTimeoutMilliseconds": 350,
  "RedisReadTimeoutMilliseconds": 350,
  "RedisWriteTimeoutMilliseconds": 350,
  "RedisMaxRedirects": 8,
  "SandstormEnvironment": "staging",
  "SandstormKeyRollbarToken": "rollbar-token",
  "SandstormKeyTokenSignatureKey": "token-signature-key",
  "SandstormRoleARN": "arn:aws:iam::734326455073:role/sandstorm/production/templated/role/box-office-staging",
  "StatsPrefix": "boxoffice.staging-canary",
  "StatsURL": "statsd.central.twitch.a2z.com:8125",
  "SubscriptionsCacheTTLMinutes": 5,
  "SubscriptionsClientTimeout": 300,
  "SubscriptionsEndpoint": "https://main.us-west-2.beta.subscriptions.twitch.a2z.com",
  "SubscriptionsMaxIdleConnections": 200,
  "VoyagerCacheTTLMinutes": 1,
  "VoyagerClientTimeout": 300,
  "VoyagerEndpoint": "https://main.us-west-2.beta.voyager.s.twitch.a2z.com",
  "VoyagerMaxIdleConnections": 200,
  "TailorCacheTTLMinutes": 5,
  "TailorClientTimeout": 300,
  "TailorEndpoint": "https://staging.tailor.twitch.a2z.com",
  "TailorMaxIdleConnections": 200,
  "UsersServiceCacheTTLMinutes": 5,
  "UsersServiceClientTimeout": 1000,
  "UsersServiceEndpoint": "http://dev.users-service.twitch.a2z.com",
  "VodAPICacheTTLMinutes": 5,
  "VodAPIClientTimeout": 1000,
  "VodAPIEndpoint": "https://staging.vodapi.twitch.a2z.com",
  "AnonymousIPAllowlist": [
    "52.95.75.0/25",
    "52.46.80.0/25",
    "52.94.36.0/25",
    "54.240.197.224/28",
    "13.248.16.0/25",
    "54.239.119.0/25",
    "27.0.3.144/28",
    "177.72.241.16/29",
    "177.72.242.16/29",
    "52.94.84.0/25",
    "54.240.199.96/28",
    "54.240.193.0/29",
    "54.240.193.128/29",
    "54.239.6.160/27",
    "72.21.196.64/29",
    "72.21.198.64/29",
    "54.240.217.0/27",
    "52.95.4.0/25",
    "204.246.162.32/28",
    "54.240.198.32/29",
    "205.251.233.176/29",
    "205.251.233.48/29",
    "184.105.231.0/24",
    "184.105.100.0/22",
    "38.127.230.0/23"
  ],
  "EnablePremiumContentPreview": true,
  "DynamicGeoblockingDarklaunchKey": "geoblocking-darklaunch",
  "DynamicGeoblockingBucket": "box-office-staging-geoblocking",
  "DynamicGeoblockingFilename": "geoblock.json",
  "GeoblockedChannels": {
    "200one": {
      "TimeWindows": [
        {
          "StartTime": "2020-06-18T02:00:00-07:00",
          "EndTime": "2020-11-30T06:00:00-07:00"
        }
      ],
      "BlockAnonymousIPs": true,
      "AllowlistedCountries": {
        "KR": true
      },
      "BlocklistedCountries": {},
      "BlocklistedZipCodes": {}
    },
    "3sunset3": {
      "TimeWindows": [
        {
          "StartTime": "2020-06-30T02:00:00-07:00",
          "EndTime": "2020-06-30T06:00:00-07:00"
        },
        {
          "StartTime": "2020-07-01T02:00:00-07:00",
          "EndTime": "2020-07-01T06:00:00-07:00"
        }
      ],
      "BlockAnonymousIPs": true,
      "AllowlistedCountries": {
        "KR": true
      },
      "BlocklistedCountries": {},
      "BlocklistedZipCodes": {}
      ,
      "GMANm9": {
        "TimeWindows": [
          {
            "StartTime": "2020-06-18T02:00:00-07:00",
            "EndTime": "2020-11-30T06:00:00-07:00"
          }
        ],
        "BlockAnonymousIPs": true,
        "AllowlistedCountries": {
          "KR": true
        },
        "BlocklistedCountries": {},
        "BlocklistedZipCodes": {}
      },
      "Reminis__": {
        "TimeWindows": [
          {
            "StartTime": "2020-06-10T23:00:00-07:00",
            "EndTime": "2020-11-30T06:00:00-07:00"
          }
        ],
        "BlockAnonymousIPs": true,
        "AllowlistedCountries": {
          "KR": true
        },
        "BlocklistedCountries": {},
        "BlocklistedZipCodes": {}
      },
      "Yagubu": {
        "TimeWindows": [
          {
            "StartTime": "2020-06-10T23:00:00-07:00",
            "EndTime": "2020-11-30T06:00:00-07:00"
          }
        ],
        "BlockAnonymousIPs": true,
        "AllowlistedCountries": {
          "KR": true
        },
        "BlocklistedCountries": {},
        "BlocklistedZipCodes": {}
      },
      "akdleman47": {
        "TimeWindows": [
          {
            "StartTime": "2020-06-30T02:00:00-07:00",
            "EndTime": "2020-06-30T06:00:00-07:00"
          },
          {
            "StartTime": "2020-07-01T02:00:00-07:00",
            "EndTime": "2020-07-01T06:00:00-07:00"
          }
        ],
        "BlockAnonymousIPs": true,
        "AllowlistedCountries": {
          "KR": true
        },
        "BlocklistedCountries": {},
        "BlocklistedZipCodes": {}
      },
      "anwls08": {
        "TimeWindows": [
          {
            "StartTime": "2020-06-30T02:00:00-07:00",
            "EndTime": "2020-06-30T06:00:00-07:00"
          },
          {
            "StartTime": "2020-07-01T02:00:00-07:00",
            "EndTime": "2020-07-01T06:00:00-07:00"
          }
        ],
        "BlockAnonymousIPs": true,
        "AllowlistedCountries": {
          "KR": true
        },
        "BlocklistedCountries": {},
        "BlocklistedZipCodes": {}
      },
      "asiafm": {
        "TimeWindows": [
          {
            "StartTime": "2020-01-01T00:00:00-07:00",
            "EndTime": "3000-12-31T00:00:00-07:00"
          }
        ],
        "BlockAnonymousIPs": true,
        "AllowlistedCountries": {
          "TW": true
        },
        "BlocklistedCountries": {},
        "BlocklistedZipCodes": {}
      },
      "asiafm923": {
        "TimeWindows": [
          {
            "StartTime": "2020-01-01T00:00:00-07:00",
            "EndTime": "3000-12-31T00:00:00-07:00"
          }
        ],
        "BlockAnonymousIPs": true,
        "AllowlistedCountries": {
          "TW": true
        },
        "BlocklistedCountries": {},
        "BlocklistedZipCodes": {}
      },
      "baju12": {
        "TimeWindows": [
          {
            "StartTime": "2020-06-10T23:00:00-07:00",
            "EndTime": "2020-11-30T06:00:00-07:00"
          }
        ],
        "BlockAnonymousIPs": true,
        "AllowlistedCountries": {
          "KR": true
        },
        "BlocklistedCountries": {},
        "BlocklistedZipCodes": {}
      },
      "banpent": {
        "TimeWindows": [
          {
            "StartTime": "2020-06-10T23:00:00-07:00",
            "EndTime": "2020-11-30T06:00:00-07:00"
          }
        ],
        "BlockAnonymousIPs": true,
        "AllowlistedCountries": {
          "KR": true
        },
        "BlocklistedCountries": {},
        "BlocklistedZipCodes": {}
      },
      "batistutash": {
        "TimeWindows": [
          {
            "StartTime": "2020-06-18T02:00:00-07:00",
            "EndTime": "2020-11-30T06:00:00-07:00"
          }
        ],
        "BlockAnonymousIPs": true,
        "AllowlistedCountries": {
          "KR": true
        },
        "BlocklistedCountries": {},
        "BlocklistedZipCodes": {}
      },
      "bongnam1_": {
        "TimeWindows": [
          {
            "StartTime": "2020-07-01T02:00:00-07:00",
            "EndTime": "2020-07-01T06:00:00-07:00"
          },
          {
            "StartTime": "2020-07-02T02:00:00-07:00",
            "EndTime": "2020-07-02T06:00:00-07:00"
          },
          {
            "StartTime": "2020-07-03T02:00:00-07:00",
            "EndTime": "2020-07-03T06:00:00-07:00"
          },
          {
            "StartTime": "2020-07-04T11:30:00-07:00",
            "EndTime": "2020-07-04T04:00:00-07:00"
          },
          {
            "StartTime": "2020-07-05T00:30:00-07:00",
            "EndTime": "2020-07-05T05:00:00-07:00"
          },
          {
            "StartTime": "2020-07-07T02:00:00-07:00",
            "EndTime": "2020-07-07T06:00:00-07:00"
          },
          {
            "StartTime": "2020-07-08T02:00:00-07:00",
            "EndTime": "2020-07-08T06:00:00-07:00"
          }
        ],
        "AllowlistedCountries": {
          "KR": true
        },
        "BlocklistedCountries": {},
        "BlockAnonymousIPs": true,
        "BlocklistedZipCodes": {}
      },
      "buriburibird": {
        "TimeWindows": [
          {
            "StartTime": "2020-06-18T02:00:00-07:00",
            "EndTime": "2020-11-30T06:00:00-07:00"
          }
        ],
        "BlockAnonymousIPs": true,
        "AllowlistedCountries": {
          "KR": true
        },
        "BlocklistedCountries": {},
        "BlocklistedZipCodes": {}
      },
      "caster_maddox": {
        "TimeWindows": [
          {
            "StartTime": "2020-07-02T02:00:00-07:00",
            "EndTime": "2020-07-02T06:00:00-07:00"
          },
          {
            "StartTime": "2020-07-07T02:00:00-07:00",
            "EndTime": "2020-07-07T06:00:00-07:00"
          }
        ],
        "AllowlistedCountries": {
          "KR": true
        },
        "BlocklistedCountries": {},
        "BlockAnonymousIPs": true,
        "BlocklistedZipCodes": {}
      },
      "charlotte0604": {
        "TimeWindows": [
          {
            "StartTime": "2020-06-10T23:00:00-07:00",
            "EndTime": "2020-11-30T06:00:00-07:00"
          }
        ],
        "BlockAnonymousIPs": true,
        "AllowlistedCountries": {
          "KR": true
        },
        "BlocklistedCountries": {},
        "BlocklistedZipCodes": {}
      },
      "chhj7098": {
        "TimeWindows": [
          {
            "StartTime": "2020-06-10T23:00:00-07:00",
            "EndTime": "2020-11-30T06:00:00-07:00"
          }
        ],
        "BlockAnonymousIPs": true,
        "AllowlistedCountries": {
          "KR": true
        },
        "BlocklistedCountries": {},
        "BlocklistedZipCodes": {}
      },
      "cloud_yun": {
        "TimeWindows": [
          {
            "StartTime": "2020-06-18T02:00:00-07:00",
            "EndTime": "2020-11-30T06:00:00-07:00"
          }
        ],
        "BlockAnonymousIPs": true,
        "AllowlistedCountries": {
          "KR": true
        },
        "BlocklistedCountries": {},
        "BlocklistedZipCodes": {}
      },
      "combatgo": {
        "TimeWindows": [
          {
            "StartTime": "2018-04-18T00:00:00Z",
            "EndTime": "3000-01-01T00:00:00Z"
          }
        ],
        "BlockAnonymousIPs": true,
        "AllowlistedCountries": {},
        "BlocklistedCountries": {
          "CN": true,
          "TH": true
        },
        "BlocklistedZipCodes": {},
        "AllowlistedPlatforms": {}
      },
      "contv": {
        "TimeWindows": [
          {
            "StartTime": "2017-11-01T00:00:00Z",
            "EndTime": "3000-01-01T00:00:00Z"
          }
        ],
        "BlockAnonymousIPs": true,
        "AllowlistedCountries": {
          "CA": true,
          "US": true
        },
        "BlocklistedCountries": {},
        "BlocklistedZipCodes": {},
        "AllowlistedPlatforms": {}
      },
      "ddaddana": {
        "TimeWindows": [
          {
            "StartTime": "2020-06-25T02:00:00-07:00",
            "EndTime": "2020-11-30T06:00:00-07:00"
          }
        ],
        "BlockAnonymousIPs": true,
        "AllowlistedCountries": {
          "TW": true
        },
        "BlocklistedCountries": {},
        "BlocklistedZipCodes": {}
      },
      "dksshd2": {
        "TimeWindows": [
          {
            "StartTime": "2020-07-01T02:00:00-07:00",
            "EndTime": "2020-07-01T06:00:00-07:00"
          },
          {
            "StartTime": "2020-07-02T02:00:00-07:00",
            "EndTime": "2020-07-02T06:00:00-07:00"
          },
          {
            "StartTime": "2020-07-03T02:00:00-07:00",
            "EndTime": "2020-07-03T06:00:00-07:00"
          },
          {
            "StartTime": "2020-07-04T11:30:00-07:00",
            "EndTime": "2020-07-04T04:00:00-07:00"
          },
          {
            "StartTime": "2020-07-05T00:30:00-07:00",
            "EndTime": "2020-07-05T05:00:00-07:00"
          },
          {
            "StartTime": "2020-07-07T02:00:00-07:00",
            "EndTime": "2020-07-07T06:00:00-07:00"
          },
          {
            "StartTime": "2020-07-08T02:00:00-07:00",
            "EndTime": "2020-07-08T06:00:00-07:00"
          }
        ],
        "AllowlistedCountries": {
          "KR": true
        },
        "BlocklistedCountries": {},
        "BlockAnonymousIPs": true,
        "BlocklistedZipCodes": {}
      },
      "dorong_dorong": {
        "TimeWindows": [
          {
            "StartTime": "2020-06-10T23:00:00-07:00",
            "EndTime": "2020-11-30T06:00:00-07:00"
          }
        ],
        "BlockAnonymousIPs": true,
        "AllowlistedCountries": {
          "KR": true
        },
        "BlocklistedCountries": {},
        "BlocklistedZipCodes": {}
      },
      "draquinas": {
        "TimeWindows": [
          {
            "StartTime": "2020-06-10T23:00:00-07:00",
            "EndTime": "2020-11-30T06:00:00-07:00"
          }
        ],
        "BlockAnonymousIPs": true,
        "AllowlistedCountries": {
          "KR": true
        },
        "BlocklistedCountries": {},
        "BlocklistedZipCodes": {}
      },
      "duchenne0131": {
        "TimeWindows": [
          {
            "StartTime": "2020-06-25T02:00:00-07:00",
            "EndTime": "2020-11-30T06:00:00-07:00"
          }
        ],
        "BlockAnonymousIPs": true,
        "AllowlistedCountries": {
          "KR": true
        },
        "BlocklistedCountries": {},
        "BlocklistedZipCodes": {}
      },
      "eaglekop": {
        "TimeWindows": [
          {
            "StartTime": "2020-07-01T02:00:00-07:00",
            "EndTime": "2020-07-01T06:00:00-07:00"
          },
          {
            "StartTime": "2020-07-02T02:00:00-07:00",
            "EndTime": "2020-07-02T06:00:00-07:00"
          },
          {
            "StartTime": "2020-07-03T02:00:00-07:00",
            "EndTime": "2020-07-03T06:00:00-07:00"
          },
          {
            "StartTime": "2020-07-04T11:30:00-07:00",
            "EndTime": "2020-07-04T04:00:00-07:00"
          },
          {
            "StartTime": "2020-07-05T00:30:00-07:00",
            "EndTime": "2020-07-05T05:00:00-07:00"
          },
          {
            "StartTime": "2020-07-07T02:00:00-07:00",
            "EndTime": "2020-07-07T06:00:00-07:00"
          },
          {
            "StartTime": "2020-07-08T02:00:00-07:00",
            "EndTime": "2020-07-08T06:00:00-07:00"
          }
        ],
        "AllowlistedCountries": {
          "KR": true
        },
        "BlocklistedCountries": {},
        "BlockAnonymousIPs": true,
        "BlocklistedZipCodes": {}
      },
      "effy_kingp": {
        "TimeWindows": [
          {
            "StartTime": "2020-07-04T11:30:00-07:00",
            "EndTime": "2020-07-04T04:00:00-07:00"
          },
          {
            "StartTime": "2020-07-05T00:30:00-07:00",
            "EndTime": "2020-07-05T05:00:00-07:00"
          },
          {
            "StartTime": "2020-07-08T02:00:00-07:00",
            "EndTime": "2020-07-08T06:00:00-07:00"
          }
        ],
        "AllowlistedCountries": {
          "KR": true
        },
        "BlocklistedCountries": {},
        "BlockAnonymousIPs": true,
        "BlocklistedZipCodes": {}
      },
      "elevensportsprime": {
        "TimeWindows": [
          {
            "StartTime": "2017-12-01T00:00:00Z",
            "EndTime": "3000-01-01T00:00:00Z"
          }
        ],
        "BlockAnonymousIPs": true,
        "AllowlistedCountries": {
          "TW": true
        },
        "BlocklistedCountries": {},
        "BlocklistedZipCodes": {},
        "AllowlistedPlatforms": {}
      },
      "elevensportstw": {
        "TimeWindows": [
          {
            "StartTime": "2020-04-11T00:00:00-08:00",
            "EndTime": "2020-11-30T00:00:00-08:00"
          }
        ],
        "BlockAnonymousIPs": true,
        "AllowlistedCountries": {
          "TW": true
        },
        "BlocklistedCountries": {},
        "BlocklistedZipCodes": {},
        "AllowlistedPlatforms": {}
      },
      "eusseuk": {
        "TimeWindows": [
          {
            "StartTime": "2020-06-18T02:00:00-07:00",
            "EndTime": "2020-11-30T06:00:00-07:00"
          }
        ],
        "BlockAnonymousIPs": true,
        "AllowlistedCountries": {
          "KR": true
        },
        "BlocklistedCountries": {},
        "BlocklistedZipCodes": {}
      },
      "evts9214": {
        "TimeWindows": [
          {
            "StartTime": "2020-06-10T23:00:00-07:00",
            "EndTime": "2020-11-30T06:00:00-07:00"
          }
        ],
        "BlockAnonymousIPs": true,
        "AllowlistedCountries": {
          "KR": true
        },
        "BlocklistedCountries": {},
        "BlocklistedZipCodes": {}
      },
      "fantasylade": {
        "TimeWindows": [
          {
            "StartTime": "2020-06-10T23:00:00-07:00",
            "EndTime": "2020-11-30T06:00:00-07:00"
          }
        ],
        "BlockAnonymousIPs": true,
        "AllowlistedCountries": {
          "KR": true
        },
        "BlocklistedCountries": {},
        "BlocklistedZipCodes": {}
      },
      "fiaformula3": {
        "TimeWindows": [
          {
            "StartTime": "2020-07-03T01:00:00-07:00",
            "EndTime": "2020-12-31T01:00:00-07:00"
          }
        ],
        "AllowlistedCountries": {
          "BR": true,
          "CY": true,
          "CZ": true,
          "DK": true,
          "ES": true,
          "GB": true,
          "GR": true,
          "IL": true,
          "IS": true,
          "IT": true,
          "JP": true,
          "MT": true,
          "NL": true,
          "NO": true,
          "PL": true,
          "RO": true,
          "SE": true,
          "SK": true,
          "US": true,
          "ZA": true
        },
        "BlocklistedCountries": {},
        "BlockAnonymousIPs": true,
        "BlocklistedZipCodes": {}
      },
      "flyradio895": {
        "TimeWindows": [
          {
            "StartTime": "2020-01-01T00:00:00-07:00",
            "EndTime": "3000-12-31T00:00:00-07:00"
          }
        ],
        "BlockAnonymousIPs": true,
        "AllowlistedCountries": {
          "TW": true
        },
        "BlocklistedCountries": {},
        "BlocklistedZipCodes": {}
      },
      "fphonne": {
        "TimeWindows": [
          {
            "StartTime": "2020-06-18T02:00:00-07:00",
            "EndTime": "2020-11-30T06:00:00-07:00"
          }
        ],
        "BlockAnonymousIPs": true,
        "AllowlistedCountries": {
          "KR": true
        },
        "BlocklistedCountries": {},
        "BlocklistedZipCodes": {}
      },
      "franchiseglobalart": {
        "TimeWindows": [
          {
            "StartTime": "2020-01-01T00:00:00-07:00",
            "EndTime": "3000-01-01T00:00:00-07:00"
          }
        ],
        "BlockAnonymousIPs": true,
        "AllowlistedCountries": {
          "TW": true
        },
        "BlocklistedCountries": {},
        "BlocklistedZipCodes": {}
      },
      "galpro00": {
        "TimeWindows": [
          {
            "StartTime": "2020-06-10T23:00:00-07:00",
            "EndTime": "2020-11-30T06:00:00-07:00"
          }
        ],
        "BlockAnonymousIPs": true,
        "AllowlistedCountries": {
          "KR": true
        },
        "BlocklistedCountries": {},
        "BlocklistedZipCodes": {}
      },
      "gangdongwons2": {
        "TimeWindows": [
          {
            "StartTime": "2020-06-18T02:00:00-07:00",
            "EndTime": "2020-11-30T06:00:00-07:00"
          }
        ],
        "BlockAnonymousIPs": true,
        "AllowlistedCountries": {
          "KR": true
        },
        "BlocklistedCountries": {},
        "BlocklistedZipCodes": {}
      },
      "gawon412": {
        "TimeWindows": [
          {
            "StartTime": "2020-06-10T23:00:00-07:00",
            "EndTime": "2020-11-30T06:00:00-07:00"
          }
        ],
        "BlockAnonymousIPs": true,
        "AllowlistedCountries": {
          "KR": true
        },
        "BlocklistedCountries": {},
        "BlocklistedZipCodes": {}
      },
      "godbokihs": {
        "TimeWindows": [
          {
            "StartTime": "2020-06-30T02:00:00-07:00",
            "EndTime": "2020-06-30T06:00:00-07:00"
          },
          {
            "StartTime": "2020-07-01T02:00:00-07:00",
            "EndTime": "2020-07-01T06:00:00-07:00"
          }
        ],
        "BlockAnonymousIPs": true,
        "AllowlistedCountries": {
          "KR": true
        },
        "BlocklistedCountries": {},
        "BlocklistedZipCodes": {}
      },
      "goldmelover": {
        "TimeWindows": [
          {
            "StartTime": "2020-07-02T02:00:00-07:00",
            "EndTime": "2020-11-30T06:00:00-07:00"
          }
        ],
        "AllowlistedCountries": {
          "KR": true
        },
        "BlocklistedCountries": {},
        "BlockAnonymousIPs": true,
        "BlocklistedZipCodes": {}
      },
      "gomdol_nim": {
        "TimeWindows": [
          {
            "StartTime": "2020-06-10T23:00:00-07:00",
            "EndTime": "2020-11-30T06:00:00-07:00"
          }
        ],
        "BlockAnonymousIPs": true,
        "AllowlistedCountries": {
          "KR": true
        },
        "BlocklistedCountries": {},
        "BlocklistedZipCodes": {}
      },
      "gun2_051": {
        "TimeWindows": [
          {
            "StartTime": "2020-07-02T02:00:00-07:00",
            "EndTime": "2020-07-02T06:00:00-07:00"
          },
          {
            "StartTime": "2020-07-04T11:30:00-07:00",
            "EndTime": "2020-07-04T04:00:00-07:00"
          },
          {
            "StartTime": "2020-07-05T00:30:00-07:00",
            "EndTime": "2020-07-05T05:00:00-07:00"
          }
        ],
        "AllowlistedCountries": {
          "KR": true
        },
        "BlocklistedCountries": {},
        "BlockAnonymousIPs": true,
        "BlocklistedZipCodes": {}
      },
      "hanryangp1": {
        "TimeWindows": [
          {
            "StartTime": "2020-06-10T23:00:00-07:00",
            "EndTime": "2020-11-30T06:00:00-07:00"
          }
        ],
        "BlockAnonymousIPs": true,
        "AllowlistedCountries": {
          "KR": true
        },
        "BlocklistedCountries": {},
        "BlocklistedZipCodes": {}
      },
      "hanseungwoon": {
        "TimeWindows": [
          {
            "StartTime": "2020-06-10T23:00:00-07:00",
            "EndTime": "2020-11-30T06:00:00-07:00"
          }
        ],
        "BlockAnonymousIPs": true,
        "AllowlistedCountries": {
          "KR": true
        },
        "BlocklistedCountries": {},
        "BlocklistedZipCodes": {}
      },
      "harasyo1234": {
        "TimeWindows": [
          {
            "StartTime": "2020-06-10T23:00:00-07:00",
            "EndTime": "2020-11-30T06:00:00-07:00"
          }
        ],
        "BlockAnonymousIPs": true,
        "AllowlistedCountries": {
          "KR": true
        },
        "BlocklistedCountries": {},
        "BlocklistedZipCodes": {}
      },
      "horsemaskkr": {
        "TimeWindows": [
          {
            "StartTime": "2020-06-18T02:00:00-07:00",
            "EndTime": "2020-11-30T06:00:00-07:00"
          }
        ],
        "BlockAnonymousIPs": true,
        "AllowlistedCountries": {
          "KR": true
        },
        "BlocklistedCountries": {},
        "BlocklistedZipCodes": {}
      },
      "hyunrabbit": {
        "TimeWindows": [
          {
            "StartTime": "2020-07-03T02:00:00-07:00",
            "EndTime": "2020-07-03T06:00:00-07:00"
          },
          {
            "StartTime": "2020-07-04T11:30:00-07:00",
            "EndTime": "2020-07-04T04:00:00-07:00"
          },
          {
            "StartTime": "2020-07-05T00:30:00-07:00",
            "EndTime": "2020-07-05T05:00:00-07:00"
          },
          {
            "StartTime": "2020-07-07T02:00:00-07:00",
            "EndTime": "2020-07-07T06:00:00-07:00"
          }
        ],
        "AllowlistedCountries": {
          "KR": true
        },
        "BlocklistedCountries": {},
        "BlockAnonymousIPs": true,
        "BlocklistedZipCodes": {}
      },
      "impactwrestling": {
        "TimeWindows": [
          {
            "StartTime": "2020-02-14T17:00:00-08:00",
            "EndTime": "2022-03-31T20:00:00-08:00"
          }
        ],
        "BlockAnonymousIPs": true,
        "AllowlistedCountries": {},
        "BlocklistedCountries": {
          "AO": true,
          "BF": true,
          "BI": true,
          "BJ": true,
          "BW": true,
          "CD": true,
          "CF": true,
          "CG": true,
          "CI": true,
          "CM": true,
          "CV": true,
          "DJ": true,
          "ER": true,
          "ET": true,
          "GA": true,
          "GB": true,
          "GH": true,
          "GM": true,
          "GN": true,
          "GQ": true,
          "GW": true,
          "KE": true,
          "KM": true,
          "LR": true,
          "LS": true,
          "MG": true,
          "ML": true,
          "MR": true,
          "MU": true,
          "MW": true,
          "MX": true,
          "MZ": true,
          "NA": true,
          "NE": true,
          "NG": true,
          "RW": true,
          "SC": true,
          "SD": true,
          "SL": true,
          "SN": true,
          "SO": true,
          "SS": true,
          "ST": true,
          "SZ": true,
          "TD": true,
          "TG": true,
          "TZ": true,
          "UG": true,
          "ZA": true,
          "ZM": true,
          "ZW": true
        },
        "BlocklistedZipCodes": {},
        "AllowlistedPlatforms": {}
      },
      "imyoongoon": {
        "TimeWindows": [
          {
            "StartTime": "2020-07-01T02:00:00-07:00",
            "EndTime": "2020-07-01T06:00:00-07:00"
          },
          {
            "StartTime": "2020-07-02T02:00:00-07:00",
            "EndTime": "2020-07-02T06:00:00-07:00"
          },
          {
            "StartTime": "2020-07-03T02:00:00-07:00",
            "EndTime": "2020-07-03T06:00:00-07:00"
          },
          {
            "StartTime": "2020-07-04T11:30:00-07:00",
            "EndTime": "2020-07-04T04:00:00-07:00"
          },
          {
            "StartTime": "2020-07-05T00:30:00-07:00",
            "EndTime": "2020-07-05T05:00:00-07:00"
          },
          {
            "StartTime": "2020-07-07T02:00:00-07:00",
            "EndTime": "2020-07-07T06:00:00-07:00"
          },
          {
            "StartTime": "2020-07-08T02:00:00-07:00",
            "EndTime": "2020-07-08T06:00:00-07:00"
          }
        ],
        "AllowlistedCountries": {
          "KR": true
        },
        "BlocklistedCountries": {},
        "BlockAnonymousIPs": true,
        "BlocklistedZipCodes": {}
      },
      "inryun_": {
        "TimeWindows": [
          {
            "StartTime": "2020-06-18T02:00:00-07:00",
            "EndTime": "2020-11-30T06:00:00-07:00"
          }
        ],
        "BlockAnonymousIPs": true,
        "AllowlistedCountries": {
          "KR": true
        },
        "BlocklistedCountries": {},
        "BlocklistedZipCodes": {}
      },
      "jesssul": {
        "TimeWindows": [
          {
            "StartTime": "2020-06-18T02:00:00-07:00",
            "EndTime": "2020-11-30T06:00:00-07:00"
          }
        ],
        "BlockAnonymousIPs": true,
        "AllowlistedCountries": {
          "KR": true
        },
        "BlocklistedCountries": {},
        "BlocklistedZipCodes": {}
      },
      "jjurytv": {
        "TimeWindows": [
          {
            "StartTime": "2020-06-30T02:00:00-07:00",
            "EndTime": "2020-06-30T06:00:00-07:00"
          },
          {
            "StartTime": "2020-07-01T02:00:00-07:00",
            "EndTime": "2020-07-01T06:00:00-07:00"
          }
        ],
        "BlockAnonymousIPs": true,
        "AllowlistedCountries": {
          "KR": true
        },
        "BlocklistedCountries": {},
        "BlocklistedZipCodes": {}
      },
      "joe_int": {
        "TimeWindows": [
          {
            "StartTime": "2020-06-25T02:00:00-07:00",
            "EndTime": "2020-11-30T06:00:00-07:00"
          }
        ],
        "BlockAnonymousIPs": true,
        "AllowlistedCountries": {
          "KR": true
        },
        "BlocklistedCountries": {},
        "BlocklistedZipCodes": {}
      },
      "kamde_1999": {
        "TimeWindows": [
          {
            "StartTime": "2020-06-18T02:00:00-07:00",
            "EndTime": "2020-11-30T06:00:00-07:00"
          }
        ],
        "BlockAnonymousIPs": true,
        "AllowlistedCountries": {
          "KR": true
        },
        "BlocklistedCountries": {},
        "BlocklistedZipCodes": {}
      },
      "kang_louis": {
        "TimeWindows": [
          {
            "StartTime": "2020-06-18T02:00:00-07:00",
            "EndTime": "2020-11-30T06:00:00-07:00"
          }
        ],
        "BlockAnonymousIPs": true,
        "AllowlistedCountries": {
          "KR": true
        },
        "BlocklistedCountries": {},
        "BlocklistedZipCodes": {}
      },
      "kbo": {
        "TimeWindows": [
          {
            "StartTime": "2020-05-04T21:00:00-07:00",
            "EndTime": "2020-12-31T21:00:00-07:00"
          }
        ],
        "BlockAnonymousIPs": true,
        "AllowlistedCountries": {
          "KR": true
        },
        "BlocklistedCountries": {},
        "BlocklistedZipCodes": {},
        "AllowlistedPlatforms": {}
      },
      "kbo1": {
        "TimeWindows": [
          {
            "StartTime": "2020-05-04T21:00:00-07:00",
            "EndTime": "2020-12-31T21:00:00-07:00"
          }
        ],
        "BlockAnonymousIPs": true,
        "AllowlistedCountries": {
          "KR": true
        },
        "BlocklistedCountries": {},
        "BlocklistedZipCodes": {},
        "AllowlistedPlatforms": {}
      },
      "kbo2": {
        "TimeWindows": [
          {
            "StartTime": "2020-05-04T21:00:00-07:00",
            "EndTime": "2020-12-31T21:00:00-07:00"
          }
        ],
        "BlockAnonymousIPs": true,
        "AllowlistedCountries": {
          "KR": true
        },
        "BlocklistedCountries": {},
        "BlocklistedZipCodes": {},
        "AllowlistedPlatforms": {}
      },
      "kbo3": {
        "TimeWindows": [
          {
            "StartTime": "2020-05-04T21:00:00-07:00",
            "EndTime": "2020-12-31T21:00:00-07:00"
          }
        ],
        "BlockAnonymousIPs": true,
        "AllowlistedCountries": {
          "KR": true
        },
        "BlocklistedCountries": {},
        "BlocklistedZipCodes": {},
        "AllowlistedPlatforms": {}
      },
      "kbo4": {
        "TimeWindows": [
          {
            "StartTime": "2020-05-04T21:00:00-07:00",
            "EndTime": "2020-12-31T21:00:00-07:00"
          }
        ],
        "BlockAnonymousIPs": true,
        "AllowlistedCountries": {
          "KR": true
        },
        "BlocklistedCountries": {},
        "BlocklistedZipCodes": {},
        "AllowlistedPlatforms": {}
      },
      "kbo5": {
        "TimeWindows": [
          {
            "StartTime": "2020-05-04T21:00:00-07:00",
            "EndTime": "2020-12-31T21:00:00-07:00"
          }
        ],
        "BlockAnonymousIPs": true,
        "AllowlistedCountries": {
          "KR": true
        },
        "BlocklistedCountries": {},
        "BlocklistedZipCodes": {},
        "AllowlistedPlatforms": {}
      },
      "kgh20635": {
        "TimeWindows": [
          {
            "StartTime": "2020-06-18T02:00:00-07:00",
            "EndTime": "2020-11-30T06:00:00-07:00"
          }
        ],
        "BlockAnonymousIPs": true,
        "AllowlistedCountries": {
          "KR": true
        },
        "BlocklistedCountries": {},
        "BlocklistedZipCodes": {}
      },
      "khw500224": {
        "TimeWindows": [
          {
            "StartTime": "2020-07-02T02:00:00-07:00",
            "EndTime": "2020-11-30T06:00:00-07:00"
          }
        ],
        "AllowlistedCountries": {
          "KR": true
        },
        "BlocklistedCountries": {},
        "BlockAnonymousIPs": true,
        "BlocklistedZipCodes": {}
      },
      "killing113": {
        "TimeWindows": [
          {
            "StartTime": "2020-06-30T02:00:00-07:00",
            "EndTime": "2020-06-30T06:00:00-07:00"
          },
          {
            "StartTime": "2020-07-01T02:00:00-07:00",
            "EndTime": "2020-07-01T06:00:00-07:00"
          }
        ],
        "BlockAnonymousIPs": true,
        "AllowlistedCountries": {
          "KR": true
        },
        "BlocklistedCountries": {},
        "BlocklistedZipCodes": {}
      },
      "kissradio_fm999": {
        "TimeWindows": [
          {
            "StartTime": "2018-07-04T00:00:00Z",
            "EndTime": "3000-01-01T00:00:00Z"
          }
        ],
        "BlockAnonymousIPs": true,
        "AllowlistedCountries": {
          "TW": true
        },
        "BlocklistedCountries": {},
        "BlocklistedZipCodes": {},
        "AllowlistedPlatforms": {}
      },
      "kkangma26": {
        "TimeWindows": [
          {
            "StartTime": "2020-07-05T00:30:00-07:00",
            "EndTime": "2020-07-05T05:00:00-07:00"
          },
          {
            "StartTime": "2020-07-08T02:00:00-07:00",
            "EndTime": "2020-07-08T06:00:00-07:00"
          }
        ],
        "AllowlistedCountries": {
          "KR": true
        },
        "BlocklistedCountries": {},
        "BlockAnonymousIPs": true,
        "BlocklistedZipCodes": {}
      },
      "kodeng_e": {
        "TimeWindows": [
          {
            "StartTime": "2020-06-30T02:00:00-07:00",
            "EndTime": "2020-06-30T06:00:00-07:00"
          },
          {
            "StartTime": "2020-07-01T02:00:00-07:00",
            "EndTime": "2020-07-01T06:00:00-07:00"
          }
        ],
        "BlockAnonymousIPs": true,
        "AllowlistedCountries": {
          "KR": true
        },
        "BlocklistedCountries": {},
        "BlocklistedZipCodes": {}
      },
      "kor_ruby": {
        "TimeWindows": [
          {
            "StartTime": "2020-06-10T23:00:00-07:00",
            "EndTime": "2020-11-30T06:00:00-07:00"
          }
        ],
        "BlockAnonymousIPs": true,
        "AllowlistedCountries": {
          "KR": true
        },
        "BlocklistedCountries": {},
        "BlocklistedZipCodes": {}
      },
      "ksh30313": {
        "TimeWindows": [
          {
            "StartTime": "2020-06-25T02:00:00-07:00",
            "EndTime": "2020-11-30T06:00:00-07:00"
          }
        ],
        "BlockAnonymousIPs": true,
        "AllowlistedCountries": {
          "KR": true
        },
        "BlocklistedCountries": {},
        "BlocklistedZipCodes": {}
      },
      "kwanakmountainshy": {
        "TimeWindows": [
          {
            "StartTime": "2020-06-18T02:00:00-07:00",
            "EndTime": "2020-11-30T06:00:00-07:00"
          }
        ],
        "BlockAnonymousIPs": true,
        "AllowlistedCountries": {
          "KR": true
        },
        "BlocklistedCountries": {},
        "BlocklistedZipCodes": {}
      },
      "leedong8": {
        "TimeWindows": [
          {
            "StartTime": "2020-07-02T02:00:00-07:00",
            "EndTime": "2020-11-30T06:00:00-07:00"
          }
        ],
        "AllowlistedCountries": {
          "KR": true
        },
        "BlocklistedCountries": {},
        "BlockAnonymousIPs": true,
        "BlocklistedZipCodes": {}
      },
      "leichi01": {
        "TimeWindows": [
          {
            "StartTime": "2020-06-18T02:00:00-07:00",
            "EndTime": "2020-11-30T06:00:00-07:00"
          }
        ],
        "BlockAnonymousIPs": true,
        "AllowlistedCountries": {
          "KR": true
        },
        "BlocklistedCountries": {},
        "BlocklistedZipCodes": {}
      },
      "livekiss": {
        "TimeWindows": [
          {
            "StartTime": "2020-01-01T00:00:00-07:00",
            "EndTime": "3000-12-31T00:00:00-07:00"
          }
        ],
        "BlockAnonymousIPs": true,
        "AllowlistedCountries": {
          "TW": true
        },
        "BlocklistedCountries": {},
        "BlocklistedZipCodes": {}
      },
      "lucha1205": {
        "TimeWindows": [
          {
            "StartTime": "2020-06-18T02:00:00-07:00",
            "EndTime": "2020-11-30T06:00:00-07:00"
          }
        ],
        "BlockAnonymousIPs": true,
        "AllowlistedCountries": {
          "KR": true
        },
        "BlocklistedCountries": {},
        "BlocklistedZipCodes": {}
      },
      "luxuryk90": {
        "TimeWindows": [
          {
            "StartTime": "2020-06-10T23:00:00-07:00",
            "EndTime": "2020-11-30T06:00:00-07:00"
          }
        ],
        "BlockAnonymousIPs": true,
        "AllowlistedCountries": {
          "KR": true
        },
        "BlocklistedCountries": {},
        "BlocklistedZipCodes": {}
      },
      "m1oo4": {
        "TimeWindows": [
          {
            "StartTime": "2020-06-10T23:00:00-07:00",
            "EndTime": "2020-11-30T06:00:00-07:00"
          }
        ],
        "BlockAnonymousIPs": true,
        "AllowlistedCountries": {
          "KR": true
        },
        "BlocklistedCountries": {},
        "BlocklistedZipCodes": {}
      },
      "mimv3ly_": {
        "TimeWindows": [
          {
            "StartTime": "2020-07-04T11:30:00-07:00",
            "EndTime": "2020-07-04T04:00:00-07:00"
          },
          {
            "StartTime": "2020-07-05T00:30:00-07:00",
            "EndTime": "2020-07-05T05:00:00-07:00"
          }
        ],
        "AllowlistedCountries": {
          "KR": true
        },
        "BlocklistedCountries": {},
        "BlockAnonymousIPs": true,
        "BlocklistedZipCodes": {}
      },
      "mintcandy25": {
        "TimeWindows": [
          {
            "StartTime": "2020-07-01T02:00:00-07:00",
            "EndTime": "2020-07-01T06:00:00-07:00"
          },
          {
            "StartTime": "2020-07-02T02:00:00-07:00",
            "EndTime": "2020-07-02T06:00:00-07:00"
          },
          {
            "StartTime": "2020-07-03T02:00:00-07:00",
            "EndTime": "2020-07-03T06:00:00-07:00"
          },
          {
            "StartTime": "2020-07-04T11:30:00-07:00",
            "EndTime": "2020-07-04T04:00:00-07:00"
          },
          {
            "StartTime": "2020-07-05T00:30:00-07:00",
            "EndTime": "2020-07-05T05:00:00-07:00"
          },
          {
            "StartTime": "2020-07-07T02:00:00-07:00",
            "EndTime": "2020-07-07T06:00:00-07:00"
          },
          {
            "StartTime": "2020-07-08T02:00:00-07:00",
            "EndTime": "2020-07-08T06:00:00-07:00"
          }
        ],
        "AllowlistedCountries": {
          "KR": true
        },
        "BlocklistedCountries": {},
        "BlockAnonymousIPs": true,
        "BlocklistedZipCodes": {}
      },
      "mirrr365": {
        "TimeWindows": [
          {
            "StartTime": "2020-06-18T02:00:00-07:00",
            "EndTime": "2020-11-30T06:00:00-07:00"
          }
        ],
        "BlockAnonymousIPs": true,
        "AllowlistedCountries": {
          "KR": true
        },
        "BlocklistedCountries": {},
        "BlocklistedZipCodes": {}
      },
      "mrgdr111": {
        "TimeWindows": [
          {
            "StartTime": "2020-06-10T23:00:00-07:00",
            "EndTime": "2020-11-30T06:00:00-07:00"
          }
        ],
        "BlockAnonymousIPs": true,
        "AllowlistedCountries": {
          "KR": true
        },
        "BlocklistedCountries": {},
        "BlocklistedZipCodes": {}
      },
      "mrsharkempel": {
        "TimeWindows": [
          {
            "StartTime": "2020-06-10T23:00:00-07:00",
            "EndTime": "2020-11-30T06:00:00-07:00"
          }
        ],
        "BlockAnonymousIPs": true,
        "AllowlistedCountries": {
          "KR": true
        },
        "BlocklistedCountries": {},
        "BlocklistedZipCodes": {}
      },
      "muhwang": {
        "TimeWindows": [
          {
            "StartTime": "2020-06-18T02:00:00-07:00",
            "EndTime": "2020-11-30T06:00:00-07:00"
          }
        ],
        "BlockAnonymousIPs": true,
        "AllowlistedCountries": {
          "KR": true
        },
        "BlocklistedCountries": {},
        "BlocklistedZipCodes": {}
      },
      "muse_tw": {
        "TimeWindows": [
          {
            "StartTime": "2019-09-01T00:00:00+08:00",
            "EndTime": "2021-09-01T00:00:00+08:00"
          }
        ],
        "BlockAnonymousIPs": true,
        "AllowlistedCountries": {
          "TW": true
        },
        "BlocklistedCountries": {},
        "BlocklistedZipCodes": {},
        "AllowlistedPlatforms": {}
      },
      "mynamesunpower": {
        "TimeWindows": [
          {
            "StartTime": "2020-06-25T02:00:00-07:00",
            "EndTime": "2020-11-30T06:00:00-07:00"
          }
        ],
        "BlockAnonymousIPs": true,
        "AllowlistedCountries": {
          "KR": true
        },
        "BlocklistedCountries": {},
        "BlocklistedZipCodes": {}
      },
      "nbagleaguecostreams": {
        "TimeWindows": [
          {
            "StartTime": "2017-11-01T00:00:00Z",
            "EndTime": "3000-01-01T00:00:00Z"
          }
        ],
        "BlockAnonymousIPs": true,
        "AllowlistedCountries": {},
        "BlocklistedCountries": {
          "CN": true,
          "HK": true,
          "MO": true
        },
        "BlocklistedZipCodes": {},
        "AllowlistedPlatforms": {}
      },
      "nbaleague": {
        "TimeWindows": [
          {
            "StartTime": "2017-11-01T00:00:00Z",
            "EndTime": "3000-01-01T00:00:00Z"
          }
        ],
        "BlockAnonymousIPs": true,
        "AllowlistedCountries": {},
        "BlocklistedCountries": {
          "CN": true,
          "HK": true,
          "MO": true
        },
        "BlocklistedZipCodes": {},
        "AllowlistedPlatforms": {}
      },
      "nbl": {
        "TimeWindows": [
          {
            "StartTime": "2019-10-10T00:00:00-07:00",
            "EndTime": "3000-01-01T00:00:00Z"
          }
        ],
        "BlockAnonymousIPs": true,
        "AllowlistedCountries": {},
        "BlocklistedCountries": {
          "NZ": true
        },
        "BlocklistedZipCodes": {},
        "AllowlistedPlatforms": {}
      },
      "nblcostream": {
        "TimeWindows": [
          {
            "StartTime": "2019-10-10T00:00:00-07:00",
            "EndTime": "3000-01-01T00:00:00Z"
          }
        ],
        "BlockAnonymousIPs": true,
        "AllowlistedCountries": {},
        "BlocklistedCountries": {
          "NZ": true
        },
        "BlocklistedZipCodes": {},
        "AllowlistedPlatforms": {}
      },
      "nnabi": {
        "TimeWindows": [
          {
            "StartTime": "2020-06-18T02:00:00-07:00",
            "EndTime": "2020-11-30T06:00:00-07:00"
          }
        ],
        "BlockAnonymousIPs": true,
        "AllowlistedCountries": {
          "KR": true
        },
        "BlocklistedCountries": {},
        "BlocklistedZipCodes": {}
      },
      "normal_noobi": {
        "TimeWindows": [
          {
            "StartTime": "2020-07-01T02:00:00-07:00",
            "EndTime": "2020-07-01T06:00:00-07:00"
          },
          {
            "StartTime": "2020-07-02T02:00:00-07:00",
            "EndTime": "2020-07-02T06:00:00-07:00"
          },
          {
            "StartTime": "2020-07-03T02:00:00-07:00",
            "EndTime": "2020-07-03T06:00:00-07:00"
          },
          {
            "StartTime": "2020-07-07T02:00:00-07:00",
            "EndTime": "2020-07-07T06:00:00-07:00"
          },
          {
            "StartTime": "2020-07-08T02:00:00-07:00",
            "EndTime": "2020-07-08T06:00:00-07:00"
          }
        ],
        "AllowlistedCountries": {
          "KR": true
        },
        "BlocklistedCountries": {},
        "BlockAnonymousIPs": true,
        "BlocklistedZipCodes": {}
      },
      "nwslofficial2": {
        "TimeWindows": [
          {
            "StartTime": "2020-04-06T10:00:00-07:00",
            "EndTime": "3000-01-01T00:00:00-07:00"
          }
        ],
        "BlockAnonymousIPs": true,
        "AllowlistedCountries": {},
        "BlocklistedCountries": {
          "CA": true,
          "US": true
        },
        "BlocklistedZipCodes": {},
        "AllowlistedPlatforms": {}
      },
      "nwslofficial3": {
        "TimeWindows": [
          {
            "StartTime": "2020-04-06T10:00:00-07:00",
            "EndTime": "3000-01-01T00:00:00-07:00"
          }
        ],
        "BlockAnonymousIPs": true,
        "AllowlistedCountries": {},
        "BlocklistedCountries": {
          "CA": true,
          "US": true
        },
        "BlocklistedZipCodes": {},
        "AllowlistedPlatforms": {}
      },
      "nwslofficial4": {
        "TimeWindows": [
          {
            "StartTime": "2020-04-06T10:00:00-07:00",
            "EndTime": "3000-01-01T00:00:00-07:00"
          }
        ],
        "BlockAnonymousIPs": true,
        "AllowlistedCountries": {},
        "BlocklistedCountries": {
          "CA": true,
          "US": true
        },
        "BlocklistedZipCodes": {},
        "AllowlistedPlatforms": {}
      },
      "panguinc": {
        "TimeWindows": [
          {
            "StartTime": "2020-06-10T23:00:00-07:00",
            "EndTime": "2020-11-30T06:00:00-07:00"
          }
        ],
        "BlockAnonymousIPs": true,
        "AllowlistedCountries": {
          "KR": true
        },
        "BlocklistedCountries": {},
        "BlocklistedZipCodes": {}
      },
      "parkjand": {
        "TimeWindows": [
          {
            "StartTime": "2020-06-10T23:00:00-07:00",
            "EndTime": "2020-11-30T06:00:00-07:00"
          }
        ],
        "BlockAnonymousIPs": true,
        "AllowlistedCountries": {
          "KR": true
        },
        "BlocklistedCountries": {},
        "BlocklistedZipCodes": {}
      },
      "peacemirai": {
        "TimeWindows": [
          {
            "StartTime": "2020-06-25T02:00:00-07:00",
            "EndTime": "2020-11-30T06:00:00-07:00"
          }
        ],
        "BlockAnonymousIPs": true,
        "AllowlistedCountries": {
          "KR": true
        },
        "BlocklistedCountries": {},
        "BlocklistedZipCodes": {}
      },
      "pensi9932": {
        "TimeWindows": [
          {
            "StartTime": "2020-06-18T02:00:00-07:00",
            "EndTime": "2020-11-30T06:00:00-07:00"
          }
        ],
        "BlockAnonymousIPs": true,
        "AllowlistedCountries": {
          "KR": true
        },
        "BlocklistedCountries": {},
        "BlocklistedZipCodes": {}
      },
      "pepsi_1898": {
        "TimeWindows": [
          {
            "StartTime": "2020-06-10T23:00:00-07:00",
            "EndTime": "2020-11-30T06:00:00-07:00"
          }
        ],
        "BlockAnonymousIPs": true,
        "AllowlistedCountries": {
          "KR": true
        },
        "BlocklistedCountries": {},
        "BlocklistedZipCodes": {}
      },
      "pista_chio": {
        "TimeWindows": [
          {
            "StartTime": "2020-07-01T02:00:00-07:00",
            "EndTime": "2020-07-01T06:00:00-07:00"
          },
          {
            "StartTime": "2020-07-03T02:00:00-07:00",
            "EndTime": "2020-07-03T06:00:00-07:00"
          },
          {
            "StartTime": "2020-07-04T11:30:00-07:00",
            "EndTime": "2020-07-04T04:00:00-07:00"
          },
          {
            "StartTime": "2020-07-05T00:30:00-07:00",
            "EndTime": "2020-07-05T05:00:00-07:00"
          },
          {
            "StartTime": "2020-07-07T02:00:00-07:00",
            "EndTime": "2020-07-07T06:00:00-07:00"
          },
          {
            "StartTime": "2020-07-08T02:00:00-07:00",
            "EndTime": "2020-07-08T06:00:00-07:00"
          }
        ],
        "AllowlistedCountries": {
          "KR": true
        },
        "BlocklistedCountries": {},
        "BlockAnonymousIPs": true,
        "BlocklistedZipCodes": {}
      },
      "poohminy": {
        "TimeWindows": [
          {
            "StartTime": "2020-07-02T02:00:00-07:00",
            "EndTime": "2020-11-30T06:00:00-07:00"
          }
        ],
        "AllowlistedCountries": {
          "KR": true
        },
        "BlocklistedCountries": {},
        "BlockAnonymousIPs": true,
        "BlocklistedZipCodes": {}
      },
      "primevideo": {
        "TimeWindows": [
          {
            "StartTime": "2020-06-26T01:00:00-07:00",
            "EndTime": "2020-07-22T01:00:00-07:00"
          }
        ],
        "BlockAnonymousIPs": true,
        "AllowlistedCountries": {
          "GB": true,
          "GG": true,
          "IM": true,
          "JE": true
        },
        "BlocklistedCountries": {},
        "BlocklistedZipCodes": {}
      },
      "qa_drm_ca_blackout": {
        "TimeWindows": [
          {
            "StartTime": "2016-07-27T00:00:00Z",
            "EndTime": "3000-01-01T00:00:00Z"
          }
        ],
        "BlockAnonymousIPs": true,
        "AllowlistedCountries": {},
        "BlocklistedCountries": {},
        "BlocklistedZipCodes": {
          "V6V": true
        },
        "AllowlistedPlatforms": {}
      },
      "qib12dn8nqt1": {
        "TimeWindows": [
          {
            "StartTime": "2020-06-24T01:00:00-07:00",
            "EndTime": "2020-07-22T01:00:00-07:00"
          }
        ],
        "BlockAnonymousIPs": true,
        "AllowlistedCountries": {
          "GB": true,
          "GG": true,
          "IM": true,
          "JE": true
        },
        "BlocklistedCountries": {},
        "BlocklistedZipCodes": {}
      },
      "radiator0516": {
        "TimeWindows": [
          {
            "StartTime": "2020-06-10T23:00:00-07:00",
            "EndTime": "2020-11-30T06:00:00-07:00"
          }
        ],
        "BlockAnonymousIPs": true,
        "AllowlistedCountries": {
          "KR": true
        },
        "BlocklistedCountries": {},
        "BlocklistedZipCodes": {}
      },
      "ryvius_hs": {
        "TimeWindows": [
          {
            "StartTime": "2020-06-18T02:00:00-07:00",
            "EndTime": "2020-11-30T06:00:00-07:00"
          }
        ],
        "BlockAnonymousIPs": true,
        "AllowlistedCountries": {
          "KR": true
        },
        "BlocklistedCountries": {},
        "BlocklistedZipCodes": {}
      },
      "sayeowoo": {
        "TimeWindows": [
          {
            "StartTime": "2020-06-18T02:00:00-07:00",
            "EndTime": "2020-11-30T06:00:00-07:00"
          }
        ],
        "BlockAnonymousIPs": true,
        "AllowlistedCountries": {
          "KR": true
        },
        "BlocklistedCountries": {},
        "BlocklistedZipCodes": {}
      },
      "seea6624": {
        "TimeWindows": [
          {
            "StartTime": "2020-06-18T02:00:00-07:00",
            "EndTime": "2020-11-30T06:00:00-07:00"
          }
        ],
        "BlockAnonymousIPs": true,
        "AllowlistedCountries": {
          "KR": true
        },
        "BlocklistedCountries": {},
        "BlocklistedZipCodes": {}
      },
      "several11": {
        "TimeWindows": [
          {
            "StartTime": "2020-06-30T02:00:00-07:00",
            "EndTime": "2020-06-30T06:00:00-07:00"
          },
          {
            "StartTime": "2020-07-01T02:00:00-07:00",
            "EndTime": "2020-07-01T06:00:00-07:00"
          }
        ],
        "BlockAnonymousIPs": true,
        "AllowlistedCountries": {
          "KR": true
        },
        "BlocklistedCountries": {},
        "BlocklistedZipCodes": {}
      },
      "shoutfactorytv": {
        "TimeWindows": [
          {
            "StartTime": "2019-08-11T23:00:00-07:00",
            "EndTime": "3000-01-01T00:00:00Z"
          }
        ],
        "BlockAnonymousIPs": true,
        "AllowlistedCountries": {
          "CA": true,
          "US": true
        },
        "BlocklistedCountries": {},
        "BlocklistedZipCodes": {},
        "AllowlistedPlatforms": {}
      },
      "shudder": {
        "TimeWindows": [
          {
            "StartTime": "2017-11-15T00:00:00Z",
            "EndTime": "3000-01-01T00:00:00Z"
          }
        ],
        "BlockAnonymousIPs": true,
        "AllowlistedCountries": {
          "US": true
        },
        "BlocklistedCountries": {},
        "BlocklistedZipCodes": {},
        "AllowlistedPlatforms": {}
      },
      "siaya__": {
        "TimeWindows": [
          {
            "StartTime": "2020-06-10T23:00:00-07:00",
            "EndTime": "2020-11-30T06:00:00-07:00"
          }
        ],
        "BlockAnonymousIPs": true,
        "AllowlistedCountries": {
          "KR": true
        },
        "BlocklistedCountries": {},
        "BlocklistedZipCodes": {}
      },
      "silentgoma": {
        "TimeWindows": [
          {
            "StartTime": "2020-06-10T23:00:00-07:00",
            "EndTime": "2020-11-30T06:00:00-07:00"
          }
        ],
        "BlockAnonymousIPs": true,
        "AllowlistedCountries": {
          "KR": true
        },
        "BlocklistedCountries": {},
        "BlocklistedZipCodes": {}
      },
      "songchoko": {
        "TimeWindows": [
          {
            "StartTime": "2020-06-10T23:00:00-07:00",
            "EndTime": "2020-11-30T06:00:00-07:00"
          }
        ],
        "BlockAnonymousIPs": true,
        "AllowlistedCountries": {
          "KR": true
        },
        "BlocklistedCountries": {},
        "BlocklistedZipCodes": {}
      },
      "sosie_0": {
        "TimeWindows": [
          {
            "StartTime": "2020-06-10T23:00:00-07:00",
            "EndTime": "2020-11-30T06:00:00-07:00"
          }
        ],
        "BlockAnonymousIPs": true,
        "AllowlistedCountries": {
          "KR": true
        },
        "BlocklistedCountries": {},
        "BlocklistedZipCodes": {}
      },
      "spiritzer0": {
        "TimeWindows": [
          {
            "StartTime": "2020-07-01T02:00:00-07:00",
            "EndTime": "2020-07-01T06:00:00-07:00"
          },
          {
            "StartTime": "2020-07-03T02:00:00-07:00",
            "EndTime": "2020-07-03T06:00:00-07:00"
          },
          {
            "StartTime": "2020-07-04T11:30:00-07:00",
            "EndTime": "2020-07-04T04:00:00-07:00"
          },
          {
            "StartTime": "2020-07-05T00:30:00-07:00",
            "EndTime": "2020-07-05T05:00:00-07:00"
          },
          {
            "StartTime": "2020-07-07T02:00:00-07:00",
            "EndTime": "2020-07-07T06:00:00-07:00"
          },
          {
            "StartTime": "2020-07-08T02:00:00-07:00",
            "EndTime": "2020-07-08T06:00:00-07:00"
          }
        ],
        "AllowlistedCountries": {
          "KR": true
        },
        "BlocklistedCountries": {},
        "BlockAnonymousIPs": true,
        "BlocklistedZipCodes": {}
      },
      "stadium": {
        "TimeWindows": [
          {
            "StartTime": "2017-12-01T00:00:00Z",
            "EndTime": "3000-01-01T00:00:00Z"
          }
        ],
        "BlockAnonymousIPs": true,
        "AllowlistedCountries": {
          "US": true
        },
        "BlocklistedCountries": {},
        "BlocklistedZipCodes": {},
        "AllowlistedPlatforms": {}
      },
      "studybeaver": {
        "TimeWindows": [
          {
            "StartTime": "2020-06-18T02:00:00-07:00",
            "EndTime": "2020-11-30T06:00:00-07:00"
          }
        ],
        "BlockAnonymousIPs": true,
        "AllowlistedCountries": {
          "KR": true
        },
        "BlocklistedCountries": {},
        "BlocklistedZipCodes": {}
      },
      "suhan213": {
        "TimeWindows": [
          {
            "StartTime": "2020-07-03T02:00:00-07:00",
            "EndTime": "2020-07-03T06:00:00-07:00"
          },
          {
            "StartTime": "2020-07-04T11:30:00-07:00",
            "EndTime": "2020-07-04T04:00:00-07:00"
          },
          {
            "StartTime": "2020-07-05T00:30:00-07:00",
            "EndTime": "2020-07-05T05:00:00-07:00"
          }
        ],
        "AllowlistedCountries": {
          "KR": true
        },
        "BlocklistedCountries": {},
        "BlockAnonymousIPs": true,
        "BlocklistedZipCodes": {}
      },
      "tekkenlee3": {
        "TimeWindows": [
          {
            "StartTime": "2020-06-10T23:00:00-07:00",
            "EndTime": "2020-11-30T06:00:00-07:00"
          }
        ],
        "BlockAnonymousIPs": true,
        "AllowlistedCountries": {
          "KR": true
        },
        "BlocklistedCountries": {},
        "BlocklistedZipCodes": {}
      },
      "thealtchannel": {
        "TimeWindows": [
          {
            "StartTime": "2017-11-13T00:00:00Z",
            "EndTime": "3000-01-01T00:00:00Z"
          }
        ],
        "BlockAnonymousIPs": true,
        "AllowlistedCountries": {
          "US": true
        },
        "BlocklistedCountries": {},
        "BlocklistedZipCodes": {},
        "AllowlistedPlatforms": {}
      },
      "toyamakazuha": {
        "TimeWindows": [
          {
            "StartTime": "2020-06-18T02:00:00-07:00",
            "EndTime": "2020-11-30T06:00:00-07:00"
          }
        ],
        "BlockAnonymousIPs": true,
        "AllowlistedCountries": {
          "KR": true
        },
        "BlocklistedCountries": {},
        "BlocklistedZipCodes": {}
      },
      "tvclassicsus": {
        "TimeWindows": [
          {
            "StartTime": "2018-09-28T00:01:00-07:00",
            "EndTime": "3000-01-01T00:00:00Z"
          }
        ],
        "BlockAnonymousIPs": true,
        "AllowlistedCountries": {
          "US": true
        },
        "BlocklistedCountries": {},
        "BlocklistedZipCodes": {},
        "AllowlistedPlatforms": {}
      },
      "tvcrank": {
        "TimeWindows": [
          {
            "StartTime": "2020-07-02T02:00:00-07:00",
            "EndTime": "2020-07-02T06:00:00-07:00"
          },
          {
            "StartTime": "2020-07-03T02:00:00-07:00",
            "EndTime": "2020-07-03T06:00:00-07:00"
          },
          {
            "StartTime": "2020-07-04T11:30:00-07:00",
            "EndTime": "2020-07-04T04:00:00-07:00"
          },
          {
            "StartTime": "2020-07-05T00:30:00-07:00",
            "EndTime": "2020-07-05T05:00:00-07:00"
          },
          {
            "StartTime": "2020-07-08T02:00:00-07:00",
            "EndTime": "2020-07-08T06:00:00-07:00"
          }
        ],
        "AllowlistedCountries": {
          "KR": true
        },
        "BlocklistedCountries": {},
        "BlockAnonymousIPs": true,
        "BlocklistedZipCodes": {}
      },
      "twitchmedia_gblocktest": {
        "TimeWindows": [
          {
            "StartTime": "2016-07-27T00:00:00Z",
            "EndTime": "3000-01-01T00:00:00Z"
          }
        ],
        "BlockAnonymousIPs": true,
        "AllowlistedCountries": {},
        "BlocklistedCountries": {
          "CA": true,
          "US": true
        },
        "BlocklistedZipCodes": {},
        "AllowlistedPlatforms": {}
      },
      "uprisings02": {
        "TimeWindows": [
          {
            "StartTime": "2020-06-10T23:00:00-07:00",
            "EndTime": "2020-11-30T06:00:00-07:00"
          }
        ],
        "BlockAnonymousIPs": true,
        "AllowlistedCountries": {
          "KR": true
        },
        "BlocklistedCountries": {},
        "BlocklistedZipCodes": {}
      },
      "vvt_plstkr": {
        "TimeWindows": [
          {
            "StartTime": "2020-06-30T02:00:00-07:00",
            "EndTime": "2020-06-30T06:00:00-07:00"
          },
          {
            "StartTime": "2020-07-01T02:00:00-07:00",
            "EndTime": "2020-07-01T06:00:00-07:00"
          }
        ],
        "BlockAnonymousIPs": true,
        "AllowlistedCountries": {
          "KR": true
        },
        "BlocklistedCountries": {},
        "BlocklistedZipCodes": {}
      },
      "windsearain": {
        "TimeWindows": [
          {
            "StartTime": "2020-06-18T02:00:00-07:00",
            "EndTime": "2020-11-30T06:00:00-07:00"
          }
        ],
        "BlockAnonymousIPs": true,
        "AllowlistedCountries": {
          "KR": true
        },
        "BlocklistedCountries": {},
        "BlocklistedZipCodes": {}
      },
      "winterleee": {
        "TimeWindows": [
          {
            "StartTime": "2020-06-10T23:00:00-07:00",
            "EndTime": "2020-11-30T06:00:00-07:00"
          }
        ],
        "BlockAnonymousIPs": true,
        "AllowlistedCountries": {
          "KR": true
        },
        "BlocklistedCountries": {},
        "BlocklistedZipCodes": {}
      },
      "wonzy_world": {
        "TimeWindows": [
          {
            "StartTime": "2020-06-18T02:00:00-07:00",
            "EndTime": "2020-11-30T06:00:00-07:00"
          }
        ],
        "BlockAnonymousIPs": true,
        "AllowlistedCountries": {
          "KR": true
        },
        "BlocklistedCountries": {},
        "BlocklistedZipCodes": {}
      },
      "wookkoon": {
        "TimeWindows": [
          {
            "StartTime": "2020-07-01T02:00:00-07:00",
            "EndTime": "2020-07-01T06:00:00-07:00"
          },
          {
            "StartTime": "2020-07-02T02:00:00-07:00",
            "EndTime": "2020-07-02T06:00:00-07:00"
          },
          {
            "StartTime": "2020-07-03T02:00:00-07:00",
            "EndTime": "2020-07-03T06:00:00-07:00"
          },
          {
            "StartTime": "2020-07-04T11:30:00-07:00",
            "EndTime": "2020-07-04T04:00:00-07:00"
          },
          {
            "StartTime": "2020-07-05T00:30:00-07:00",
            "EndTime": "2020-07-05T05:00:00-07:00"
          },
          {
            "StartTime": "2020-07-07T02:00:00-07:00",
            "EndTime": "2020-07-07T06:00:00-07:00"
          },
          {
            "StartTime": "2020-07-08T02:00:00-07:00",
            "EndTime": "2020-07-08T06:00:00-07:00"
          }
        ],
        "AllowlistedCountries": {
          "KR": true
        },
        "BlocklistedCountries": {},
        "BlockAnonymousIPs": true,
        "BlocklistedZipCodes": {}
      },
      "wooneed": {
        "TimeWindows": [
          {
            "StartTime": "2020-06-30T02:00:00-07:00",
            "EndTime": "2020-06-30T06:00:00-07:00"
          },
          {
            "StartTime": "2020-07-01T02:00:00-07:00",
            "EndTime": "2020-07-01T06:00:00-07:00"
          }
        ],
        "BlockAnonymousIPs": true,
        "AllowlistedCountries": {
          "KR": true
        },
        "BlocklistedCountries": {},
        "BlocklistedZipCodes": {}
      },
      "woongkil01": {
        "TimeWindows": [
          {
            "StartTime": "2020-06-18T02:00:00-07:00",
            "EndTime": "2020-11-30T06:00:00-07:00"
          }
        ],
        "BlockAnonymousIPs": true,
        "AllowlistedCountries": {
          "KR": true
        },
        "BlocklistedCountries": {},
        "BlocklistedZipCodes": {}
      },
      "would0619": {
        "TimeWindows": [
          {
            "StartTime": "2020-06-10T23:00:00-07:00",
            "EndTime": "2020-11-30T06:00:00-07:00"
          }
        ],
        "BlockAnonymousIPs": true,
        "AllowlistedCountries": {
          "KR": true
        },
        "BlocklistedCountries": {},
        "BlocklistedZipCodes": {}
      },
      "wtower98": {
        "TimeWindows": [
          {
            "StartTime": "2020-06-18T02:00:00-07:00",
            "EndTime": "2020-11-30T06:00:00-07:00"
          }
        ],
        "BlockAnonymousIPs": true,
        "AllowlistedCountries": {
          "KR": true
        },
        "BlocklistedCountries": {},
        "BlocklistedZipCodes": {}
      },
      "yang_arch": {
        "TimeWindows": [
          {
            "StartTime": "2020-06-10T23:00:00-07:00",
            "EndTime": "2020-11-30T06:00:00-07:00"
          }
        ],
        "BlockAnonymousIPs": true,
        "AllowlistedCountries": {
          "KR": true
        },
        "BlocklistedCountries": {},
        "BlocklistedZipCodes": {}
      },
      "yanghyun2": {
        "TimeWindows": [
          {
            "StartTime": "2020-07-01T02:00:00-07:00",
            "EndTime": "2020-07-01T06:00:00-07:00"
          },
          {
            "StartTime": "2020-07-02T02:00:00-07:00",
            "EndTime": "2020-07-02T06:00:00-07:00"
          },
          {
            "StartTime": "2020-07-03T02:00:00-07:00",
            "EndTime": "2020-07-03T06:00:00-07:00"
          },
          {
            "StartTime": "2020-07-04T11:30:00-07:00",
            "EndTime": "2020-07-04T04:00:00-07:00"
          },
          {
            "StartTime": "2020-07-05T00:30:00-07:00",
            "EndTime": "2020-07-05T05:00:00-07:00"
          },
          {
            "StartTime": "2020-07-07T02:00:00-07:00",
            "EndTime": "2020-07-07T06:00:00-07:00"
          },
          {
            "StartTime": "2020-07-08T02:00:00-07:00",
            "EndTime": "2020-07-08T06:00:00-07:00"
          }
        ],
        "AllowlistedCountries": {
          "KR": true
        },
        "BlocklistedCountries": {},
        "BlockAnonymousIPs": true,
        "BlocklistedZipCodes": {}
      },
      "yayo_122": {
        "TimeWindows": [
          {
            "StartTime": "2020-07-02T02:00:00-07:00",
            "EndTime": "2020-07-02T06:00:00-07:00"
          },
          {
            "StartTime": "2020-07-03T02:00:00-07:00",
            "EndTime": "2020-07-03T06:00:00-07:00"
          },
          {
            "StartTime": "2020-07-04T11:30:00-07:00",
            "EndTime": "2020-07-04T04:00:00-07:00"
          },
          {
            "StartTime": "2020-07-05T00:30:00-07:00",
            "EndTime": "2020-07-05T05:00:00-07:00"
          },
          {
            "StartTime": "2020-07-07T02:00:00-07:00",
            "EndTime": "2020-07-07T06:00:00-07:00"
          },
          {
            "StartTime": "2020-07-08T02:00:00-07:00",
            "EndTime": "2020-07-08T06:00:00-07:00"
          }
        ],
        "AllowlistedCountries": {
          "KR": true
        },
        "BlocklistedCountries": {},
        "BlockAnonymousIPs": true,
        "BlocklistedZipCodes": {}
      },
      "yeoni90": {
        "TimeWindows": [
          {
            "StartTime": "2020-06-10T23:00:00-07:00",
            "EndTime": "2020-11-30T06:00:00-07:00"
          }
        ],
        "BlockAnonymousIPs": true,
        "AllowlistedCountries": {
          "KR": true
        },
        "BlocklistedCountries": {},
        "BlocklistedZipCodes": {}
      },
      "yjs1104": {
        "TimeWindows": [
          {
            "StartTime": "2020-07-04T11:30:00-07:00",
            "EndTime": "2020-07-04T04:00:00-07:00"
          },
          {
            "StartTime": "2020-07-05T00:30:00-07:00",
            "EndTime": "2020-07-05T05:00:00-07:00"
          },
          {
            "StartTime": "2020-07-08T02:00:00-07:00",
            "EndTime": "2020-07-08T06:00:00-07:00"
          }
        ],
        "AllowlistedCountries": {
          "KR": true
        },
        "BlocklistedCountries": {},
        "BlockAnonymousIPs": true,
        "BlocklistedZipCodes": {}
      },
      "yoonhan0122": {
        "TimeWindows": [
          {
            "StartTime": "2020-06-10T23:00:00-07:00",
            "EndTime": "2020-11-30T06:00:00-07:00"
          },
          {
            "StartTime": "2020-06-10T23:00:00-07:00",
            "EndTime": "2020-11-30T06:00:00-07:00"
          }
        ],
        "BlockAnonymousIPs": true,
        "AllowlistedCountries": {
          "KR": true
        },
        "BlocklistedCountries": {},
        "BlocklistedZipCodes": {}
      },
      "ysdnyan86": {
        "TimeWindows": [
          {
            "StartTime": "2020-06-30T02:00:00-07:00",
            "EndTime": "2020-06-30T06:00:00-07:00"
          },
          {
            "StartTime": "2020-07-01T02:00:00-07:00",
            "EndTime": "2020-07-01T06:00:00-07:00"
          }
        ],
        "BlockAnonymousIPs": true,
        "AllowlistedCountries": {
          "KR": true
        },
        "BlocklistedCountries": {},
        "BlocklistedZipCodes": {}
      }
    }
  }
}
