204292754,A
32054721,A
87065656,A
6384865,A
97125857,A
143646303,A
266390527,A
66578605,A
140264432,A
265583425,A
91902095,A
157396024,A
272416282,A
117339504,A
71144276,A
130143002,A
469106310,A
117277766,A
452419502,A
463062979,A
271639552,A
60896493,A
82235432,A
430601929,A
232409264,A
42247763,A
117520124,A
130978781,A
39883856,A
266677132,A
211150720,A
195910418,A
99289181,A
412176881,A
216471229,A
32402327,A
433940498,A
492404070,A
244278309,A
190114228,A
5391073,A
60716993,A
140786229,A
40581075,A
411043544,A
195284423,A
263070745,A
89035098,A
81149948,A
233975668,A
470283115,A
162648441,A
110059364,A
465900026,A
435342129,A
128397294,A
219043803,A
143647443,A
108815163,A
138302044,A
179783565,A
32123696,A
433888935,A
108640033,A
208372945,A
195864853,A
458318242,A
24624949,A
459181489,A
170454615,A
496179970,A
43408722,A
154047096,A
46272261,A
26827624,A
126108020,A
176711019,A
177828778,A
158430329,A
144769862,A
148934727,A
119314084,A
1548127,A
455795506,A
456170865,A
172183486,A
174927581,A
409679117,A
132900012,A
513850894,A
119313962,A
58945253,A
85160583,A
43502107,A
23409500,A
462716394,A
102653077,A
424034799,A
512186826,A
123901419,A
113466022,A
161166080,A
270148744,A
104284967,A
80030974,A
142358640,A
158381835,A
45918087,A
208584551,A
72575020,A
268090449,A
181168711,A
265346383,A
112301927,A
276638932,A
455812677,A
66180997,A
50959325,A
164128396,A
236970873,A
114502344,A
255674052,A
436224661,A
86876307,A
501178140,A
189665934,A
146120636,A
112478013,A
48860170,A
86245182,A
198104233,A
271129425,A
67510664,A
411317102,A
114072854,A
414104057,A
44114423,A
133060844,A
59280588,A
186405058,A
41003165,A
204876416,A
132254073,A
437679413,A
117873461,A
37234952,A
451058951,A
168333082,A
150152001,A
82488261,A
130444812,A
146888329,A
418537835,A
67567552,A
69616840,A
51618318,A
189166659,A
176289689,A
62006373,A
62303665,A
452648227,A
146485772,A
214590943,A
132682852,A
478939369,A
195075892,A
208015804,A
437623073,A
114058752,A
239588194,A
18360835,A
431220927,A
149861210,A
192545214,A
150989074,A
82730089,A
497362779,A
249310632,A
119592602,A
133405047,A
68719668,A
185417495,A
180521338,A
167400664,A
99236935,A
527483170,A
185778643,A
180864464,A
401878216,A
45016631,A
173007242,A
64360521,A
274078390,A
513462759,A
266726094,A
117151954,A
472657096,A
157309683,A
68026308,A
110344227,A
102879510,A
151569582,A
268619417,A
470933099,A
196759608,A
203878131,A
476367311,A
252785728,A
64650559,A
247545592,A
166612082,A
132092743,A
151975265,A
91354972,A
56100375,A
92875150,A
141944390,A
127235243,A
111765636,A
197568239,A
117448480,A
144736023,A
37905227,A
461382971,A
130292786,A
95443947,A
147023699,A
37270823,A
59127703,A
42164133,A
209733824,A
512991858,A
124318212,A
4121997,A
71237713,A
5608104,A
46917526,A
89819607,A
151096710,A
65155012,A
108540149,A
195944465,A
42614503,A
108457334,A
60357507,A
240206856,A
122830943,A
100109307,A
160758586,A
54654189,A
484515345,A
245545714,A
444976338,A
142768648,A
127843645,A
5788483,A
61677444,A
473227320,A
52623362,A
185521033,A
95506164,A
241621632,A
8678771,A
218255668,A
280365186,A
241827745,A
63003162,A
194943900,A
186415783,A
248951029,A
122864786,A
110155029,A
227596687,A
26057483,A
52010494,A
473428908,A
166724029,A
402334353,A
427616967,A
44144529,A
86432002,A
53132656,A
142543814,A
57353562,A
506718746,A
116784862,A
270765549,A
185620716,A
99311157,A
120849906,A
127513855,A
31898109,A
204190959,A
6919907,A
164891795,A
139711536,A
477116205,A
54894198,A
81650018,A
415914285,A
423875164,A
71675444,A
434494456,A
37005954,A
237610483,A
44660854,A
254815000,A
472133319,A
51289551,A
176723112,A
68968789,A
38045908,A
65649269,A
53813131,A
55816156,A
463183494,A
171497309,A
162281195,A
31848182,A
113844349,A
31925583,A
136877888,A
78689988,A
134693045,A
178751737,A
46726718,A
77054448,A
128775333,A
29261110,A
174513785,A
132233894,A
470799457,A
115652134,A
95222665,A
98836212,A
46242681,A
64372967,A
75819494,A
161071353,A
80098485,A
97220373,A
73616567,A
472263090,A
140561795,A
87278179,A
197004054,A
164190988,A
126909467,A
31439717,A
28409680,A
157285511,A
115765874,A
140723455,A
442721051,A
204127177,A
111652382,A
106835506,A
279982461,A
138344377,A
410331618,A
37967188,A
137425539,A
140781504,A
114668670,A
99257687,A
185641870,A
439561320,A
40531480,A
151038292,A
161815004,A
471615151,A
245768913,A
45760806,A
275903570,A
83455785,A
195079425,A
127986571,A
59435074,A
263308066,A
109543263,A
473862853,A
442256803,A
44901046,A
268246409,A
32464097,A
114109140,A
26332556,A
98266148,A
61840220,A
272446529,A
116090548,A
109240942,A
157767398,A
234908912,A
102842141,A
55698595,A
434974566,A
57229677,A
118794948,A
476991287,A
134230273,A
254675077,A
31827151,A
432880305,A
268645032,A
55073805,A
56126457,A
443241354,A
167645529,A
32675633,A
195720981,A
71582233,A
48640981,A
445927822,A
158638864,A
127937453,A
44251238,A
235207000,A
81501666,A
42813233,A
154938541,A
40488568,A
65203692,A
401743303,A
228011592,A
425313944,A
240453052,A
57702054,A
45810656,A
110441549,A
148829599,A
115207313,A
172486122,A
187827584,A
234520200,A
57131729,A
128309363,A
420594628,A
163399955,A
7433885,A
488836199,A
91166073,A
115324258,A
58455019,A
86013125,A
28871468,A
118334741,A
101685374,A
101179239,A
269015455,A
441187063,A
443160438,A
488496547,A
501145011,A
214126377,A
76095376,A
416440950,A
159902498,A
59954829,A
151479061,A
419720377,A
77375851,A
23163908,A
208186415,A
158838000,A
226377542,A
205352880,A
163139499,A
532041643,A
37610703,A
126753249,A
48594647,A
510982657,A
109636856,A
82588266,A
485069868,A
116089916,A
80830754,A
89472632,A
59429552,A
185072638,A
50160185,A
55378905,A
57171198,A
93348402,A
228877828,A
58141138,A
67938445,A
45774067,A
49889760,A
55876942,A
475511512,A
438986045,A
58496030,A
72285091,A
274922941,A
59260731,A
191842051,A
97110484,A
124728098,A
134740990,A
211442663,A
60965276,A
106991113,A
84070736,A
152004996,A
66626791,A
230789162,A
31271997,A
97087822,A
44901265,A
419292068,A
63639643,A
137815193,A
68412641,A
161850365,A
244590641,A
510507283,A
203087409,A
409440750,A
526133730,A
87426057,A
484789342,A
15242575,A
90100868,A
87855277,A
118459422,A
95593758,A
269156759,A
42153808,A
151612388,A
99066895,A
239416581,A
143833355,A
407429611,A
90762857,A
23745320,A
28276028,A
71922135,A
129256400,A
36480559,A
55112539,A
64323667,A
89037062,A
51381955,A
54993578,A
161093547,A
143001943,A
103203996,A
83981102,A
102191916,A
75118684,A
32583128,A
421721877,A
149775803,A
454846745,A
134118008,A
221726873,A
71979846,A
257693444,A
59063405,A
47266864,A
24051251,A
227029433,A
486756114,A
129585593,A
192379768,A
180487194,A
30733500,A
435288140,A
182307884,A
23033753,A
63474955,A
159978710,A
98839077,A
231158944,A
425414598,A
57518664,A
95338797,A
118079905,A
90817026,A
74396338,A
134300725,A
141714032,A
79296051,A
137388980,A
59469578,A
409580539,A
50805198,A
58514242,A
156696990,A
6407052,A
466874551,A
230123490,A
502210035,A
138037854,A
70734682,A
527808232,A
156204531,A
43382116,A
125153114,A
127516628,A
79975269,A
51057997,A
155714023,A
76593476,A
21692212,A
139936905,A
270958146,A
450841581,A
115075667,A
62832701,A
207306737,A
175793811,A
105219062,A
102709203,A
116726777,A
528606884,A
493861515,A
28607147,A
155432602,A
486517144,A
47515483,A
147469098,A
129545539,A
40350773,A
484713953,A
97583502,A
100290564,A
128671935,A
437879634,A
104662452,A
16992228,A
30411078,A
68355628,A
50859943,A
103313530,A
93777879,A
47734881,A
400704371,A
245590692,A
61487500,A
193520337,A
139270745,A
188218357,A
103110284,A
44570465,A
3466803,A
58659062,A
274755197,A
98825113,A
250293361,A
84977556,A
241174008,A
495403712,A
160152897,A
128627631,A
401468621,A
79360836,A
428896028,A
113112911,A
53358136,A
91645408,A
196070352,A
96829795,A
234726012,A
148596023,A
484623915,A
434019141,A
91606177,A
163304622,A
124212220,A
220350892,A
91377537,A
215629801,A
91539804,A
181666221,A
128401248,A
41718043,A
430514033,A
198695751,A
223501410,A
400434050,A
213874820,A
237866784,A
94274102,A
107704579,A
113099879,A
207087399,A
18643107,A
137468217,A
117587138,A
127042212,A
195440857,A
148581028,A
123740394,A
75418673,A
48156772,A
140491916,A
205870679,A
29672257,A
194031529,A
119518805,A
185803912,A
75226178,A
200008866,A
198145350,A
400566074,A
231741180,A
441851601,A
244199354,A
179196182,A
240246537,A
455247425,A
100598809,A
37718133,A
101702359,A
185076911,A
40479414,A
62654891,A
123001968,A
21792241,A
482394294,A
476750386,A
70277057,A
85788466,A
107439865,A
181422357,A
151777071,A
434110131,A
84933867,A
103480083,A
246196573,A
29413744,A
233017593,A
40459076,A
527647882,A
86024575,A
109047620,A
66165616,A
37210800,A
482191425,A
226339815,A
130327351,A
230288563,A
187100504,A
140569667,A
440412290,A
55190569,A
160792919,A
108314983,A
127898422,A
235065150,A
77410829,A
38404142,A
46490433,A
42280572,A
71127737,A
153871720,A
422187220,A
101838771,A
84444183,A
405741813,A
43483760,A
249388365,A
171830809,A
228932643,A
190497338,A
79821550,A
136346527,A
205987684,A
173840026,A
91426772,A
88287887,A
465508205,A
62128110,A
151639552,A
118063043,A
32620601,A
217209377,A
188519456,A
106026618,A
52547281,A
41726839,A
77778112,A
15075946,A
149721290,A
77388786,A
444476093,A
189736243,A
243288400,A
217573920,A
240923539,A
45916281,A
205107940,A
168265168,A
28299307,A
103833334,A
109873418,A
207602151,A
447874102,A
141940860,A
189884684,A
102300758,A
206638665,A
119914785,A
146779486,A
133388463,A
451128642,A
246600781,A
492570611,A
139759173,A
131657338,A
184622651,A
84850192,A
149660622,A
432166141,A
59253633,A
490533631,A
155271577,A
117905185,A
34690111,A
196692988,A
434585630,A
485109958,A
147906528,A
68932205,A
198920373,A
260008492,A
150146146,A
263529030,A
62122426,A
413389344,A
115479844,A
422801090,A
80328214,A
62587332,A
467677066,A
144560810,A
89238574,A
440230964,A
191738732,A
82430742,A
204094552,A
472344260,A
118270872,A
225859533,A
84441055,A
88886226,A
45384455,A
276294728,A
247565756,A
73087460,A
186322309,A
423513075,A
99001220,A
62315073,A
126755774,A
160359782,A
17400877,A
85647312,A
272388566,A
141521211,A
463485254,A
47854521,A
124265988,A
526651421,A
47433731,A
235957379,A
30800920,A
89386149,A
166430737,A
38694109,A
49462754,A
3120107,A
82510587,A
136371511,A
196838741,A
272275535,A
133823987,A
425870637,A
53990823,A
45269759,A
198567856,A
41963742,A
216522707,A
31294001,A
266815825,A
28651755,A
477311392,A
73525495,A
10425456,A
184765896,A
135697992,A
48665775,A
118160155,A
47278038,A
48758597,A
264079744,A
172986632,A
189995669,A
24308210,A
57009280,A
77432733,A
226792942,A
241528427,A
43446977,A
218384188,A
124059565,A
36432101,A
195382259,A
214948602,A
425385501,A
102118961,A
134192219,A
24004607,A
66794498,A
170681610,A
46997383,A
41573946,A
152550176,A
440186057,A
427793689,A
30774982,A
41463163,A
212200156,A
49299674,A
304760,A
47127795,A
51724484,A
93655853,A
42956281,A
86029905,A
20696965,A
89367603,A
431115018,A
112290634,A
118203751,A
90506805,A
462844126,A
121803894,A
3379462,A
89939063,A
209713459,A
105057275,A
43583185,A
176899832,A
455740935,A
484406300,A
152426600,A
3727835,A
269045678,A
190400170,A
59888782,A
207002818,A
92297285,A
109934939,A
26619718,A
103885170,A
243165977,A
80094691,A
42403491,A
144463879,A
32907202,A
73623767,A
499918754,A
88246295,A
453203543,A
185192557,A
101393186,A
453587445,A
158345706,A
119057469,A
118539543,A
477345020,A
115826020,A
157706604,A
128825036,A
471858617,A
83286018,A
87100022,A
220214608,A
214756346,A
172740079,A
481532008,A
63193000,A
98095860,A
91077134,A
113870541,A
427414788,A
38546483,A
133043491,A
432270327,A
55892128,A
144858971,A
529306833,A
172419547,A
445123004,A
466339239,A
108433431,A
267831679,A
151740242,A
115447720,A
466425998,A
417631029,A
62150769,A
247661199,A
87633644,A
135028759,A
65624734,A
115868861,A
102532178,A
154542625,A
209217263,A
68794289,A
76207789,A
224850062,A
70789714,A
256070700,A
126832688,A
79787864,A
148969014,A
71659969,A
404251049,A
413327130,A
122829131,A
45587492,A
97889751,A
167611179,A
127041407,A
118981472,A
39066491,A
127663093,A
178552514,A
42263948,A
5751389,A
473150986,A
109764233,A
43391233,A
142327128,A
93812635,A
59546001,A
69790331,A
195792704,A
62443773,A
239222226,A
65484591,A
61594124,A
179361686,A
279326559,A
38355285,A
31654947,A
96661861,A
179503905,A
410726989,A
526354006,A
178864533,A
86901652,A
169481839,A
92995615,A
223405061,A
45917582,A
181883182,A
55767181,A
148688879,A
192633087,A
30708328,A
137331194,A
62831432,A
179739919,A
137598952,A
98556827,A
146933532,A
531544665,A
186804925,A
41814081,A
44302556,A
193756716,A
176925510,A
122711919,A
137404448,A
423498821,A
41894378,A
171331031,A
434764256,A
149610696,A
180757865,A
41734067,A
150686666,A
102604372,A
237727329,A
167625773,A
47702337,A
176992619,A
221935917,A
152062742,A
21818513,A
226245234,A
44761603,A
110749480,A
74345201,A
475969588,A
106832428,A
478083597,A
21459772,A
47635652,A
190736044,A
481567995,A
32630397,A
181889195,A
243989057,A
118929389,A
28790017,A
59477072,A
176122677,A
160781194,A
56860085,A
471539986,A
174719717,A
42257238,A
84422595,A
17861167,A
37822383,A
210175809,A
123364886,A
270604184,A
117227038,A
262983875,A
176918728,A
135629646,A
92738265,A
98500498,A
103840993,A
30476962,A
102932275,A
201684312,A
152963953,A
254122684,A
25436538,A
39973271,A
52389241,A
21797004,A
113949508,A
228356726,A
443364360,A
162226118,A
67623194,A
254903934,A
501550307,A
29310804,A
115208587,A
269218543,A
106052162,A
65933920,A
109695132,A
195839997,A
50484835,A
178987269,A
169813978,A
53799273,A
149682223,A
46335788,A
59552339,A
74445138,A
43568371,A
151935229,A
208552430,A
168462055,A
279019611,A
473524085,A
102242272,A
178015105,A
485999791,A
485438685,A
166681140,A
123886042,A
198896708,A
186706205,A
140946448,A
51850377,A
155012275,A
127170161,A
63540236,A
44788087,A
164924241,A
92287428,A
39040004,A
213679243,A
45954142,A
437292175,A
48860977,A
456062524,A
32699875,A
134161479,A
70421889,A
445058085,A
453154175,A
222617105,A
128255644,A
68104789,A
147976090,A
107536938,A
89303048,A
1310708,A
130445097,A
265639557,A
146850742,A
210037269,A
111643404,A
467127339,A
116073731,A
162442337,A
232494331,A
153539955,A
418646451,A
492399845,A
26752560,A
62757267,A
99085707,A
440636495,A
101858774,A
69847030,A
94343506,A
103085091,A
99276047,A
138555159,A
149536733,A
86929919,A
238789339,A
57292655,A
139200638,A
145710399,A
401362921,A
66399155,A
113844070,A
54899051,A
30615900,A
86173302,A
185950312,A
85530267,A
64216167,A
112589264,A
127514226,A
501219717,A
221852172,A
255126485,A
151328420,A
147721674,A
124464348,A
270468009,A
180641632,A
256444097,A
32556107,A
65781636,A
97746767,A
422714938,A
57157068,A
451105200,A
23586697,A
89862470,A
147779968,A
479384750,A
78836196,A
82271953,A
494969407,A
51427824,A
227595792,A
215134616,A
112179575,A
90557412,A
112672133,A
117172573,A
183478457,A
64572202,A
104171787,A
46664537,A
129977153,A
424995327,A
55239853,A
44120000,A
57626636,A
62027937,A
188153834,A
79197324,A
450458146,A
130746544,A
110148432,A
153146280,A
119499906,A
138117005,A
221539199,A
441158403,A
254816177,A
158105150,A
242074857,A
106148804,A
98607638,A
29839660,A
155043288,A
109711839,A
119761560,A
186066929,A
157493113,A
121608179,A
438217814,A
484610196,A
135339167,A
101763699,A
165795655,A
146304649,A
230235446,A
81334041,A
100294779,A
265565115,A
196266767,A
164210342,A
84168611,A
78169139,A
124035299,A
121861628,A
201008927,A
156108915,A
84035123,A
158740731,A
50561861,A
140573893,A
141014153,A
111316385,A
186465435,A
120545766,A
216407048,A
51489038,A
189256611,A
27859537,A
464057747,A
214864828,A
143594515,A
219022235,A
29735729,A
125025444,A
180876321,A
194805598,A
42326951,A
81680034,A
489307924,A
205430684,A
111959532,A
153398244,A
92187392,A
85438413,A
130504026,A
149846930,A
266930658,A
108028486,A
128818183,A
150392123,A
147707682,A
102952997,A
91900382,A
101865254,A
38995206,A
38391033,A
43374090,A
49891797,A
210711563,A
143850685,A
49437241,A
250312811,A
250827287,A
435985427,A
57422057,A
115308774,A
85739930,A
151259297,A
48657219,A
440151104,A
31368801,A
121837373,A
26810313,A
491487404,A
166770269,A
259870574,A
12895405,A
102573147,A
430540812,A
200890360,A
225734178,A
76513490,A
441157789,A
14036904,A
423180638,A
118552817,A
471200599,A
49450606,A
89312966,A
19531994,A
182418549,A
52829797,A
58717984,A
37259242,A
418162518,A
446511661,A
42135727,A
45654476,A
185902551,A
416500958,A
123053223,A
262275417,A
404898684,A
81625688,A
203647614,A
180829447,A
40556568,A
127007855,A
228741608,A
794865,A
139243247,A
67392570,A
176528153,A
58176402,A
406153425,A
96333481,A
196796894,A
161539467,A
450441365,A
185367805,A
92969477,A
434616920,A
66062061,A
104228459,A
165526425,A
70029956,A
40815422,A
163061234,A
449661284,A
78428351,A
238903400,A
414821131,A
86906146,A
57167995,A
229814785,A
109346186,A
153631950,A
99714341,A
118879474,A
258156329,A
196703939,A
148056166,A
59883928,A
510914312,A
26839994,A
91708654,A
148936831,A
277912466,A
149295087,A
198714172,A
180726259,A
154301198,A
147311251,A
25449604,A
89270484,A
105621564,A
75322837,A
469807191,A
191384404,A
268685042,A
177051904,A
408077497,A
75921784,A
135283910,A
111087124,A
147707284,A
214577317,A
468834941,A
453461827,A
139996977,A
166726151,A
111073547,A
133671757,A
114212178,A
44770914,A
120822524,A
94434734,A
79781450,A
401589100,A
64899269,A
93335870,A
37556236,A
534698416,A
488277813,A
170130733,A
158657095,A
501011582,A
42832269,A
153844545,A
146001639,A
216592395,A
470844546,A
68752564,A
171697849,A
493169093,A
151313570,A
36617303,A
204540169,A
127831611,A
248395890,A
110636028,A
193178718,A
252663955,A
210955172,A
25429692,A
38172808,A
471213749,A
210772687,A
43531965,A
162821420,A
78248656,A
121025069,A
124104966,A
30558072,A
239164828,A
213817399,A
133308684,A
47343637,A
17118622,A
109438725,A
74166268,A
50654170,A
21329859,A
184435214,A
87132441,A
94830116,A
220329900,A
114688373,A
245597020,A
268404299,A
170064139,A
222795164,A
238467960,A
32315539,A
498600832,A
53482168,A
205262405,A
89868414,A
114498450,A
47041286,A
143819903,A
91938563,A
158786863,A
200187786,A
228554586,A
193312708,A
437764134,A
172573726,A
526264739,A
150615112,A
51784260,A
63245706,A
493924605,A
43106425,A
236351638,A
160367110,A
91003234,A
145611321,A
70654270,A
70549674,A
472745082,A
134321638,A
223713408,A
36949349,A
148561218,A
153983328,A
99619831,A
63358961,A
236759031,A
127830233,A
252032744,A
82142854,A
179859809,A
417221534,A
48531158,A
115968411,A
98357452,A
36657912,A
29974720,A
447326006,A
117819829,A
492681799,A
435511059,A
504331492,A
106724016,A
81667282,A
76380825,A
156657235,A
201443128,A
147952821,A
39637531,A
415919064,A
180908092,A
117655984,A
501126059,A
262220007,A
427115971,A
135208253,A
63171451,A
82005516,A
276179729,A
123027554,A
37998896,A
20331247,A
406293560,A
189272688,A
132933936,A
63366073,A
206063878,A
49050730,A
46738023,A
172048425,A
36813136,A
198791526,A
38388898,A
137457096,A
31715022,A
452878326,A
24663899,A
108582944,A
231557193,A
202676932,A
114513542,A
97789977,A
24857008,A
103451758,A
128067367,A
138067776,A
489078255,A
66771908,A
445517230,A
412868191,A
172256645,A
139850220,A
129811002,A
243763581,A
194871142,A
81389756,A
500659715,A
410350223,A
138531752,A
118416546,A
430646095,A
58145763,A
58966075,A
175069741,A
135177805,A
26476854,A
119708889,A
191392879,A
193370523,A
470595593,A
66224734,A
257177407,A
124384570,A
82915575,A
189886003,A
87591095,A
40289815,A
69897392,A
160608983,A
21490561,A
35908362,A
241009558,A
37200959,A
264379474,A
115574154,A
428483695,A
148302141,A
24253306,A
145773834,A
420661762,A
142276612,A
182559673,A
83368780,A
431867915,A
99062139,A
102350976,A
193934117,A
462610781,A
173684042,A
401342754,A
484849512,A
198608001,A
400165142,A
262412870,A
262980019,A
216152564,A
35782417,A
176528336,A
144713836,A
119642716,A
120771035,A
414241887,A
26604426,A
168724324,A
525086625,A
419268774,A
45895292,A
148254984,A
185725194,A
410006470,A
163335844,A
123516041,A
56423187,A
62137848,A
27462781,A
491512429,A
221651377,A
446871964,A
151427599,A
411600453,A
161791492,A
216119718,A
220841063,A
216778003,A
195490692,A
36823229,A
271323255,A
449947089,A
52660871,A
10276277,A
215688356,A
86601503,A
196563126,A
117594625,A
186963240,A
134043974,A
50381060,A
203014297,A
425681108,A
40730706,A
50573366,A
39100822,A
163701060,A
19013029,A
267375429,A
119209494,A
21922148,A
140309242,A
204931737,A
97962570,A
42690552,A
118700576,A
89389801,A
243936975,A
78296284,A
493546814,A
277310349,A
154900549,A
472523211,A
497165084,A
54063345,A
159413509,A
31356797,A
144382335,A
41814120,A
121055036,A
60922788,A
74472169,A
180959988,A
139720979,A
95696078,A
491684323,A
67393759,A
432689780,A
185682732,A
62596653,A
137458791,A
485663869,A
31740325,A
50815446,A
95508839,A
153544640,A
54920776,A
455243238,A
79214211,A
213459489,A
105149752,A
105691948,A
267088029,A
83196898,A
58528168,A
118880859,A
222641276,A
167385589,A
178114170,A
161450930,A
498379267,A
136314534,A
61911182,A
458195235,A
46877583,A
227729317,A
84448463,A
132584347,A
418996310,A
442737396,A
166771357,A
226197388,A
443569052,A
246653087,A
433683228,A
67114162,A
65759487,A
54402550,A
30371220,A
479197805,A
160251948,A
251417547,A
141538629,A
124835990,A
174624932,A
58112490,A
174633885,A
209054162,A
46881741,A
107800753,A
235411901,A
176636372,A
53374193,A
450468960,A
103203631,A
460528996,A
178477739,A
28516754,A
467694696,A
59068319,A
7721026,A
132246770,A
38695977,A
5315168,A
71651367,A
113315270,A
209632735,A
95388217,A
174785909,A
44106989,A
128748857,A
188835066,A
467709813,A
240666560,A
405364355,A
105955300,A
191300997,A
128927916,A
254618167,A
63085211,A
268979883,A
57257115,A
160308958,A
515149053,A
424535189,A
191157839,A
445371881,A
219289247,A
44276907,A
17070887,A
158375281,A
141219555,A
63067996,A
447637957,A
101710483,A
129534624,A
30968987,A
231950659,A
473114777,A
81998313,A
183981201,A
162710019,A
188192862,A
250992883,A
248266473,A
171970704,A
25544203,A
98923248,A
51901909,A
261507078,A
466394183,A
37432821,A
267341211,A
171280103,A
215605744,A
197669293,A
64410771,A
415492072,A
90100836,A
45759511,A
61131673,A
132261742,A
400983745,A
154750385,A
146952509,A
82695286,A
217259192,A
48495043,A
233001357,A
92941793,A
171389478,A
466343631,A
259845357,A
81623918,A
27994928,A
275353699,A
162237714,A
449470373,A
231206843,A
215864112,A
125782112,A
47366346,A
70074031,A
453750517,A
148336806,A
157276246,A
62830380,A
205294632,A
424512690,A
53757072,A
154508432,A
428166984,A
134907528,A
77808134,A
257292318,A
47751037,A
98940394,A
141018508,A
434168754,A
233619067,A
82202906,A
79571542,A
72564304,A
249684464,A
32187491,A
230072210,A
139440476,A
47066312,A
89044136,A
148429770,A
194506269,A
486139611,A
128400677,A
132416665,A
230584031,A
91795669,A
71291953,A
128694315,A
127830108,A
65781567,A
62759702,A
479576910,A
490356314,A
109296933,A
148452669,A
450233695,A
57894340,A
22636524,A
103138677,A
45867824,A
25562833,A
410141810,A
40684022,A
102872255,A
265187320,A
496725828,A
128092581,A
500546691,A
44427081,A
124924936,A
524303944,A
31801548,A
48190714,A
71878879,A
139641916,A
232426449,A
400126773,A
44049209,A
93159740,A
37578020,A
58563587,A
31994746,A
262691895,A
202295773,A
58360696,A
62958923,A
484777255,A
139036398,A
68377352,A
136549157,A
132415238,A
205513366,A
36017465,A
38640110,A
80948682,A
163629178,A
37664395,A
47370720,A
187812991,A
172654876,A
10487376,A
103241573,A
401520292,A
106633426,A
151373112,A
131342683,A
117491621,A
401324158,A
106607516,A
123504106,A
174588279,A
102612696,A
445783083,A
102004769,A
38105467,A
458504716,A
117628742,A
46479310,A
468680711,A
171531514,A
438053181,A
193447540,B
496690471,B
188745205,B
424923447,B
156555235,B
195318477,B
450197178,B
170857608,B
82084012,B
461846425,B
253880418,B
113847983,B
137443875,B
79456198,B
224380481,B
113354269,B
149095114,B
37277688,B
52367367,B
454356378,B
187745811,B
275113965,B
244366849,B
37165018,B
272970253,B
100612019,B
238450368,B
401294706,B
257935234,B
254623405,B
117031241,B
453345547,B
54778227,B
43892615,B
58345878,B
32451131,B
446948788,B
100801650,B
427244421,B
143496331,B
262871807,B
85163255,B
250563763,B
138100260,B
148336173,B
69320552,B
39152815,B
31547502,B
276905878,B
58592096,B
212963174,B
115841709,B
86600037,B
103036886,B
141008019,B
168973375,B
93743999,B
143963113,B
73460177,B
191488135,B
56348456,B
421500579,B
196045579,B
175533913,B
137385514,B
38157012,B
241180715,B
195569093,B
60709283,B
63485568,B
446205031,B
172075705,B
179467523,B
29764517,B
226357993,B
53523565,B
75190262,B
102967739,B
40231552,B
77348494,B
245447474,B
113117389,B
27964577,B
138966346,B
212711778,B
29653137,B
142723696,B
143458159,B
170300701,B
38028693,B
480677372,B
30824764,B
217923705,B
186829925,B
190813936,B
449453176,B
113261156,B
75164500,B
464918808,B
481152473,B
165606268,B
86564624,B
216880813,B
435450891,B
438101484,B
67820815,B
181584317,B
60220386,B
79075908,B
42596387,B
124957034,B
263443071,B
154924259,B
67455324,B
135583985,B
51062350,B
221619878,B
413803209,B
65381268,B
114029002,B
433470969,B
247653042,B
463834237,B
440665861,B
263366813,B
171730436,B
162271954,B
195686838,B
96731872,B
42316452,B
136541144,B
105623479,B
453898820,B
195148995,B
196630739,B
433286368,B
141855998,B
40002105,B
38503824,B
89166479,B
420538932,B
77313788,B
159209875,B
53748217,B
234517063,B
149860234,B
163483764,B
46168728,B
434592062,B
74645008,B
27578237,B
186939762,B
5926288,B
190788046,B
92681187,B
46385505,B
64197851,B
121995626,B
49064828,B
147684808,B
24954230,B
66331716,B
124982403,B
205189148,B
454877092,B
22100469,B
139738754,B
174591564,B
272491331,B
497016260,B
269306234,B
462503759,B
262969223,B
132091316,B
209031962,B
16883526,B
428494210,B
56825150,B
99699683,B
134334946,B
108940464,B
135612176,B
134237959,B
64324741,B
157292264,B
118663010,B
70423998,B
261992145,B
55367191,B
257963338,B
440313942,B
448381487,B
31635676,B
186312048,B
20813545,B
400999129,B
193308275,B
52332186,B
449257620,B
137979887,B
111000855,B
209743821,B
134845622,B
165732660,B
413478237,B
6695458,B
38329374,B
103831216,B
146740400,B
407261048,B
78606566,B
39992732,B
156380647,B
133439352,B
77389956,B
72047208,B
186730175,B
155334285,B
45804779,B
143414563,B
121397302,B
418111400,B
142950704,B
89589433,B
409454623,B
94907330,B
89347828,B
81395721,B
38586847,B
44582388,B
171641068,B
265681957,B
127718671,B
116130136,B
58808121,B
80561776,B
170517547,B
108543044,B
97592600,B
70632814,B
80048765,B
459225035,B
78839908,B
188544625,B
85720269,B
84612685,B
42166211,B
45336001,B
191297360,B
247572818,B
130376048,B
160193284,B
37338755,B
50505186,B
245045151,B
98314815,B
144472505,B
110612081,B
110061867,B
130641132,B
134264779,B
179198730,B
54363887,B
492884471,B
416577599,B
88088730,B
466697337,B
107964009,B
276242092,B
164435641,B
145183749,B
54000720,B
444250280,B
87418480,B
454529544,B
431259800,B
457064099,B
448849029,B
137339461,B
514019384,B
91635148,B
35950212,B
51178571,B
451960418,B
456546677,B
78497848,B
136183764,B
71599135,B
28093272,B
154676570,B
177633571,B
1839342,B
477672373,B
169155925,B
143213441,B
140622614,B
69456693,B
458659277,B
72137527,B
38938050,B
445239019,B
176849828,B
148809339,B
53811062,B
458165238,B
188564019,B
29015970,B
73074526,B
104648494,B
57506871,B
74455453,B
104554158,B
133878074,B
43026857,B
121984917,B
205468449,B
12040354,B
176590791,B
90010239,B
174463240,B
29995811,B
216636222,B
49945424,B
145378745,B
163224033,B
147883220,B
461735464,B
175612601,B
495912926,B
473676519,B
72098835,B
172855737,B
245058593,B
179407380,B
64408020,B
473126361,B
119386917,B
465297699,B
444326979,B
189434501,B
172496984,B
8614507,B
45234433,B
168005480,B
133596226,B
184595416,B
122468356,B
25993200,B
480055074,B
57683362,B
31164502,B
245698756,B
51853035,B
64823542,B
86923218,B
175616933,B
32318406,B
158770454,B
29446025,B
120072143,B
496933243,B
193718842,B
138427994,B
60738135,B
128289675,B
222080166,B
173307078,B
59683195,B
27926425,B
69110839,B
208719300,B
48371942,B
194455200,B
97124985,B
117322052,B
38443229,B
121025004,B
473554087,B
185850997,B
129965943,B
162509222,B
203000930,B
197534994,B
442886137,B
36782974,B
400106131,B
479236159,B
29603927,B
102323450,B
183638096,B
58931277,B
124820293,B
236186553,B
116995424,B
89240978,B
59269020,B
56648155,B
112234910,B
87144018,B
250427568,B
148715055,B
142870247,B
441756637,B
166393602,B
214420057,B
91949323,B
408948338,B
105412010,B
413364010,B
56269580,B
415318994,B
67511376,B
152840162,B
17557545,B
54702137,B
407398206,B
82294636,B
265747590,B
488400691,B
501719331,B
70902416,B
203279666,B
153278630,B
119225409,B
197959051,B
50503308,B
123252362,B
40073051,B
232473605,B
24867358,B
101954362,B
91146322,B
131702285,B
49257244,B
80838176,B
403922360,B
507566213,B
99148811,B
172085668,B
424282795,B
97666279,B
101563008,B
30235216,B
58568159,B
83070345,B
41649040,B
73244484,B
65506660,B
42891853,B
103486330,B
76087739,B
94732274,B
80168009,B
44934408,B
74583987,B
165665512,B
154183833,B
63188346,B
44276010,B
227504487,B
58597662,B
109702311,B
71667995,B
25364468,B
169547366,B
112918342,B
57138205,B
65928413,B
71910409,B
36305679,B
418039192,B
193951651,B
524902621,B
470349800,B
440199947,B
17955365,B
92189069,B
228830285,B
503400876,B
80016203,B
173046636,B
63744863,B
195561706,B
93018310,B
262941447,B
161394441,B
145922670,B
75918719,B
7618703,B
138114578,B
24337377,B
130700355,B
90366674,B
186419132,B
48302777,B
263865781,B
58790895,B
98485531,B
189988514,B
25961203,B
104877175,B
148701570,B
12780047,B
126918135,B
462594741,B
102904552,B
250929272,B
70099365,B
79689224,B
61632197,B
36210253,B
125315523,B
78051362,B
67042033,B
174763895,B
138979177,B
30394613,B
484594057,B
31310175,B
75058497,B
110446161,B
144866844,B
413293570,B
462192578,B
141176708,B
144320816,B
194018600,B
253459067,B
147646509,B
202562168,B
180322892,B
198366815,B
51588246,B
44951329,B
63716505,B
38057403,B
188221991,B
442493667,B
113142521,B
55436170,B
165456409,B
36309699,B
415776761,B
121323828,B
135640778,B
179879575,B
143754803,B
134705039,B
204795464,B
130433306,B
50790472,B
181859810,B
37634830,B
180105798,B
191938785,B
197949254,B
117612752,B
457060308,B
234336306,B
250872996,B
72372846,B
148193684,B
51301574,B
201654990,B
141189629,B
264165585,B
195339638,B
508728854,B
139006211,B
436815633,B
168022646,B
39612780,B
136752343,B
38067642,B
183614540,B
118791513,B
21135926,B
126016309,B
196269957,B
233471951,B
263675366,B
486149233,B
93070694,B
498454827,B
59791029,B
407147707,B
100967731,B
495619290,B
41726922,B
145059086,B
61053999,B
105374139,B
142153298,B
75473008,B
442828548,B
134651621,B
112804515,B
106252916,B
135035545,B
64051265,B
266354661,B
138137087,B
96799478,B
143820450,B
52190945,B
121585232,B
91148453,B
161625379,B
90235205,B
412630872,B
410861159,B
90309634,B
37727525,B
161862921,B
105231749,B
106714862,B
400585810,B
138472421,B
45720807,B
503014047,B
207906501,B
84079122,B
134575822,B
130148463,B
123953322,B
116856167,B
485742278,B
169395956,B
145976570,B
25238786,B
90144415,B
234261170,B
124018067,B
94118870,B
192745277,B
97776349,B
37501901,B
189511091,B
472689619,B
269078222,B
166167562,B
208121026,B
20443049,B
140794041,B
71831900,B
100083400,B
425763446,B
183718007,B
162583948,B
429201442,B
148843160,B
498871486,B
32945267,B
421375231,B
87549516,B
75987138,B
47196186,B
40471920,B
52649099,B
418641953,B
37558817,B
177966678,B
509084468,B
162272664,B
26320511,B
127718836,B
193583334,B
68913341,B
192136834,B
153476623,B
95388539,B
103861159,B
451194298,B
47163003,B
146932823,B
123403673,B
158255358,B
48093884,B
98107238,B
73448565,B
468251860,B
451980680,B
96245573,B
44980954,B
29501631,B
123352602,B
40888550,B
72507484,B
202346918,B
49777159,B
87300299,B
72840971,B
441931554,B
64115652,B
80757366,B
38497876,B
141651249,B
60822872,B
85706526,B
114842531,B
184534825,B
97251478,B
60118106,B
42879460,B
27819665,B
79664171,B
24029494,B
162575540,B
51850641,B
11995177,B
436982928,B
98520357,B
424572536,B
182233052,B
164382418,B
481210844,B
224788029,B
137331030,B
178627099,B
97230482,B
111373009,B
123061156,B
160465017,B
186504684,B
453993054,B
118447155,B
276122454,B
57472375,B
116103372,B
66408759,B
459236911,B
131858521,B
32071927,B
83515634,B
235260424,B
154892745,B
66438932,B
113774532,B
158916604,B
91016950,B
226784913,B
146529730,B
230662002,B
514227001,B
204827413,B
449269047,B
133555368,B
103825931,B
114307688,B
223730510,B
138417864,B
122299461,B
451568036,B
136399618,B
191228240,B
234190312,B
175962580,B
46973276,B
195187605,B
192432915,B
446500092,B
29452849,B
144728331,B
503724324,B
32178044,B
456822553,B
408894599,B
44407373,B
116285963,B
225365805,B
106473791,B
141734542,B
143521833,B
221846057,B
429132663,B
488621902,B
223382653,B
143014402,B
116790955,B
194820390,B
38268934,B
203641383,B
121935684,B
63374944,B
444395400,B
111903522,B
438789056,B
140652877,B
37074941,B
149966484,B
463641835,B
64900820,B
133900835,B
162810743,B
36029951,B
70428955,B
405058477,B
29268183,B
166546575,B
113683592,B
123058521,B
254507070,B
160533914,B
49456566,B
146516368,B
207049381,B
190813840,B
223227152,B
121521701,B
47797051,B
154095088,B
54300130,B
131912519,B
40033826,B
232572836,B
115203700,B
47081094,B
139470326,B
75234865,B
92113668,B
139215068,B
143574021,B
94437983,B
61438909,B
198789759,B
76809561,B
402263045,B
154513189,B
41732376,B
98568975,B
155817630,B
253794272,B
90870264,B
49045679,B
99021204,B
116020659,B
122829135,B
59970811,B
49086782,B
137736535,B
62712295,B
39734073,B
144220751,B
208982532,B
77147117,B
41820329,B
511514997,B
466698718,B
108392761,B
226957363,B
125072086,B
37329058,B
47339109,B
438416973,B
160747848,B
533243471,B
26362724,B
100040729,B
53355581,B
143570699,B
57885921,B
43301456,B
106968692,B
207227001,B
67594419,B
441872553,B
428328658,B
174667965,B
509382535,B
122342299,B
48448175,B
432857248,B
51065352,B
222740056,B
145926951,B
30904062,B
466018297,B
51948385,B
56469268,C
64582220,C
200723433,C
419133342,C
29599366,C
251031706,C
417277473,C
51190991,C
82350433,C
124118696,C
51848004,C
57250486,C
102815589,C
484628939,C
5873521,C
98253278,C
217797537,C
37623017,C
115780502,C
172531433,C
38057303,C
78579768,C
60799143,C
246225135,C
72769992,C
38697318,C
98639868,C
146029678,C
448447092,C
138582991,C
272049644,C
39611943,C
466718061,C
42357380,C
477096843,C
462834385,C
77515862,C
27607346,C
92688726,C
192702174,C
83206047,C
44805258,C
449228924,C
26008371,C
199689377,C
38813812,C
218876150,C
25058522,C
487577612,C
446509414,C
239677574,C
125260461,C
146550248,C
105903723,C
70576424,C
95998388,C
123810438,C
102153024,C
449352112,C
428662078,C
68188642,C
31292268,C
476894712,C
441331128,C
58088634,C
499133068,C
61241353,C
100587429,C
51305069,C
215285683,C
279151460,C
223526060,C
89919564,C
108144391,C
226233320,C
172949377,C
447496574,C
518488281,C
141910714,C
80584509,C
37656960,C
74182088,C
31545223,C
248063453,C
101939053,C
141658755,C
427428765,C
254062004,C
77926378,C
530282119,C
190256629,C
40059032,C
175229703,C
51625280,C
65487792,C
96716161,C
38978102,C
128867671,C
421801563,C
52779146,C
103825127,C
270854779,C
142523857,C
48786375,C
414518723,C
178002400,C
101214680,C
143119676,C
66780182,C
405182220,C
62632359,C
169031497,C
250314729,C
198758477,C
40750115,C
36995611,C
120334173,C
131907101,C
99961908,C
264368048,C
91947906,C
64464757,C
250458866,C
159587428,C
187797752,C
223245752,C
91893485,C
137966084,C
111842618,C
100744948,C
124590271,C
3345556,C
89269221,C
266455014,C
52907232,C
105183683,C
165572706,C
190541616,C
38995735,C
468367433,C
88270673,C
195459994,C
420463276,C
239757490,C
60377016,C
81263790,C
51744569,C
501002856,C
185199494,C
141826973,C
62509579,C
205529229,C
442765372,C
50561208,C
72700357,C
96360686,C
417900560,C
35967403,C
30707262,C
45252659,C
110355354,C
45162684,C
240936336,C
68375831,C
36348250,C
27751224,C
262686341,C
77894502,C
201073289,C
95361026,C
89081835,C
76969852,C
163322333,C
200086440,C
117136283,C
239012683,C
65079713,C
96231784,C
207908771,C
78808193,C
75600773,C
501530930,C
87638652,C
143525892,C
190170549,C
235164753,C
186818440,C
123959543,C
253176640,C
143377622,C
67111146,C
278727273,C
103498719,C
149988048,C
64955666,C
128582322,C
36926393,C
42428057,C
504705138,C
455993452,C
109069634,C
26804762,C
193674579,C
54361543,C
66375105,C
59019038,C
63100768,C
435030802,C
177739106,C
68558124,C
216343489,C
56150424,C
103377639,C
140400921,C
207513745,C
66538204,C
499143646,C
26873423,C
198815906,C
226418832,C
129530597,C
121941876,C
442067851,C
248655315,C
270688210,C
105859614,C
165367775,C
457562328,C
152088629,C
44360802,C
257140862,C
158865144,C
64127107,C
193355169,C
51096076,C
216590862,C
72213818,C
528127240,C
223938258,C
101210947,C
500998376,C
52440278,C
427839729,C
72468070,C
110202160,C
493263371,C
161803856,C
71509335,C
179334156,C
438062587,C
149456095,C
122582895,C
464824048,C
159302821,C
138542600,C
30281925,C
415322130,C
253874405,C
147908193,C
74781515,C
402425654,C
96341384,C
221117670,C
138414090,C
509100013,C
41317630,C
175016526,C
82976584,C
170468970,C
186231573,C
415634429,C
426188439,C
82340161,C
69580935,C
131398260,C
189014116,C
218721301,C
177797949,C
44932690,C
86044233,C
121203480,C
450172317,C
94839448,C
72035402,C
546969095,C
451786566,C
445080375,C
118850506,C
188958037,C
239158482,C
52839768,C
196413243,C
41616317,C
107763635,C
39401466,C
96980887,C
205458461,C