masVendorId,vendorCode
M1KUG4A63FB4UU,0ABYX
M2CQ6F6AQEDKBI,0ALHR
M22BHH487I8DIM,0AUVD
M1NMBBQBIQUIX7,11BJ1
M1KKHFA2ONR19H,16QMG
M3IGXT02LO1HIO,23TGW
M22GXUG2UUYVQT,2KGBJ
M196FKA4W97R5P,2TJN0
M3RZ1CBZ7Y1C1Y,2TYCP
M1C5ACDAMPW4QJ,430WF
M7MTMWJKUB3NC,4KQYA
M1XXAEXE5T4J3X,66WPQ
M3B5F1BW3QXNVG,6IRU8
M3LU5TQZ4XMYLZ,6U8ZT
M1N5V8Q23NTTA,724TT
MDHUEJYXD2IT4,925TR
M2NSW25ES5NTLE,9FCEN
M14XOIH0UTNQHW,9WO7D
M23CKLVL59ANYO,9XJWT
M18C66RK7V5TZW,AL15G
M3DOJDFXBL1QZ9,AOFH7
M2YZY0O6HWLJ75,AS2P2
MZVTPPYK78P3M,BKOMT
M22XGH2D2S4EW8,BM2XM
M29OF6Y0MVC55S,CBZZM
MKXQW937IJNKR,CC0JN
M16VVZGOLA0PBL,DAEED
M12U1K91FP2FRR,DFE5J
MJB8ZRC6ZRYU6,DJ2PX
M2AZC1NHATB0UI,DP2CG
M284QXNKYZFB8P,EIEN9
M39T0Z63ME64C5,EZ595
M3S2Z8ZE7VT7V6,FRVW2
MFD6ZGY79TLAH,GB36X
M3DAVRN8AN1JBS,GHXF9
M1RJB6GTGLET5J,GUV64
M51M9WX64CDB6,GW6XN
M3BZIN7LNROFOD,HIUIR
M25HX5POPG6IFJ,I53TK
M33JCC11RFWGGJ,IO5ZF
M28N0UZ78RUT8N,J65IL
M23NK7BVJR1VOO,JBCZN
M3SOAT0NXREOO,JBJY8
MF086IMH3092M,JQDG0
MRR4SADV4V0L2,LPLUR
M10G6FBWYOHIG7,LT94F
MIU6SYEP8WMGS,LVI6A
M8I1ZEBEP96IK,M669Q
M14M7XK59OHILG,MGU0M
M1KV6E2LWNRDMR,N098Y
M3GU70BK9ZVTKB,N4KM4
M19EV07NNEBTPJ,N9P3L
M3QKDELRABJBU4,NGSCV
M3CLNABNV3V48I,OZMST
M3O3R1VOKHWV1G,PBIZV
M3UMVZ7BONC022,PS383
MZX5QHY5AUQRN,PSMHE
M22KOZFU6LN561,QWG9E
M3AEYYWZYE6DFO,RB5QV
M1E2NHO3ZVWRZB,RFA07
M3AXL1UUN9X7YR,RIWUM
M3UMXSXFHUP426,S06JB
M19NNT6WXM18AT,T4PRQ
M3NJ4NC8CQKBUN,TEQWP
M1GZWSF19D05XQ,TI1OX
M9C1DIDEEYZVV,TIV6V
MXNY2YNN2AMOW,TS299
M34BGCLM90LFF1,UBIWD
M397YESAASUA2K,UQYLY
M1VQDFR220SLQ5,VEXGK
M13LXXB36E7A8D,VGM0Q
M3FB3IP9HHDYTH,VLAW3
M2H1NMWCISFAC7,WT18H
M2POQBIIMV5ZHE,XANZG
MG74DCNFIJEK9,XTA5P
M3S1WTN96EUXMS,Y9IQE
M3AEO8SM8Q9I3O,YHKZR
MUFQBPUFUB362,ZCX39
M15ZJQCI6QAMNQ,P4P7X
M2KFJ1C04WB56E,1RH6T
MNN7YU9P4F3NT,51GXW
M3DTRBH74OOJUI,PY20L
M2J3S7QEUJ7MUA,DM4WW