{
  "treatment": "realtime_v11",
  "token_payload": {
    "tokens": [
      "pageview.chat:1",
      "pageview.directory:4",
      "mw:78",
      "chat:0"
    ]
  },
  "continuous_payload": {
    "product_type": "sub",
    "country_code": "MX",
    "different_purchase_country": false,
    "payment_provider": "recurly",
    "current_purchase_velocity_usd_weekly": 653,
    "transaction_amount_cents_usd": 565,
    "payment_method_is_verified": false,
    "channel_is_partner": false,
    "channel_is_affiliate": true,
    "has_nami_balance": false,
    "new_channel": true,
    "user_in_allowlist": false,
    "is_direct_debit": true,
    "mw_subscribe_channel": 0,
    "chat_subscribe_channel": 0,
    "mw_total_keys": 2,
    "chat_total_keys": 0
  },
  "purchase_rep_score": 0.33,
  "ato_score": 0.055652075,
  "additional_features": {
    "last_purchase_country": "CL",
    "recurly_spm_country": "CL",
    "saved_payment_method_add_date": "2021-09-01 02:45:17",
    "user_": "2",
    "user_channel_had_prime_sub_lifetime_count": "3",
    "user_channel_had_sub_lifetime_count": "1",
    "user_channel_spent_bits_lifetime_count": "2",
    "user_country_count": "1",
    "user_first_purchase": "0",
    "user_fraud_check_count_30d": "2",
    "user_has_2fa": "1",
    "user_is_anonymous": "0",
    "user_session_count": "2",
    "user_success_purchase_count_30d": "1"
  }
}