{
	"_type": "export",
	"__export_format": 3,
	"__export_source": "protoc-gen-insomniaenv",
	"resources": [
		{
			"_type": "workspace",
			"_id": "workspace-rpc/percy-service.proto-code.justin.tv.commerce.percy",
			"parentId": null,
			"name": "Rpc/Percy-Service"
		},
		{
			"_type": "environment",
			"_id": "BaseEnvironment",
			"parentId": "workspace-rpc/percy-service.proto-code.justin.tv.commerce.percy",
			"name": "Base",
			"data": {}
		},
		{
			"_type": "environment",
			"_id": "LocalhostHttps",
			"parentId": "BaseEnvironment",
			"name": "Localhost - Https",
			"data": {
				"base_url": "https://localhost:8000"
			}
		},
		{
			"_type": "environment",
			"_id": "LocalhostHttp",
			"parentId": "BaseEnvironment",
			"name": "Localhost - Http",
			"data": {
				"base_url": "http://localhost:8000"
			}
		},
		{
			"_type": "request_group",
			"_id": "request_group-Percy",
			"parentId": "workspace-rpc/percy-service.proto-code.justin.tv.commerce.percy",
			"name": "Percy",
			"environment": {
				"Percy": "{{ base_url }}/twirp/code.justin.tv.commerce.percy.Percy/"
			}
		},
		{
			"_type": "request",
			"_id": "request-Percy-HealthCheck",
			"parentId": "request_group-Percy",
			"name": "HealthCheck",
			"method": "POST",
			"url": "{{Percy}}HealthCheck",
			"headers": [
				{
					"name": "Content-Type",
					"value": "application/json"
				}
			],
			"body": {
				"mimeType": "application/json",
				"text": "{\n}"
			}
		},
		{
			"_type": "request",
			"_id": "request-Percy-GetHypeTrainConfig",
			"parentId": "request_group-Percy",
			"name": "GetHypeTrainConfig",
			"method": "POST",
			"url": "{{Percy}}GetHypeTrainConfig",
			"headers": [
				{
					"name": "Content-Type",
					"value": "application/json"
				}
			],
			"body": {
				"mimeType": "application/json",
				"text": "{\n\t\"channelId\": \"vvsBWyybJw\"\n}"
			}
		},
		{
			"_type": "request",
			"_id": "request-Percy-UpdateHypeTrainConfig",
			"parentId": "request_group-Percy",
			"name": "UpdateHypeTrainConfig",
			"method": "POST",
			"url": "{{Percy}}UpdateHypeTrainConfig",
			"headers": [
				{
					"name": "Content-Type",
					"value": "application/json"
				}
			],
			"body": {
				"mimeType": "application/json",
				"text": "{\n\t\"channelId\": \"CtNFYxyadt\",\n\t\"enabled\": {\n\t\t\"value\": false\n\t},\n\t\"numOfEventsToKickoff\": {\n\t\t\"value\": -279\n\t},\n\t\"difficulty\": \"UNKNOWN_DIFFICULTY\",\n\t\"cooldownDurationMinutes\": {\n\t\t\"value\": 263\n\t},\n\t\"calloutEmoteId\": {\n\t\t\"value\": \"LgdrsDimIJ\"\n\t},\n\t\"useCreatorColor\": {\n\t\t\"value\": false\n\t},\n\t\"usePersonalizedSettings\": {\n\t\t\"value\": false\n\t}\n}"
			}
		},
		{
			"_type": "request",
			"_id": "request-Percy-UnsetHypeTrainConfig",
			"parentId": "request_group-Percy",
			"name": "UnsetHypeTrainConfig",
			"method": "POST",
			"url": "{{Percy}}UnsetHypeTrainConfig",
			"headers": [
				{
					"name": "Content-Type",
					"value": "application/json"
				}
			],
			"body": {
				"mimeType": "application/json",
				"text": "{\n\t\"channelId\": \"VWwUZtgNnj\",\n\t\"enabled\": {\n\t\t\"value\": false\n\t},\n\t\"numOfEventsToKickoff\": {\n\t\t\"value\": true\n\t},\n\t\"difficulty\": {\n\t\t\"value\": true\n\t},\n\t\"cooldownDurationMinutes\": {\n\t\t\"value\": true\n\t},\n\t\"calloutEmoteId\": {\n\t\t\"value\": true\n\t},\n\t\"useCreatorColor\": {\n\t\t\"value\": false\n\t},\n\t\"usePersonalizedSettings\": {\n\t\t\"value\": true\n\t}\n}"
			}
		},
		{
			"_type": "request",
			"_id": "request-Percy-GetOngoingHypeTrain",
			"parentId": "request_group-Percy",
			"name": "GetOngoingHypeTrain",
			"method": "POST",
			"url": "{{Percy}}GetOngoingHypeTrain",
			"headers": [
				{
					"name": "Content-Type",
					"value": "application/json"
				}
			],
			"body": {
				"mimeType": "application/json",
				"text": "{\n\t\"channelId\": \"BXjjNONVNh\"\n}"
			}
		},
		{
			"_type": "request",
			"_id": "request-Percy-UpsertHypeTrain",
			"parentId": "request_group-Percy",
			"name": "UpsertHypeTrain",
			"method": "POST",
			"url": "{{Percy}}UpsertHypeTrain",
			"headers": [
				{
					"name": "Content-Type",
					"value": "application/json"
				}
			],
			"body": {
				"mimeType": "application/json",
				"text": "{\n\t\"hypeTrain\": {\n\t\t\"channelId\": \"mAxHWLzWuY\",\n\t\t\"id\": \"ZPVQTHfduf\",\n\t\t\"startedAt\": \"1981-09-29T13:47:21-07:00\",\n\t\t\"expiresAt\": \"1984-02-03T15:15:26-08:00\",\n\t\t\"updatedAt\": \"1990-03-25T06:07:45-08:00\",\n\t\t\"endedAt\": \"1987-04-14T00:41:37-07:00\",\n\t\t\"endingReason\": \"EXPIRED\",\n\t\t\"config\": {\n\t\t\t\"enabled\": true,\n\t\t\t\"kickoffConfig\": {\n\t\t\t\t\"numOfEvents\": 125,\n\t\t\t\t\"minPoints\": 397,\n\t\t\t\t\"durationSeconds\": 187\n\t\t\t},\n\t\t\t\"cooldownDurationMinutes\": -80,\n\t\t\t\"levelDurationSeconds\": -47,\n\t\t\t\"difficulty\": \"UNKNOWN_DIFFICULTY\",\n\t\t\t\"difficultySettings\": [\n\t\t\t\t{\n\t\t\t\t\t\"difficulty\": \"MEDIUM\",\n\t\t\t\t\t\"levelSettings\": [\n\t\t\t\t\t\t{\n\t\t\t\t\t\t\t\"level\": -298,\n\t\t\t\t\t\t\t\"goal\": 475,\n\t\t\t\t\t\t\t\"rewards\": [\n\t\t\t\t\t\t\t\t{\n\t\t\t\t\t\t\t\t\t\"id\": \"aHAdbWkScY\",\n\t\t\t\t\t\t\t\t\t\"groupId\": \"FJKtqUIaAE\",\n\t\t\t\t\t\t\t\t\t\"type\": \"UNKNOWN_REWARD_TYPE\"\n\t\t\t\t\t\t\t\t},\n\t\t\t\t\t\t\t\t{\n\t\t\t\t\t\t\t\t\t\"id\": \"jzSrMYKThs\",\n\t\t\t\t\t\t\t\t\t\"groupId\": \"OOPzHcNbcH\",\n\t\t\t\t\t\t\t\t\t\"type\": \"EMOTE\"\n\t\t\t\t\t\t\t\t},\n\t\t\t\t\t\t\t\t{\n\t\t\t\t\t\t\t\t\t\"id\": \"UpdNvQcZDq\",\n\t\t\t\t\t\t\t\t\t\"groupId\": \"EbeWnwwFZH\",\n\t\t\t\t\t\t\t\t\t\"type\": \"BADGE\"\n\t\t\t\t\t\t\t\t}\n\t\t\t\t\t\t\t]\n\t\t\t\t\t\t},\n\t\t\t\t\t\t{\n\t\t\t\t\t\t\t\"level\": 379,\n\t\t\t\t\t\t\t\"goal\": -164,\n\t\t\t\t\t\t\t\"rewards\": [\n\t\t\t\t\t\t\t\t{\n\t\t\t\t\t\t\t\t\t\"id\": \"mzUeJPYhRV\",\n\t\t\t\t\t\t\t\t\t\"groupId\": \"fxTMpwsJkR\",\n\t\t\t\t\t\t\t\t\t\"type\": \"BADGE\"\n\t\t\t\t\t\t\t\t},\n\t\t\t\t\t\t\t\t{\n\t\t\t\t\t\t\t\t\t\"id\": \"MWLunHlDmJ\",\n\t\t\t\t\t\t\t\t\t\"groupId\": \"zXzLAubNaM\",\n\t\t\t\t\t\t\t\t\t\"type\": \"BADGE\"\n\t\t\t\t\t\t\t\t},\n\t\t\t\t\t\t\t\t{\n\t\t\t\t\t\t\t\t\t\"id\": \"XJPwlKPued\",\n\t\t\t\t\t\t\t\t\t\"groupId\": \"XYtznaAlvx\",\n\t\t\t\t\t\t\t\t\t\"type\": \"EMOTE\"\n\t\t\t\t\t\t\t\t}\n\t\t\t\t\t\t\t]\n\t\t\t\t\t\t},\n\t\t\t\t\t\t{\n\t\t\t\t\t\t\t\"level\": -6,\n\t\t\t\t\t\t\t\"goal\": 41,\n\t\t\t\t\t\t\t\"rewards\": [\n\t\t\t\t\t\t\t\t{\n\t\t\t\t\t\t\t\t\t\"id\": \"OLvpkAToMN\",\n\t\t\t\t\t\t\t\t\t\"groupId\": \"ofgxUmENju\",\n\t\t\t\t\t\t\t\t\t\"type\": \"BADGE\"\n\t\t\t\t\t\t\t\t},\n\t\t\t\t\t\t\t\t{\n\t\t\t\t\t\t\t\t\t\"id\": \"QGJaIMoEOb\",\n\t\t\t\t\t\t\t\t\t\"groupId\": \"BpHkeIPaam\",\n\t\t\t\t\t\t\t\t\t\"type\": \"UNKNOWN_REWARD_TYPE\"\n\t\t\t\t\t\t\t\t},\n\t\t\t\t\t\t\t\t{\n\t\t\t\t\t\t\t\t\t\"id\": \"KhGTwfFDFk\",\n\t\t\t\t\t\t\t\t\t\"groupId\": \"XswDOxESqY\",\n\t\t\t\t\t\t\t\t\t\"type\": \"BADGE\"\n\t\t\t\t\t\t\t\t}\n\t\t\t\t\t\t\t]\n\t\t\t\t\t\t}\n\t\t\t\t\t]\n\t\t\t\t},\n\t\t\t\t{\n\t\t\t\t\t\"difficulty\": \"HARD\",\n\t\t\t\t\t\"levelSettings\": [\n\t\t\t\t\t\t{\n\t\t\t\t\t\t\t\"level\": 224,\n\t\t\t\t\t\t\t\"goal\": -359,\n\t\t\t\t\t\t\t\"rewards\": [\n\t\t\t\t\t\t\t\t{\n\t\t\t\t\t\t\t\t\t\"id\": \"XWNSmJyySe\",\n\t\t\t\t\t\t\t\t\t\"groupId\": \"veTXSSJitA\",\n\t\t\t\t\t\t\t\t\t\"type\": \"EMOTE\"\n\t\t\t\t\t\t\t\t},\n\t\t\t\t\t\t\t\t{\n\t\t\t\t\t\t\t\t\t\"id\": \"TdLoflJOzK\",\n\t\t\t\t\t\t\t\t\t\"groupId\": \"XpemsuXJJl\",\n\t\t\t\t\t\t\t\t\t\"type\": \"BADGE\"\n\t\t\t\t\t\t\t\t},\n\t\t\t\t\t\t\t\t{\n\t\t\t\t\t\t\t\t\t\"id\": \"phYCsYsyRi\",\n\t\t\t\t\t\t\t\t\t\"groupId\": \"ZrkUDQjXkV\",\n\t\t\t\t\t\t\t\t\t\"type\": \"UNKNOWN_REWARD_TYPE\"\n\t\t\t\t\t\t\t\t}\n\t\t\t\t\t\t\t]\n\t\t\t\t\t\t},\n\t\t\t\t\t\t{\n\t\t\t\t\t\t\t\"level\": 378,\n\t\t\t\t\t\t\t\"goal\": -326,\n\t\t\t\t\t\t\t\"rewards\": [\n\t\t\t\t\t\t\t\t{\n\t\t\t\t\t\t\t\t\t\"id\": \"YxytnYYnXB\",\n\t\t\t\t\t\t\t\t\t\"groupId\": \"uHRTXLnWge\",\n\t\t\t\t\t\t\t\t\t\"type\": \"BADGE\"\n\t\t\t\t\t\t\t\t},\n\t\t\t\t\t\t\t\t{\n\t\t\t\t\t\t\t\t\t\"id\": \"dQYxGRJfZn\",\n\t\t\t\t\t\t\t\t\t\"groupId\": \"OdQopQitFb\",\n\t\t\t\t\t\t\t\t\t\"type\": \"EMOTE\"\n\t\t\t\t\t\t\t\t},\n\t\t\t\t\t\t\t\t{\n\t\t\t\t\t\t\t\t\t\"id\": \"pifrVPRoKX\",\n\t\t\t\t\t\t\t\t\t\"groupId\": \"cxjybYPfUZ\",\n\t\t\t\t\t\t\t\t\t\"type\": \"BADGE\"\n\t\t\t\t\t\t\t\t}\n\t\t\t\t\t\t\t]\n\t\t\t\t\t\t},\n\t\t\t\t\t\t{\n\t\t\t\t\t\t\t\"level\": 71,\n\t\t\t\t\t\t\t\"goal\": 70,\n\t\t\t\t\t\t\t\"rewards\": [\n\t\t\t\t\t\t\t\t{\n\t\t\t\t\t\t\t\t\t\"id\": \"cPOTZRODJN\",\n\t\t\t\t\t\t\t\t\t\"groupId\": \"NApNrNRFbT\",\n\t\t\t\t\t\t\t\t\t\"type\": \"EMOTE\"\n\t\t\t\t\t\t\t\t},\n\t\t\t\t\t\t\t\t{\n\t\t\t\t\t\t\t\t\t\"id\": \"dzqWPBlJAV\",\n\t\t\t\t\t\t\t\t\t\"groupId\": \"kwXMsSfcRc\",\n\t\t\t\t\t\t\t\t\t\"type\": \"EMOTE\"\n\t\t\t\t\t\t\t\t},\n\t\t\t\t\t\t\t\t{\n\t\t\t\t\t\t\t\t\t\"id\": \"MQsizlwFcS\",\n\t\t\t\t\t\t\t\t\t\"groupId\": \"fKGayiPUrl\",\n\t\t\t\t\t\t\t\t\t\"type\": \"UNKNOWN_REWARD_TYPE\"\n\t\t\t\t\t\t\t\t}\n\t\t\t\t\t\t\t]\n\t\t\t\t\t\t}\n\t\t\t\t\t]\n\t\t\t\t},\n\t\t\t\t{\n\t\t\t\t\t\"difficulty\": \"INSANE\",\n\t\t\t\t\t\"levelSettings\": [\n\t\t\t\t\t\t{\n\t\t\t\t\t\t\t\"level\": -427,\n\t\t\t\t\t\t\t\"goal\": -179,\n\t\t\t\t\t\t\t\"rewards\": [\n\t\t\t\t\t\t\t\t{\n\t\t\t\t\t\t\t\t\t\"id\": \"GuXkGnXWpH\",\n\t\t\t\t\t\t\t\t\t\"groupId\": \"WslqBhkcoP\",\n\t\t\t\t\t\t\t\t\t\"type\": \"BADGE\"\n\t\t\t\t\t\t\t\t},\n\t\t\t\t\t\t\t\t{\n\t\t\t\t\t\t\t\t\t\"id\": \"RUkDMDnjcv\",\n\t\t\t\t\t\t\t\t\t\"groupId\": \"gyTHkUvUBK\",\n\t\t\t\t\t\t\t\t\t\"type\": \"BADGE\"\n\t\t\t\t\t\t\t\t},\n\t\t\t\t\t\t\t\t{\n\t\t\t\t\t\t\t\t\t\"id\": \"WdVDKDTqdw\",\n\t\t\t\t\t\t\t\t\t\"groupId\": \"kGipSikuPc\",\n\t\t\t\t\t\t\t\t\t\"type\": \"EMOTE\"\n\t\t\t\t\t\t\t\t}\n\t\t\t\t\t\t\t]\n\t\t\t\t\t\t},\n\t\t\t\t\t\t{\n\t\t\t\t\t\t\t\"level\": 242,\n\t\t\t\t\t\t\t\"goal\": -310,\n\t\t\t\t\t\t\t\"rewards\": [\n\t\t\t\t\t\t\t\t{\n\t\t\t\t\t\t\t\t\t\"id\": \"NkQMgJnIZy\",\n\t\t\t\t\t\t\t\t\t\"groupId\": \"imLHnjbAfT\",\n\t\t\t\t\t\t\t\t\t\"type\": \"EMOTE\"\n\t\t\t\t\t\t\t\t},\n\t\t\t\t\t\t\t\t{\n\t\t\t\t\t\t\t\t\t\"id\": \"IjfwbDbPDX\",\n\t\t\t\t\t\t\t\t\t\"groupId\": \"oQUohrQfCr\",\n\t\t\t\t\t\t\t\t\t\"type\": \"UNKNOWN_REWARD_TYPE\"\n\t\t\t\t\t\t\t\t},\n\t\t\t\t\t\t\t\t{\n\t\t\t\t\t\t\t\t\t\"id\": \"qnEQdWLZcQ\",\n\t\t\t\t\t\t\t\t\t\"groupId\": \"tdFKYNgDqA\",\n\t\t\t\t\t\t\t\t\t\"type\": \"BADGE\"\n\t\t\t\t\t\t\t\t}\n\t\t\t\t\t\t\t]\n\t\t\t\t\t\t},\n\t\t\t\t\t\t{\n\t\t\t\t\t\t\t\"level\": 354,\n\t\t\t\t\t\t\t\"goal\": 395,\n\t\t\t\t\t\t\t\"rewards\": [\n\t\t\t\t\t\t\t\t{\n\t\t\t\t\t\t\t\t\t\"id\": \"PEPigRdFJY\",\n\t\t\t\t\t\t\t\t\t\"groupId\": \"TlEddVVJZl\",\n\t\t\t\t\t\t\t\t\t\"type\": \"BADGE\"\n\t\t\t\t\t\t\t\t},\n\t\t\t\t\t\t\t\t{\n\t\t\t\t\t\t\t\t\t\"id\": \"bYssAKfpbF\",\n\t\t\t\t\t\t\t\t\t\"groupId\": \"uREkxImKvq\",\n\t\t\t\t\t\t\t\t\t\"type\": \"BADGE\"\n\t\t\t\t\t\t\t\t},\n\t\t\t\t\t\t\t\t{\n\t\t\t\t\t\t\t\t\t\"id\": \"lycfbRoYiH\",\n\t\t\t\t\t\t\t\t\t\"groupId\": \"agOTEopqsF\",\n\t\t\t\t\t\t\t\t\t\"type\": \"EMOTE\"\n\t\t\t\t\t\t\t\t}\n\t\t\t\t\t\t\t]\n\t\t\t\t\t\t}\n\t\t\t\t\t]\n\t\t\t\t}\n\t\t\t],\n\t\t\t\"conductorRewards\": [\n\t\t\t\t{\n\t\t\t\t\t\"source\": \"ADMIN_SOURCE\",\n\t\t\t\t\t\"type\": \"FORMER\",\n\t\t\t\t\t\"rewards\": [\n\t\t\t\t\t\t{\n\t\t\t\t\t\t\t\"id\": \"eoBXdXUMTR\",\n\t\t\t\t\t\t\t\"groupId\": \"rRmamlkVAy\",\n\t\t\t\t\t\t\t\"type\": \"BADGE\"\n\t\t\t\t\t\t},\n\t\t\t\t\t\t{\n\t\t\t\t\t\t\t\"id\": \"WQEqJeFvfG\",\n\t\t\t\t\t\t\t\"groupId\": \"fTwQlgrbPI\",\n\t\t\t\t\t\t\t\"type\": \"BADGE\"\n\t\t\t\t\t\t},\n\t\t\t\t\t\t{\n\t\t\t\t\t\t\t\"id\": \"XcpJLEnPui\",\n\t\t\t\t\t\t\t\"groupId\": \"szNZvydnGf\",\n\t\t\t\t\t\t\t\"type\": \"UNKNOWN_REWARD_TYPE\"\n\t\t\t\t\t\t}\n\t\t\t\t\t]\n\t\t\t\t},\n\t\t\t\t{\n\t\t\t\t\t\"source\": \"ADMIN_SOURCE\",\n\t\t\t\t\t\"type\": \"UNKNOWN_CONDUCTOR_TYPE\",\n\t\t\t\t\t\"rewards\": [\n\t\t\t\t\t\t{\n\t\t\t\t\t\t\t\"id\": \"ZcschVkWOB\",\n\t\t\t\t\t\t\t\"groupId\": \"uACdCzRgeE\",\n\t\t\t\t\t\t\t\"type\": \"UNKNOWN_REWARD_TYPE\"\n\t\t\t\t\t\t},\n\t\t\t\t\t\t{\n\t\t\t\t\t\t\t\"id\": \"qCabDokYIh\",\n\t\t\t\t\t\t\t\"groupId\": \"LlShTCPzvl\",\n\t\t\t\t\t\t\t\"type\": \"BADGE\"\n\t\t\t\t\t\t},\n\t\t\t\t\t\t{\n\t\t\t\t\t\t\t\"id\": \"BJBocTNgfu\",\n\t\t\t\t\t\t\t\"groupId\": \"ajXZazqmqe\",\n\t\t\t\t\t\t\t\"type\": \"EMOTE\"\n\t\t\t\t\t\t}\n\t\t\t\t\t]\n\t\t\t\t},\n\t\t\t\t{\n\t\t\t\t\t\"source\": \"ADMIN_SOURCE\",\n\t\t\t\t\t\"type\": \"UNKNOWN_CONDUCTOR_TYPE\",\n\t\t\t\t\t\"rewards\": [\n\t\t\t\t\t\t{\n\t\t\t\t\t\t\t\"id\": \"iSSGnOnTNY\",\n\t\t\t\t\t\t\t\"groupId\": \"xFJnwlMFoE\",\n\t\t\t\t\t\t\t\"type\": \"EMOTE\"\n\t\t\t\t\t\t},\n\t\t\t\t\t\t{\n\t\t\t\t\t\t\t\"id\": \"KvxwmdBxqr\",\n\t\t\t\t\t\t\t\"groupId\": \"NZFCvlMkAN\",\n\t\t\t\t\t\t\t\"type\": \"BADGE\"\n\t\t\t\t\t\t},\n\t\t\t\t\t\t{\n\t\t\t\t\t\t\t\"id\": \"jHpzjCLItj\",\n\t\t\t\t\t\t\t\"groupId\": \"uZsXWVteiE\",\n\t\t\t\t\t\t\t\"type\": \"EMOTE\"\n\t\t\t\t\t\t}\n\t\t\t\t\t]\n\t\t\t\t}\n\t\t\t],\n\t\t\t\"participationConversionRates\": [\n\t\t\t\t{\n\t\t\t\t\t\"source\": \"SUBS\",\n\t\t\t\t\t\"action\": \"TIER_1_SUB\",\n\t\t\t\t\t\"rate\": 280\n\t\t\t\t},\n\t\t\t\t{\n\t\t\t\t\t\"source\": \"BITS\",\n\t\t\t\t\t\"action\": \"TIER_1_SUB\",\n\t\t\t\t\t\"rate\": 471\n\t\t\t\t},\n\t\t\t\t{\n\t\t\t\t\t\"source\": \"UNKNOWN_SOURCE\",\n\t\t\t\t\t\"action\": \"TIER_2_GIFTED_SUB\",\n\t\t\t\t\t\"rate\": -492\n\t\t\t\t}\n\t\t\t],\n\t\t\t\"notificationThresholds\": [\n\t\t\t\t{\n\t\t\t\t\t\"source\": \"SUBS\",\n\t\t\t\t\t\"action\": \"CHEER\",\n\t\t\t\t\t\"quantity\": -144\n\t\t\t\t},\n\t\t\t\t{\n\t\t\t\t\t\"source\": \"SUBS\",\n\t\t\t\t\t\"action\": \"ADMIN_ACTION\",\n\t\t\t\t\t\"quantity\": 98\n\t\t\t\t},\n\t\t\t\t{\n\t\t\t\t\t\"source\": \"UNKNOWN_SOURCE\",\n\t\t\t\t\t\"action\": \"TIER_3_GIFTED_SUB\",\n\t\t\t\t\t\"quantity\": -347\n\t\t\t\t}\n\t\t\t],\n\t\t\t\"isWhitelisted\": false,\n\t\t\t\"rewardEndDate\": \"2000-03-01T10:06:58-08:00\",\n\t\t\t\"calloutEmoteId\": \"DirjUGdQpC\",\n\t\t\t\"useCreatorColor\": true,\n\t\t\t\"primaryHexColor\": \"OOuqXYtlcI\",\n\t\t\t\"usePersonalizedSettings\": false\n\t\t},\n\t\t\"conductors\": [\n\t\t\t{\n\t\t\t\t\"source\": \"ADMIN_SOURCE\",\n\t\t\t\t\"userId\": \"mwIHgJwIwo\",\n\t\t\t\t\"participations\": [\n\t\t\t\t\t{\n\t\t\t\t\t\t\"source\": \"BITS\",\n\t\t\t\t\t\t\"action\": \"EXTENSION\",\n\t\t\t\t\t\t\"quantity\": 407\n\t\t\t\t\t},\n\t\t\t\t\t{\n\t\t\t\t\t\t\"source\": \"SUBS\",\n\t\t\t\t\t\t\"action\": \"TIER_1_SUB\",\n\t\t\t\t\t\t\"quantity\": -170\n\t\t\t\t\t},\n\t\t\t\t\t{\n\t\t\t\t\t\t\"source\": \"SUBS\",\n\t\t\t\t\t\t\"action\": \"CHEER\",\n\t\t\t\t\t\t\"quantity\": -500\n\t\t\t\t\t}\n\t\t\t\t]\n\t\t\t},\n\t\t\t{\n\t\t\t\t\"source\": \"ADMIN_SOURCE\",\n\t\t\t\t\"userId\": \"AqxPZlguXN\",\n\t\t\t\t\"participations\": [\n\t\t\t\t\t{\n\t\t\t\t\t\t\"source\": \"SUBS\",\n\t\t\t\t\t\t\"action\": \"TIER_2_GIFTED_SUB\",\n\t\t\t\t\t\t\"quantity\": 310\n\t\t\t\t\t},\n\t\t\t\t\t{\n\t\t\t\t\t\t\"source\": \"BITS\",\n\t\t\t\t\t\t\"action\": \"TIER_2_SUB\",\n\t\t\t\t\t\t\"quantity\": -322\n\t\t\t\t\t},\n\t\t\t\t\t{\n\t\t\t\t\t\t\"source\": \"UNKNOWN_SOURCE\",\n\t\t\t\t\t\t\"action\": \"POLL\",\n\t\t\t\t\t\t\"quantity\": 411\n\t\t\t\t\t}\n\t\t\t\t]\n\t\t\t},\n\t\t\t{\n\t\t\t\t\"source\": \"UNKNOWN_SOURCE\",\n\t\t\t\t\"userId\": \"hAOLLRRrNb\",\n\t\t\t\t\"participations\": [\n\t\t\t\t\t{\n\t\t\t\t\t\t\"source\": \"ADMIN_SOURCE\",\n\t\t\t\t\t\t\"action\": \"CHEER\",\n\t\t\t\t\t\t\"quantity\": -111\n\t\t\t\t\t},\n\t\t\t\t\t{\n\t\t\t\t\t\t\"source\": \"ADMIN_SOURCE\",\n\t\t\t\t\t\t\"action\": \"EXTENSION\",\n\t\t\t\t\t\t\"quantity\": 198\n\t\t\t\t\t},\n\t\t\t\t\t{\n\t\t\t\t\t\t\"source\": \"SUBS\",\n\t\t\t\t\t\t\"action\": \"TIER_3_GIFTED_SUB\",\n\t\t\t\t\t\t\"quantity\": -62\n\t\t\t\t\t}\n\t\t\t\t]\n\t\t\t}\n\t\t],\n\t\t\"participations\": [\n\t\t\t{\n\t\t\t\t\"source\": \"ADMIN_SOURCE\",\n\t\t\t\t\"action\": \"TIER_3_GIFTED_SUB\",\n\t\t\t\t\"quantity\": -170\n\t\t\t},\n\t\t\t{\n\t\t\t\t\"source\": \"UNKNOWN_SOURCE\",\n\t\t\t\t\"action\": \"TIER_1_SUB\",\n\t\t\t\t\"quantity\": -48\n\t\t\t},\n\t\t\t{\n\t\t\t\t\"source\": \"BITS\",\n\t\t\t\t\"action\": \"TIER_2_GIFTED_SUB\",\n\t\t\t\t\"quantity\": -394\n\t\t\t}\n\t\t],\n\t\t\"isActive\": false,\n\t\t\"levelProgress\": {\n\t\t\t\"setting\": {\n\t\t\t\t\"level\": 348,\n\t\t\t\t\"goal\": 483,\n\t\t\t\t\"rewards\": [\n\t\t\t\t\t{\n\t\t\t\t\t\t\"id\": \"jwmqRDMEmU\",\n\t\t\t\t\t\t\"groupId\": \"fuHLpoKqxt\",\n\t\t\t\t\t\t\"type\": \"BADGE\"\n\t\t\t\t\t},\n\t\t\t\t\t{\n\t\t\t\t\t\t\"id\": \"POoNNJCIiM\",\n\t\t\t\t\t\t\"groupId\": \"XtyzhSEARq\",\n\t\t\t\t\t\t\"type\": \"BADGE\"\n\t\t\t\t\t},\n\t\t\t\t\t{\n\t\t\t\t\t\t\"id\": \"WeUqcdTSGa\",\n\t\t\t\t\t\t\"groupId\": \"GUNvLqehLG\",\n\t\t\t\t\t\t\"type\": \"UNKNOWN_REWARD_TYPE\"\n\t\t\t\t\t}\n\t\t\t\t]\n\t\t\t},\n\t\t\t\"progression\": 39,\n\t\t\t\"goal\": -247,\n\t\t\t\"total\": -166,\n\t\t\t\"remainingSeconds\": 288\n\t\t},\n\t\t\"boostOpportunity\": {\n\t\t\t\"hasOpportunity\": false,\n\t\t\t\"opportunityState\": \"BOOST_OPPORTUNITY_STATE_FAILED\"\n\t\t}\n\t}\n}"
			}
		},
		{
			"_type": "request",
			"_id": "request-Percy-CanStartHypeTrain",
			"parentId": "request_group-Percy",
			"name": "CanStartHypeTrain",
			"method": "POST",
			"url": "{{Percy}}CanStartHypeTrain",
			"headers": [
				{
					"name": "Content-Type",
					"value": "application/json"
				}
			],
			"body": {
				"mimeType": "application/json",
				"text": "{\n\t\"channelId\": \"VafvPCAxHA\"\n}"
			}
		},
		{
			"_type": "request",
			"_id": "request-Percy-GetHypeTrainBadges",
			"parentId": "request_group-Percy",
			"name": "GetHypeTrainBadges",
			"method": "POST",
			"url": "{{Percy}}GetHypeTrainBadges",
			"headers": [
				{
					"name": "Content-Type",
					"value": "application/json"
				}
			],
			"body": {
				"mimeType": "application/json",
				"text": "{\n\t\"userId\": \"vvsBWyybJw\",\n\t\"channelId\": \"MqhdfurRhH\"\n}"
			}
		},
		{
			"_type": "request",
			"_id": "request-Percy-HelixGetMostRecentHypeTrain",
			"parentId": "request_group-Percy",
			"name": "HelixGetMostRecentHypeTrain",
			"method": "POST",
			"url": "{{Percy}}HelixGetMostRecentHypeTrain",
			"headers": [
				{
					"name": "Content-Type",
					"value": "application/json"
				}
			],
			"body": {
				"mimeType": "application/json",
				"text": "{\n\t\"channelId\": \"ttJemwbvjl\"\n}"
			}
		},
		{
			"_type": "request",
			"_id": "request-Percy-AdminGrantHypeTrainRewards",
			"parentId": "request_group-Percy",
			"name": "AdminGrantHypeTrainRewards",
			"method": "POST",
			"url": "{{Percy}}AdminGrantHypeTrainRewards",
			"headers": [
				{
					"name": "Content-Type",
					"value": "application/json"
				}
			],
			"body": {
				"mimeType": "application/json",
				"text": "{\n\t\"channelId\": \"rUOYcctuTo\",\n\t\"userId\": \"BIpZBbTEUo\",\n\t\"hypeTrainId\": \"FmzqIVzROu\",\n\t\"participatedAt\": \"1976-02-24T10:39:48-08:00\"\n}"
			}
		}
	]
}