Pseudo-terminal will not be allocated because stdin is not a terminal.
2019/03/04 17:41:37 Successfully parsed plan.
2019/03/04 17:41:37 Starting attack...
2019/03/04 17:41:37 Running request attack plan...
2019/03/04 17:41:37 Running load step. Intervals: 30  rpsDeltaPerStep: 0
2019/03/04 17:47:38 Attack over!
2019/03/04 17:47:38 Done.
