{
  "Tools": [
    {
      "Repository": "code.justin.tv/common/retool",
      "Commit": "1c155495e18c4650b35267eff7e8597b2cb2582c"
    },
    {
      "Repository": "github.com/golang/protobuf/protoc-gen-go",
      "Commit": "8ee79997227bf9b34611aee7946ae64735e6fd93"
    },
    {
      "Repository": "code.justin.tv/common/twirp/protoc-gen-twirp",
      "Commit": "ee93846d88bd6894016d4db03c0c905e11f5b451"
    },
    {
      "Repository": "github.com/Masterminds/glide",
      "Commit": "652d85f8bb3e12d8c8fe769106018f8ae6cc7d20"
    },
    {
      "Repository": "github.com/sgotti/glide-vc",
      "Commit": "6ddf6eee9d582c9722e5a927adbd8a3bbd58a008"
    },
    {
      "Repository": "github.com/codeactual/mockery/mockery",
      "Commit": "b6f6c13c25c3f0a17724553fa01580f328158d7a"
    }
  ]
}
