{
  "Tools": [
    {
      "Repository": "github.com/twitchtv/retool",
      "Commit": "df3234678b5953c752c3da3dace7e5e28db70c41"
    },
    {
      "Repository": "golang.org/x/tools/cmd/goimports",
      "Commit": "5aca471b1d59ca42d39ca6419e64061391b9a6ad"
    },
    {
      "Repository": "github.com/twitchtv/twirp/protoc-gen-twirp",
      "Commit": "1b8455b42110feb46a56aeec1ea0020067f46b11"
    },
    {
      "Repository": "github.com/golang/dep/cmd/dep",
      "Commit": "3e697f6afb332b6e12b8b399365e724e2e8dea7e"
    },
    {
      "Repository": "github.com/vektra/mockery/cmd/mockery",
      "Commit": "5af2e9db6278068534c6ee4735ed34962f6ae588"
    },
    {
      "Repository": "github.com/golang/protobuf/protoc-gen-go",
      "Commit": "52132540909e117f2b98b0694383dc0ab1e1deca"
    },
    {
      "Repository": "github.com/golangci/golangci-lint/cmd/golangci-lint",
      "Commit": "4ba2155996359eabd8800d1fbf3e3a9777c80490"
    }
  ],
  "RetoolVersion": "1.3.7"
}