{
  "image": "docker.pkgs.xarth.tv/devtools/bionic/go1.12.0:latest",
  "mount": "/build/go/src/code.justin.tv/commerce/phanto",
  "setup": [
   ],
   "build": [
       "go build"
   ],
   "extract": {
       "source": "/build/go/src/code.justin.tv/commerce/phanto",
       "destination": ".manta/"
   }
}
