{
  "Campaigns": {
    "hgc2018": [
      {
        "Id": "hgc2018",
        "Triggers": [
          {
            "Id": "hgc2018.launch.cheerbomb",
            "Title": "HGC 2018 Cheerbomb",
            "Description": "HGC 2018 Cheerbomb",
            "TriggerAmountMin": 1000,
            "TriggerAmountMax": 1000000,
            "TriggerType": "CHEER",
            "ActiveStartDate": "2018-08-02T00:00:00Z",
            "ActiveEndDate": "2018-11-05T18:00:00Z",
            "VisibleStartDate": "2018-08-02T00:00:00Z",
            "VisibleEndDate": "2018-11-05T18:00:00Z",
            "UserWhitelistEnabled": true,
            "UserWhitelist": {
              "184009112": true,
              "63664393": true,
              "131495971": true,
              "218338659": true,
              "186243532": true,
              "215590603": true,
              "216911854": true,
              "167136666": true,
              "104874624": true,
              "203316457": true,
              "27697171": true,
              "191316249": true,
              "167200595": true,
              "212040950": true,
              "218339222": true,
              "218339525": true,
              "241982398": true,
              "241973651": true
            },
            "RecipientSelectionFormula": "HGC2018",
            "BenefactorRewardAttributes": {
              "Rewards": [
                {
                  "Description": "Common",
                  "ImageUrl": "https://d3aqoihi2n8ty8.cloudfront.net/hgc2018/trigger-rewards/CommonChest.png",
                  "Type": "igc",
                  "Id": "rewards-cheering-hgc2018-common-chest",
                  "Name": "Heroes Loot Chest",
                  "FulfillmentStrategy": "blizzard_inventory",
                  "Repeatable": true,
                  "Quantity": 2,
                  "ShouldAutogrant": true,
                  "Rarity": 0
                }
              ],
              "SelectionStrategy": "ALL"
            },
            "RecipientRewardAttributes": {
              "Rewards": [
                {
                  "Description": "Common",
                  "ImageUrl": "https://d3aqoihi2n8ty8.cloudfront.net/hgc2018/trigger-rewards/CommonChest.png",
                  "Type": "igc",
                  "Id": "rewards-cheering-hgc2018-common-chest",
                  "Name": "Heroes Loot Chest",
                  "FulfillmentStrategy": "blizzard_inventory",
                  "Repeatable": true,
                  "Quantity": 1,
                  "ShouldAutogrant": true,
                  "Rarity": 0
                }
              ],
              "SelectionStrategy": "ALL"
            }
          }
        ]
      }
    ]
  }
}