{
  "Campaigns": {
    "hyperscape_megacommerce": {
      "Id": "hyperscape_megacommerce",
      "ActiveStartDate": "2020-08-17T17:00:00Z",
      "ActiveEndDate": "2020-09-01T06:59:59Z",
      "Description": "hyperscape_megacommerce",
      "Title": "hyperscape_megacommerce",
      "AllChannels": true,
      "Triggers": [
        {
          "Id": "hyperscape_megacommerce.megacheer.cheer.trigger",
          "Title": "hyperscape_megacommerce",
          "Description": "hyperscape_megacommerce",
          "TriggerAmountMin": 300,
          "TriggerAmountMax": 10000000,
          "TriggerType": "CHEER",
          "ActiveStartDate": "2020-08-17T17:00:00Z",
          "ActiveEndDate": "2020-09-01T06:59:59Z",
          "VisibleStartDate": "2020-08-17T17:00:00Z",
          "VisibleEndDate": "2020-09-01T06:59:59Z",
          "RecipientSelectionFormula": "holiday2019",
          "BenefactorRewardAttributes": {
            "Rewards": [
              {
                "Id": "303179111",
                "Type": "emote",
                "Name": "HyperCheese",
                "Description": "HyperCheese",
                "ImageURL": "https://static-cdn.jtvnw.net/emoticons/v1/303179111/3.0",
                "OwnerID": "537206155",
                "StartsAt": "2020-08-17T17:00:00Z"
              },
              {
                "Id": "303179112",
                "Type": "emote",
                "Name": "HyperCooldown",
                "Description": "HyperCooldown",
                "ImageURL": "https://static-cdn.jtvnw.net/emoticons/v1/303179112/3.0",
                "OwnerID": "537206155",
                "StartsAt": "2020-08-17T17:00:00Z"
              },
              {
                "Id": "303179114",
                "Type": "emote",
                "Name": "HyperCrate",
                "Description": "HyperCrate",
                "ImageURL": "https://static-cdn.jtvnw.net/emoticons/v1/303179114/3.0",
                "OwnerID": "537206155",
                "StartsAt": "2020-08-17T17:00:00Z"
              },
              {
                "Id": "303179115",
                "Type": "emote",
                "Name": "HyperCrown",
                "Description": "HyperCrown",
                "ImageURL": "https://static-cdn.jtvnw.net/emoticons/v1/303179115/3.0",
                "OwnerID": "537206155",
                "StartsAt": "2020-08-17T17:00:00Z"
              },
              {
                "Id": "303179116",
                "Type": "emote",
                "Name": "HyperGravity",
                "Description": "HyperGravity",
                "ImageURL": "https://static-cdn.jtvnw.net/emoticons/v1/303179116/3.0",
                "OwnerID": "537206155",
                "StartsAt": "2020-08-17T17:00:00Z"
              },
              {
                "Id": "303179118",
                "Type": "emote",
                "Name": "HyperHaste",
                "Description": "HyperHaste",
                "ImageURL": "https://static-cdn.jtvnw.net/emoticons/v1/303179118/3.0",
                "OwnerID": "537206155",
                "StartsAt": "2020-08-17T17:00:00Z"
              },
              {
                "Id": "303179119",
                "Type": "emote",
                "Name": "HyperHex",
                "Description": "HyperHex",
                "ImageURL": "https://static-cdn.jtvnw.net/emoticons/v1/303179119/3.0",
                "OwnerID": "537206155",
                "StartsAt": "2020-08-17T17:00:00Z"
              },
              {
                "Id": "303179121",
                "Type": "emote",
                "Name": "HyperJump",
                "Description": "HyperJump",
                "ImageURL": "https://static-cdn.jtvnw.net/emoticons/v1/303179121/3.0",
                "OwnerID": "537206155",
                "StartsAt": "2020-08-17T17:00:00Z"
              },
              {
                "Id": "303179122",
                "Type": "emote",
                "Name": "HyperLost",
                "Description": "HyperLost",
                "ImageURL": "https://static-cdn.jtvnw.net/emoticons/v1/303179122/3.0",
                "OwnerID": "537206155",
                "StartsAt": "2020-08-17T17:00:00Z"
              },
              {
                "Id": "303179126",
                "Type": "emote",
                "Name": "HyperMayhem",
                "Description": "HyperMayhem",
                "ImageURL": "https://static-cdn.jtvnw.net/emoticons/v1/303179126/3.0",
                "OwnerID": "537206155",
                "StartsAt": "2020-08-17T17:00:00Z"
              },
              {
                "Id": "303179127",
                "Type": "emote",
                "Name": "HyperMine",
                "Description": "HyperMine",
                "ImageURL": "https://static-cdn.jtvnw.net/emoticons/v1/303179127/3.0",
                "OwnerID": "537206155",
                "StartsAt": "2020-08-17T17:00:00Z"
              },
              {
                "Id": "303179131",
                "Type": "emote",
                "Name": "HyperParkour",
                "Description": "HyperParkour",
                "ImageURL": "https://static-cdn.jtvnw.net/emoticons/v1/303179131/3.0",
                "OwnerID": "537206155",
                "StartsAt": "2020-08-17T17:00:00Z"
              },
              {
                "Id": "303179133",
                "Type": "emote",
                "Name": "HyperReveal",
                "Description": "HyperReveal",
                "ImageURL": "https://static-cdn.jtvnw.net/emoticons/v1/303179133/3.0",
                "OwnerID": "537206155",
                "StartsAt": "2020-08-17T17:00:00Z"
              },
              {
                "Id": "303179136",
                "Type": "emote",
                "Name": "HyperSlam",
                "Description": "HyperSlam",
                "ImageURL": "https://static-cdn.jtvnw.net/emoticons/v1/303179136/3.0",
                "OwnerID": "537206155",
                "StartsAt": "2020-08-17T17:00:00Z"
              },
              {
                "Id": "303179137",
                "Type": "emote",
                "Name": "HyperTiger",
                "Description": "HyperTiger",
                "ImageURL": "https://static-cdn.jtvnw.net/emoticons/v1/303179137/3.0",
                "OwnerID": "537206155",
                "StartsAt": "2020-08-17T17:00:00Z"
              }
            ],
            "SelectionStrategy": "RANDOMINDEPENDENT",
            "SelectionAmountScaled": true
          },
          "RecipientRewardAttributes": {
            "Rewards": [
              {
                "Id": "303179111",
                "Type": "emote",
                "Name": "HyperCheese",
                "Description": "HyperCheese",
                "ImageURL": "https://static-cdn.jtvnw.net/emoticons/v1/303179111/3.0",
                "OwnerID": "537206155",
                "StartsAt": "2020-08-17T17:00:00Z"
              },
              {
                "Id": "303179112",
                "Type": "emote",
                "Name": "HyperCooldown",
                "Description": "HyperCooldown",
                "ImageURL": "https://static-cdn.jtvnw.net/emoticons/v1/303179112/3.0",
                "OwnerID": "537206155",
                "StartsAt": "2020-08-17T17:00:00Z"
              },
              {
                "Id": "303179114",
                "Type": "emote",
                "Name": "HyperCrate",
                "Description": "HyperCrate",
                "ImageURL": "https://static-cdn.jtvnw.net/emoticons/v1/303179114/3.0",
                "OwnerID": "537206155",
                "StartsAt": "2020-08-17T17:00:00Z"
              },
              {
                "Id": "303179115",
                "Type": "emote",
                "Name": "HyperCrown",
                "Description": "HyperCrown",
                "ImageURL": "https://static-cdn.jtvnw.net/emoticons/v1/303179115/3.0",
                "OwnerID": "537206155",
                "StartsAt": "2020-08-17T17:00:00Z"
              },
              {
                "Id": "303179116",
                "Type": "emote",
                "Name": "HyperGravity",
                "Description": "HyperGravity",
                "ImageURL": "https://static-cdn.jtvnw.net/emoticons/v1/303179116/3.0",
                "OwnerID": "537206155",
                "StartsAt": "2020-08-17T17:00:00Z"
              },
              {
                "Id": "303179118",
                "Type": "emote",
                "Name": "HyperHaste",
                "Description": "HyperHaste",
                "ImageURL": "https://static-cdn.jtvnw.net/emoticons/v1/303179118/3.0",
                "OwnerID": "537206155",
                "StartsAt": "2020-08-17T17:00:00Z"
              },
              {
                "Id": "303179119",
                "Type": "emote",
                "Name": "HyperHex",
                "Description": "HyperHex",
                "ImageURL": "https://static-cdn.jtvnw.net/emoticons/v1/303179119/3.0",
                "OwnerID": "537206155",
                "StartsAt": "2020-08-17T17:00:00Z"
              },
              {
                "Id": "303179121",
                "Type": "emote",
                "Name": "HyperJump",
                "Description": "HyperJump",
                "ImageURL": "https://static-cdn.jtvnw.net/emoticons/v1/303179121/3.0",
                "OwnerID": "537206155",
                "StartsAt": "2020-08-17T17:00:00Z"
              },
              {
                "Id": "303179122",
                "Type": "emote",
                "Name": "HyperLost",
                "Description": "HyperLost",
                "ImageURL": "https://static-cdn.jtvnw.net/emoticons/v1/303179122/3.0",
                "OwnerID": "537206155",
                "StartsAt": "2020-08-17T17:00:00Z"
              },
              {
                "Id": "303179126",
                "Type": "emote",
                "Name": "HyperMayhem",
                "Description": "HyperMayhem",
                "ImageURL": "https://static-cdn.jtvnw.net/emoticons/v1/303179126/3.0",
                "OwnerID": "537206155",
                "StartsAt": "2020-08-17T17:00:00Z"
              },
              {
                "Id": "303179127",
                "Type": "emote",
                "Name": "HyperMine",
                "Description": "HyperMine",
                "ImageURL": "https://static-cdn.jtvnw.net/emoticons/v1/303179127/3.0",
                "OwnerID": "537206155",
                "StartsAt": "2020-08-17T17:00:00Z"
              },
              {
                "Id": "303179131",
                "Type": "emote",
                "Name": "HyperParkour",
                "Description": "HyperParkour",
                "ImageURL": "https://static-cdn.jtvnw.net/emoticons/v1/303179131/3.0",
                "OwnerID": "537206155",
                "StartsAt": "2020-08-17T17:00:00Z"
              },
              {
                "Id": "303179133",
                "Type": "emote",
                "Name": "HyperReveal",
                "Description": "HyperReveal",
                "ImageURL": "https://static-cdn.jtvnw.net/emoticons/v1/303179133/3.0",
                "OwnerID": "537206155",
                "StartsAt": "2020-08-17T17:00:00Z"
              },
              {
                "Id": "303179136",
                "Type": "emote",
                "Name": "HyperSlam",
                "Description": "HyperSlam",
                "ImageURL": "https://static-cdn.jtvnw.net/emoticons/v1/303179136/3.0",
                "OwnerID": "537206155",
                "StartsAt": "2020-08-17T17:00:00Z"
              },
              {
                "Id": "303179137",
                "Type": "emote",
                "Name": "HyperTiger",
                "Description": "HyperTiger",
                "ImageURL": "https://static-cdn.jtvnw.net/emoticons/v1/303179137/3.0",
                "OwnerID": "537206155",
                "StartsAt": "2020-08-17T17:00:00Z"
              }
            ],
            "SelectionStrategy": "RANDOMINDEPENDENT",
            "SelectionAmountScaled": true
          }
        },
        {
          "Id": "hyperscape_megacommerce.megacheer.subscription.trigger",
          "Title": "hyperscape_megacommerce",
          "Description": "hyperscape_megacommerce",
          "TriggerAmountMin": 1,
          "TriggerAmountMax": 10000000,
          "TriggerType": "SUBSCRIPTION",
          "ActiveStartDate": "2020-08-17T17:00:00Z",
          "ActiveEndDate": "2020-09-01T06:59:59Z",
          "VisibleStartDate": "2020-08-17T17:00:00Z",
          "VisibleEndDate": "2020-09-01T06:59:59Z",
          "RecipientSelectionFormula": "holiday2019",
          "BenefactorRewardAttributes": {
            "Rewards": [
              {
                "Id": "303179111",
                "Type": "emote",
                "Name": "HyperCheese",
                "Description": "HyperCheese",
                "ImageURL": "https://static-cdn.jtvnw.net/emoticons/v1/303179111/3.0",
                "OwnerID": "537206155",
                "StartsAt": "2020-08-17T17:00:00Z"
              },
              {
                "Id": "303179112",
                "Type": "emote",
                "Name": "HyperCooldown",
                "Description": "HyperCooldown",
                "ImageURL": "https://static-cdn.jtvnw.net/emoticons/v1/303179112/3.0",
                "OwnerID": "537206155",
                "StartsAt": "2020-08-17T17:00:00Z"
              },
              {
                "Id": "303179114",
                "Type": "emote",
                "Name": "HyperCrate",
                "Description": "HyperCrate",
                "ImageURL": "https://static-cdn.jtvnw.net/emoticons/v1/303179114/3.0",
                "OwnerID": "537206155",
                "StartsAt": "2020-08-17T17:00:00Z"
              },
              {
                "Id": "303179115",
                "Type": "emote",
                "Name": "HyperCrown",
                "Description": "HyperCrown",
                "ImageURL": "https://static-cdn.jtvnw.net/emoticons/v1/303179115/3.0",
                "OwnerID": "537206155",
                "StartsAt": "2020-08-17T17:00:00Z"
              },
              {
                "Id": "303179116",
                "Type": "emote",
                "Name": "HyperGravity",
                "Description": "HyperGravity",
                "ImageURL": "https://static-cdn.jtvnw.net/emoticons/v1/303179116/3.0",
                "OwnerID": "537206155",
                "StartsAt": "2020-08-17T17:00:00Z"
              },
              {
                "Id": "303179118",
                "Type": "emote",
                "Name": "HyperHaste",
                "Description": "HyperHaste",
                "ImageURL": "https://static-cdn.jtvnw.net/emoticons/v1/303179118/3.0",
                "OwnerID": "537206155",
                "StartsAt": "2020-08-17T17:00:00Z"
              },
              {
                "Id": "303179119",
                "Type": "emote",
                "Name": "HyperHex",
                "Description": "HyperHex",
                "ImageURL": "https://static-cdn.jtvnw.net/emoticons/v1/303179119/3.0",
                "OwnerID": "537206155",
                "StartsAt": "2020-08-17T17:00:00Z"
              },
              {
                "Id": "303179121",
                "Type": "emote",
                "Name": "HyperJump",
                "Description": "HyperJump",
                "ImageURL": "https://static-cdn.jtvnw.net/emoticons/v1/303179121/3.0",
                "OwnerID": "537206155",
                "StartsAt": "2020-08-17T17:00:00Z"
              },
              {
                "Id": "303179122",
                "Type": "emote",
                "Name": "HyperLost",
                "Description": "HyperLost",
                "ImageURL": "https://static-cdn.jtvnw.net/emoticons/v1/303179122/3.0",
                "OwnerID": "537206155",
                "StartsAt": "2020-08-17T17:00:00Z"
              },
              {
                "Id": "303179126",
                "Type": "emote",
                "Name": "HyperMayhem",
                "Description": "HyperMayhem",
                "ImageURL": "https://static-cdn.jtvnw.net/emoticons/v1/303179126/3.0",
                "OwnerID": "537206155",
                "StartsAt": "2020-08-17T17:00:00Z"
              },
              {
                "Id": "303179127",
                "Type": "emote",
                "Name": "HyperMine",
                "Description": "HyperMine",
                "ImageURL": "https://static-cdn.jtvnw.net/emoticons/v1/303179127/3.0",
                "OwnerID": "537206155",
                "StartsAt": "2020-08-17T17:00:00Z"
              },
              {
                "Id": "303179131",
                "Type": "emote",
                "Name": "HyperParkour",
                "Description": "HyperParkour",
                "ImageURL": "https://static-cdn.jtvnw.net/emoticons/v1/303179131/3.0",
                "OwnerID": "537206155",
                "StartsAt": "2020-08-17T17:00:00Z"
              },
              {
                "Id": "303179133",
                "Type": "emote",
                "Name": "HyperReveal",
                "Description": "HyperReveal",
                "ImageURL": "https://static-cdn.jtvnw.net/emoticons/v1/303179133/3.0",
                "OwnerID": "537206155",
                "StartsAt": "2020-08-17T17:00:00Z"
              },
              {
                "Id": "303179136",
                "Type": "emote",
                "Name": "HyperSlam",
                "Description": "HyperSlam",
                "ImageURL": "https://static-cdn.jtvnw.net/emoticons/v1/303179136/3.0",
                "OwnerID": "537206155",
                "StartsAt": "2020-08-17T17:00:00Z"
              },
              {
                "Id": "303179137",
                "Type": "emote",
                "Name": "HyperTiger",
                "Description": "HyperTiger",
                "ImageURL": "https://static-cdn.jtvnw.net/emoticons/v1/303179137/3.0",
                "OwnerID": "537206155",
                "StartsAt": "2020-08-17T17:00:00Z"
              }
            ],
            "SelectionStrategy": "RANDOMINDEPENDENT",
            "SelectionAmountScaled": true
          },
          "RecipientRewardAttributes": {
            "Rewards": [
              {
                "Id": "303179111",
                "Type": "emote",
                "Name": "HyperCheese",
                "Description": "HyperCheese",
                "ImageURL": "https://static-cdn.jtvnw.net/emoticons/v1/303179111/3.0",
                "OwnerID": "537206155",
                "StartsAt": "2020-08-17T17:00:00Z"
              },
              {
                "Id": "303179112",
                "Type": "emote",
                "Name": "HyperCooldown",
                "Description": "HyperCooldown",
                "ImageURL": "https://static-cdn.jtvnw.net/emoticons/v1/303179112/3.0",
                "OwnerID": "537206155",
                "StartsAt": "2020-08-17T17:00:00Z"
              },
              {
                "Id": "303179114",
                "Type": "emote",
                "Name": "HyperCrate",
                "Description": "HyperCrate",
                "ImageURL": "https://static-cdn.jtvnw.net/emoticons/v1/303179114/3.0",
                "OwnerID": "537206155",
                "StartsAt": "2020-08-17T17:00:00Z"
              },
              {
                "Id": "303179115",
                "Type": "emote",
                "Name": "HyperCrown",
                "Description": "HyperCrown",
                "ImageURL": "https://static-cdn.jtvnw.net/emoticons/v1/303179115/3.0",
                "OwnerID": "537206155",
                "StartsAt": "2020-08-17T17:00:00Z"
              },
              {
                "Id": "303179116",
                "Type": "emote",
                "Name": "HyperGravity",
                "Description": "HyperGravity",
                "ImageURL": "https://static-cdn.jtvnw.net/emoticons/v1/303179116/3.0",
                "OwnerID": "537206155",
                "StartsAt": "2020-08-17T17:00:00Z"
              },
              {
                "Id": "303179118",
                "Type": "emote",
                "Name": "HyperHaste",
                "Description": "HyperHaste",
                "ImageURL": "https://static-cdn.jtvnw.net/emoticons/v1/303179118/3.0",
                "OwnerID": "537206155",
                "StartsAt": "2020-08-17T17:00:00Z"
              },
              {
                "Id": "303179119",
                "Type": "emote",
                "Name": "HyperHex",
                "Description": "HyperHex",
                "ImageURL": "https://static-cdn.jtvnw.net/emoticons/v1/303179119/3.0",
                "OwnerID": "537206155",
                "StartsAt": "2020-08-17T17:00:00Z"
              },
              {
                "Id": "303179121",
                "Type": "emote",
                "Name": "HyperJump",
                "Description": "HyperJump",
                "ImageURL": "https://static-cdn.jtvnw.net/emoticons/v1/303179121/3.0",
                "OwnerID": "537206155",
                "StartsAt": "2020-08-17T17:00:00Z"
              },
              {
                "Id": "303179122",
                "Type": "emote",
                "Name": "HyperLost",
                "Description": "HyperLost",
                "ImageURL": "https://static-cdn.jtvnw.net/emoticons/v1/303179122/3.0",
                "OwnerID": "537206155",
                "StartsAt": "2020-08-17T17:00:00Z"
              },
              {
                "Id": "303179126",
                "Type": "emote",
                "Name": "HyperMayhem",
                "Description": "HyperMayhem",
                "ImageURL": "https://static-cdn.jtvnw.net/emoticons/v1/303179126/3.0",
                "OwnerID": "537206155",
                "StartsAt": "2020-08-17T17:00:00Z"
              },
              {
                "Id": "303179127",
                "Type": "emote",
                "Name": "HyperMine",
                "Description": "HyperMine",
                "ImageURL": "https://static-cdn.jtvnw.net/emoticons/v1/303179127/3.0",
                "OwnerID": "537206155",
                "StartsAt": "2020-08-17T17:00:00Z"
              },
              {
                "Id": "303179131",
                "Type": "emote",
                "Name": "HyperParkour",
                "Description": "HyperParkour",
                "ImageURL": "https://static-cdn.jtvnw.net/emoticons/v1/303179131/3.0",
                "OwnerID": "537206155",
                "StartsAt": "2020-08-17T17:00:00Z"
              },
              {
                "Id": "303179133",
                "Type": "emote",
                "Name": "HyperReveal",
                "Description": "HyperReveal",
                "ImageURL": "https://static-cdn.jtvnw.net/emoticons/v1/303179133/3.0",
                "OwnerID": "537206155",
                "StartsAt": "2020-08-17T17:00:00Z"
              },
              {
                "Id": "303179136",
                "Type": "emote",
                "Name": "HyperSlam",
                "Description": "HyperSlam",
                "ImageURL": "https://static-cdn.jtvnw.net/emoticons/v1/303179136/3.0",
                "OwnerID": "537206155",
                "StartsAt": "2020-08-17T17:00:00Z"
              },
              {
                "Id": "303179137",
                "Type": "emote",
                "Name": "HyperTiger",
                "Description": "HyperTiger",
                "ImageURL": "https://static-cdn.jtvnw.net/emoticons/v1/303179137/3.0",
                "OwnerID": "537206155",
                "StartsAt": "2020-08-17T17:00:00Z"
              }
            ],
            "SelectionStrategy": "RANDOMINDEPENDENT",
            "SelectionAmountScaled": true
          }
        },
        {
          "Id": "hyperscape_megacommerce.megacheer.subgift.trigger",
          "Title": "hyperscape_megacommerce",
          "Description": "hyperscape_megacommerce",
          "TriggerAmountMin": 1,
          "TriggerAmountMax": 10000000,
          "TriggerType": "SUBGIFT",
          "ActiveStartDate": "2020-08-17T17:00:00Z",
          "ActiveEndDate": "2020-09-01T06:59:59Z",
          "VisibleStartDate": "2020-08-17T17:00:00Z",
          "VisibleEndDate": "2020-09-01T06:59:59Z",
          "RecipientSelectionFormula": "holiday2019",
          "BenefactorRewardAttributes": {
            "Rewards": [
              {
                "Id": "303179111",
                "Type": "emote",
                "Name": "HyperCheese",
                "Description": "HyperCheese",
                "ImageURL": "https://static-cdn.jtvnw.net/emoticons/v1/303179111/3.0",
                "OwnerID": "537206155",
                "StartsAt": "2020-08-17T17:00:00Z"
              },
              {
                "Id": "303179112",
                "Type": "emote",
                "Name": "HyperCooldown",
                "Description": "HyperCooldown",
                "ImageURL": "https://static-cdn.jtvnw.net/emoticons/v1/303179112/3.0",
                "OwnerID": "537206155",
                "StartsAt": "2020-08-17T17:00:00Z"
              },
              {
                "Id": "303179114",
                "Type": "emote",
                "Name": "HyperCrate",
                "Description": "HyperCrate",
                "ImageURL": "https://static-cdn.jtvnw.net/emoticons/v1/303179114/3.0",
                "OwnerID": "537206155",
                "StartsAt": "2020-08-17T17:00:00Z"
              },
              {
                "Id": "303179115",
                "Type": "emote",
                "Name": "HyperCrown",
                "Description": "HyperCrown",
                "ImageURL": "https://static-cdn.jtvnw.net/emoticons/v1/303179115/3.0",
                "OwnerID": "537206155",
                "StartsAt": "2020-08-17T17:00:00Z"
              },
              {
                "Id": "303179116",
                "Type": "emote",
                "Name": "HyperGravity",
                "Description": "HyperGravity",
                "ImageURL": "https://static-cdn.jtvnw.net/emoticons/v1/303179116/3.0",
                "OwnerID": "537206155",
                "StartsAt": "2020-08-17T17:00:00Z"
              },
              {
                "Id": "303179118",
                "Type": "emote",
                "Name": "HyperHaste",
                "Description": "HyperHaste",
                "ImageURL": "https://static-cdn.jtvnw.net/emoticons/v1/303179118/3.0",
                "OwnerID": "537206155",
                "StartsAt": "2020-08-17T17:00:00Z"
              },
              {
                "Id": "303179119",
                "Type": "emote",
                "Name": "HyperHex",
                "Description": "HyperHex",
                "ImageURL": "https://static-cdn.jtvnw.net/emoticons/v1/303179119/3.0",
                "OwnerID": "537206155",
                "StartsAt": "2020-08-17T17:00:00Z"
              },
              {
                "Id": "303179121",
                "Type": "emote",
                "Name": "HyperJump",
                "Description": "HyperJump",
                "ImageURL": "https://static-cdn.jtvnw.net/emoticons/v1/303179121/3.0",
                "OwnerID": "537206155",
                "StartsAt": "2020-08-17T17:00:00Z"
              },
              {
                "Id": "303179122",
                "Type": "emote",
                "Name": "HyperLost",
                "Description": "HyperLost",
                "ImageURL": "https://static-cdn.jtvnw.net/emoticons/v1/303179122/3.0",
                "OwnerID": "537206155",
                "StartsAt": "2020-08-17T17:00:00Z"
              },
              {
                "Id": "303179126",
                "Type": "emote",
                "Name": "HyperMayhem",
                "Description": "HyperMayhem",
                "ImageURL": "https://static-cdn.jtvnw.net/emoticons/v1/303179126/3.0",
                "OwnerID": "537206155",
                "StartsAt": "2020-08-17T17:00:00Z"
              },
              {
                "Id": "303179127",
                "Type": "emote",
                "Name": "HyperMine",
                "Description": "HyperMine",
                "ImageURL": "https://static-cdn.jtvnw.net/emoticons/v1/303179127/3.0",
                "OwnerID": "537206155",
                "StartsAt": "2020-08-17T17:00:00Z"
              },
              {
                "Id": "303179131",
                "Type": "emote",
                "Name": "HyperParkour",
                "Description": "HyperParkour",
                "ImageURL": "https://static-cdn.jtvnw.net/emoticons/v1/303179131/3.0",
                "OwnerID": "537206155",
                "StartsAt": "2020-08-17T17:00:00Z"
              },
              {
                "Id": "303179133",
                "Type": "emote",
                "Name": "HyperReveal",
                "Description": "HyperReveal",
                "ImageURL": "https://static-cdn.jtvnw.net/emoticons/v1/303179133/3.0",
                "OwnerID": "537206155",
                "StartsAt": "2020-08-17T17:00:00Z"
              },
              {
                "Id": "303179136",
                "Type": "emote",
                "Name": "HyperSlam",
                "Description": "HyperSlam",
                "ImageURL": "https://static-cdn.jtvnw.net/emoticons/v1/303179136/3.0",
                "OwnerID": "537206155",
                "StartsAt": "2020-08-17T17:00:00Z"
              },
              {
                "Id": "303179137",
                "Type": "emote",
                "Name": "HyperTiger",
                "Description": "HyperTiger",
                "ImageURL": "https://static-cdn.jtvnw.net/emoticons/v1/303179137/3.0",
                "OwnerID": "537206155",
                "StartsAt": "2020-08-17T17:00:00Z"
              }
            ],
            "SelectionStrategy": "RANDOMINDEPENDENT",
            "SelectionAmountScaled": true
          },
          "RecipientRewardAttributes": {
            "Rewards": [
              {
                "Id": "303179111",
                "Type": "emote",
                "Name": "HyperCheese",
                "Description": "HyperCheese",
                "ImageURL": "https://static-cdn.jtvnw.net/emoticons/v1/303179111/3.0",
                "OwnerID": "537206155",
                "StartsAt": "2020-08-17T17:00:00Z"
              },
              {
                "Id": "303179112",
                "Type": "emote",
                "Name": "HyperCooldown",
                "Description": "HyperCooldown",
                "ImageURL": "https://static-cdn.jtvnw.net/emoticons/v1/303179112/3.0",
                "OwnerID": "537206155",
                "StartsAt": "2020-08-17T17:00:00Z"
              },
              {
                "Id": "303179114",
                "Type": "emote",
                "Name": "HyperCrate",
                "Description": "HyperCrate",
                "ImageURL": "https://static-cdn.jtvnw.net/emoticons/v1/303179114/3.0",
                "OwnerID": "537206155",
                "StartsAt": "2020-08-17T17:00:00Z"
              },
              {
                "Id": "303179115",
                "Type": "emote",
                "Name": "HyperCrown",
                "Description": "HyperCrown",
                "ImageURL": "https://static-cdn.jtvnw.net/emoticons/v1/303179115/3.0",
                "OwnerID": "537206155",
                "StartsAt": "2020-08-17T17:00:00Z"
              },
              {
                "Id": "303179116",
                "Type": "emote",
                "Name": "HyperGravity",
                "Description": "HyperGravity",
                "ImageURL": "https://static-cdn.jtvnw.net/emoticons/v1/303179116/3.0",
                "OwnerID": "537206155",
                "StartsAt": "2020-08-17T17:00:00Z"
              },
              {
                "Id": "303179118",
                "Type": "emote",
                "Name": "HyperHaste",
                "Description": "HyperHaste",
                "ImageURL": "https://static-cdn.jtvnw.net/emoticons/v1/303179118/3.0",
                "OwnerID": "537206155",
                "StartsAt": "2020-08-17T17:00:00Z"
              },
              {
                "Id": "303179119",
                "Type": "emote",
                "Name": "HyperHex",
                "Description": "HyperHex",
                "ImageURL": "https://static-cdn.jtvnw.net/emoticons/v1/303179119/3.0",
                "OwnerID": "537206155",
                "StartsAt": "2020-08-17T17:00:00Z"
              },
              {
                "Id": "303179121",
                "Type": "emote",
                "Name": "HyperJump",
                "Description": "HyperJump",
                "ImageURL": "https://static-cdn.jtvnw.net/emoticons/v1/303179121/3.0",
                "OwnerID": "537206155",
                "StartsAt": "2020-08-17T17:00:00Z"
              },
              {
                "Id": "303179122",
                "Type": "emote",
                "Name": "HyperLost",
                "Description": "HyperLost",
                "ImageURL": "https://static-cdn.jtvnw.net/emoticons/v1/303179122/3.0",
                "OwnerID": "537206155",
                "StartsAt": "2020-08-17T17:00:00Z"
              },
              {
                "Id": "303179126",
                "Type": "emote",
                "Name": "HyperMayhem",
                "Description": "HyperMayhem",
                "ImageURL": "https://static-cdn.jtvnw.net/emoticons/v1/303179126/3.0",
                "OwnerID": "537206155",
                "StartsAt": "2020-08-17T17:00:00Z"
              },
              {
                "Id": "303179127",
                "Type": "emote",
                "Name": "HyperMine",
                "Description": "HyperMine",
                "ImageURL": "https://static-cdn.jtvnw.net/emoticons/v1/303179127/3.0",
                "OwnerID": "537206155",
                "StartsAt": "2020-08-17T17:00:00Z"
              },
              {
                "Id": "303179131",
                "Type": "emote",
                "Name": "HyperParkour",
                "Description": "HyperParkour",
                "ImageURL": "https://static-cdn.jtvnw.net/emoticons/v1/303179131/3.0",
                "OwnerID": "537206155",
                "StartsAt": "2020-08-17T17:00:00Z"
              },
              {
                "Id": "303179133",
                "Type": "emote",
                "Name": "HyperReveal",
                "Description": "HyperReveal",
                "ImageURL": "https://static-cdn.jtvnw.net/emoticons/v1/303179133/3.0",
                "OwnerID": "537206155",
                "StartsAt": "2020-08-17T17:00:00Z"
              },
              {
                "Id": "303179136",
                "Type": "emote",
                "Name": "HyperSlam",
                "Description": "HyperSlam",
                "ImageURL": "https://static-cdn.jtvnw.net/emoticons/v1/303179136/3.0",
                "OwnerID": "537206155",
                "StartsAt": "2020-08-17T17:00:00Z"
              },
              {
                "Id": "303179137",
                "Type": "emote",
                "Name": "HyperTiger",
                "Description": "HyperTiger",
                "ImageURL": "https://static-cdn.jtvnw.net/emoticons/v1/303179137/3.0",
                "OwnerID": "537206155",
                "StartsAt": "2020-08-17T17:00:00Z"
              }
            ],
            "SelectionStrategy": "RANDOMINDEPENDENT",
            "SelectionAmountScaled": true
          }
        }
      ]
    }
  }
}