{
  "Campaigns": {
    "pride_megacommerce_2020": [
      {
        "Id": "pride_megacommerce_2020.megacheer",
        "ActiveStartDate": "2020-06-16T20:00:00Z",
        "ActiveEndDate": "2020-07-16T06:59:59Z",
        "Title": "pride_megacommerce_2020",
        "Description": "pride_megacommerce_2020",
        "AllChannels": true,
        "StaffOnly": true,
        "Triggers": [
          {
            "Id": "pride_megacommerce_2020.megacheer.cheer.trigger",
            "Title": "pride_megacommerce_2020",
            "Description": "pride_megacommerce_2020",
            "TriggerAmountMin": 300,
            "TriggerAmountMax": 10000000,
            "TriggerType": "CHEER",
            "ActiveStartDate": "2020-06-16T20:00:00Z",
            "ActiveEndDate": "2020-07-16T06:59:59Z",
            "VisibleStartDate": "2020-06-16T20:00:00Z",
            "VisibleEndDate": "2020-07-16T06:59:59Z",
            "RecipientSelectionFormula": "holiday2019",
            "StaffOnly": true,
            "BenefactorRewardAttributes": {
              "Rewards": [
                {
                  "Id": "302303563",
                  "Type": "emote",
                  "Name": "PridePaint",
                  "Description": "PridePaint",
                  "ImageURL": "https://static-cdn.jtvnw.net/emoticons/v1/302303563/3.0",
                  "OwnerID": "537206155",
                  "StartsAt": "2020-05-29T16:00:00Z"
                },
                {
                  "Id": "302303564",
                  "Type": "emote",
                  "Name": "PrideWorld",
                  "Description": "PrideWorld",
                  "ImageURL": "https://static-cdn.jtvnw.net/emoticons/v1/302303564/3.0",
                  "OwnerID": "537206155",
                  "StartsAt": "2020-05-29T16:00:00Z"
                },
                {
                  "Id": "302303565",
                  "Type": "emote",
                  "Name": "PrideCrown",
                  "Description": "PrideCrown",
                  "ImageURL": "https://static-cdn.jtvnw.net/emoticons/v1/302303565/3.0",
                  "OwnerID": "537206155",
                  "StartsAt": "2020-05-29T16:00:00Z"
                },
                {
                  "Id": "302303566",
                  "Type": "emote",
                  "Name": "PrideKoala",
                  "Description": "PrideKoala",
                  "ImageURL": "https://static-cdn.jtvnw.net/emoticons/v1/302303566/3.0",
                  "OwnerID": "537206155",
                  "StartsAt": "2020-05-29T16:00:00Z"
                },
                {
                  "Id": "302303567",
                  "Type": "emote",
                  "Name": "PrideHeyyy",
                  "Description": "PrideHeyyy",
                  "ImageURL": "https://static-cdn.jtvnw.net/emoticons/v1/302303567/3.0",
                  "OwnerID": "537206155",
                  "StartsAt": "2020-05-29T16:00:00Z"
                },
                {
                  "Id": "302303568",
                  "Type": "emote",
                  "Name": "PrideLove",
                  "Description": "PrideLove",
                  "ImageURL": "https://static-cdn.jtvnw.net/emoticons/v1/302303568/3.0",
                  "OwnerID": "537206155",
                  "StartsAt": "2020-05-29T16:00:00Z"
                },
                {
                  "Id": "302303569",
                  "Type": "emote",
                  "Name": "PrideStrong",
                  "Description": "PrideStrong",
                  "ImageURL": "https://static-cdn.jtvnw.net/emoticons/v1/302303569/3.0",
                  "OwnerID": "537206155",
                  "StartsAt": "2020-05-29T16:00:00Z"
                },
                {
                  "Id": "302303570",
                  "Type": "emote",
                  "Name": "PrideRise",
                  "Description": "PrideRise",
                  "ImageURL": "https://static-cdn.jtvnw.net/emoticons/v1/302303570/3.0",
                  "OwnerID": "537206155",
                  "StartsAt": "2020-05-29T16:00:00Z"
                },
                {
                  "Id": "302303573",
                  "Type": "emote",
                  "Name": "PrideHeartL",
                  "Description": "PrideHeartL",
                  "ImageURL": "https://static-cdn.jtvnw.net/emoticons/v1/302303573/3.0",
                  "OwnerID": "537206155",
                  "StartsAt": "2020-05-29T16:00:00Z"
                },
                {
                  "Id": "302303574",
                  "Type": "emote",
                  "Name": "PrideHeartR",
                  "Description": "PrideHeartR",
                  "ImageURL": "https://static-cdn.jtvnw.net/emoticons/v1/302303574/3.0",
                  "OwnerID": "537206155",
                  "StartsAt": "2020-05-29T16:00:00Z"
                },
                {
                  "Id": "302303576",
                  "Type": "emote",
                  "Name": "PrideLion",
                  "Description": "PrideLion",
                  "ImageURL": "https://static-cdn.jtvnw.net/emoticons/v1/302303576/3.0",
                  "OwnerID": "537206155",
                  "StartsAt": "2020-05-29T16:00:00Z"
                },
                {
                  "Id": "302303577",
                  "Type": "emote",
                  "Name": "PrideFlower",
                  "Description": "PrideFlower",
                  "ImageURL": "https://static-cdn.jtvnw.net/emoticons/v1/302303577/3.0",
                  "OwnerID": "537206155",
                  "StartsAt": "2020-05-29T16:00:00Z"
                },
                {
                  "Id": "302303578",
                  "Type": "emote",
                  "Name": "PridePenguin",
                  "Description": "PridePenguin",
                  "ImageURL": "https://static-cdn.jtvnw.net/emoticons/v1/302303578/3.0",
                  "OwnerID": "537206155",
                  "StartsAt": "2020-05-29T16:00:00Z"
                },
                {
                  "Id": "302303579",
                  "Type": "emote",
                  "Name": "PrideWave",
                  "Description": "PrideWave",
                  "ImageURL": "https://static-cdn.jtvnw.net/emoticons/v1/302303579/3.0",
                  "OwnerID": "537206155",
                  "StartsAt": "2020-05-29T16:00:00Z"
                },
                {
                  "Id": "302303580",
                  "Type": "emote",
                  "Name": "PrideUnicorn",
                  "Description": "PrideUnicorn",
                  "ImageURL": "https://static-cdn.jtvnw.net/emoticons/v1/302303580/3.0",
                  "OwnerID": "537206155",
                  "StartsAt": "2020-05-29T16:00:00Z"
                },
                {
                  "Id": "302303581",
                  "Type": "emote",
                  "Name": "PrideDragon",
                  "Description": "PrideDragon",
                  "ImageURL": "https://static-cdn.jtvnw.net/emoticons/v1/302303581/3.0",
                  "OwnerID": "537206155",
                  "StartsAt": "2020-05-29T16:00:00Z"
                },
                {
                  "Id": "302303582",
                  "Type": "emote",
                  "Name": "PrideToucan",
                  "Description": "PrideToucan",
                  "ImageURL": "https://static-cdn.jtvnw.net/emoticons/v1/302303582/3.0",
                  "OwnerID": "537206155",
                  "StartsAt": "2020-05-29T16:00:00Z"
                },
                {
                  "Id": "302303585",
                  "Type": "emote",
                  "Name": "PrideLGBTea",
                  "Description": "PrideLGBTea",
                  "ImageURL": "https://static-cdn.jtvnw.net/emoticons/v1/302303585/3.0",
                  "OwnerID": "537206155",
                  "StartsAt": "2020-05-29T16:00:00Z"
                },
                {
                  "Id": "302303587",
                  "Type": "emote",
                  "Name": "PrideRhino",
                  "Description": "PrideRhino",
                  "ImageURL": "https://static-cdn.jtvnw.net/emoticons/v1/302303587/3.0",
                  "OwnerID": "537206155",
                  "StartsAt": "2020-05-29T16:00:00Z"
                },
                {
                  "Id": "302303590",
                  "Type": "emote",
                  "Name": "PrideUwu",
                  "Description": "PrideUwu",
                  "ImageURL": "https://static-cdn.jtvnw.net/emoticons/v1/302303590/3.0",
                  "OwnerID": "537206155",
                  "StartsAt": "2020-05-29T16:00:00Z"
                },
                {
                  "Id": "302303593",
                  "Type": "emote",
                  "Name": "PrideLaugh",
                  "Description": "PrideLaugh",
                  "ImageURL": "https://static-cdn.jtvnw.net/emoticons/v1/302303593/3.0",
                  "OwnerID": "537206155",
                  "StartsAt": "2020-05-29T16:00:00Z"
                },
                {
                  "Id": "302303594",
                  "Type": "emote",
                  "Name": "PrideCute",
                  "Description": "PrideCute",
                  "ImageURL": "https://static-cdn.jtvnw.net/emoticons/v1/302303594/3.0",
                  "OwnerID": "537206155",
                  "StartsAt": "2020-05-29T16:00:00Z"
                },
                {
                  "Id": "302303596",
                  "Type": "emote",
                  "Name": "PridePog",
                  "Description": "PridePog",
                  "ImageURL": "https://static-cdn.jtvnw.net/emoticons/v1/302303596/3.0",
                  "OwnerID": "537206155",
                  "StartsAt": "2020-05-29T16:00:00Z"
                },
                {
                  "Id": "302303599",
                  "Type": "emote",
                  "Name": "PrideFloat",
                  "Description": "PrideFloat",
                  "ImageURL": "https://static-cdn.jtvnw.net/emoticons/v1/302303599/3.0",
                  "OwnerID": "537206155",
                  "StartsAt": "2020-05-29T16:00:00Z"
                },
                {
                  "Id": "302303601",
                  "Type": "emote",
                  "Name": "PrideShrug",
                  "Description": "PrideShrug",
                  "ImageURL": "https://static-cdn.jtvnw.net/emoticons/v1/302303601/3.0",
                  "OwnerID": "537206155",
                  "StartsAt": "2020-05-29T16:00:00Z"
                }
              ],
              "SelectionStrategy": "RANDOMINDEPENDENT",
              "SelectionAmountScaled": true
            },
            "RecipientRewardAttributes": {
              "Rewards": [
                {
                  "Id": "302303563",
                  "Type": "emote",
                  "Name": "PridePaint",
                  "Description": "PridePaint",
                  "ImageURL": "https://static-cdn.jtvnw.net/emoticons/v1/302303563/3.0",
                  "OwnerID": "537206155",
                  "StartsAt": "2020-05-29T16:00:00Z"
                },
                {
                  "Id": "302303564",
                  "Type": "emote",
                  "Name": "PrideWorld",
                  "Description": "PrideWorld",
                  "ImageURL": "https://static-cdn.jtvnw.net/emoticons/v1/302303564/3.0",
                  "OwnerID": "537206155",
                  "StartsAt": "2020-05-29T16:00:00Z"
                },
                {
                  "Id": "302303565",
                  "Type": "emote",
                  "Name": "PrideCrown",
                  "Description": "PrideCrown",
                  "ImageURL": "https://static-cdn.jtvnw.net/emoticons/v1/302303565/3.0",
                  "OwnerID": "537206155",
                  "StartsAt": "2020-05-29T16:00:00Z"
                },
                {
                  "Id": "302303566",
                  "Type": "emote",
                  "Name": "PrideKoala",
                  "Description": "PrideKoala",
                  "ImageURL": "https://static-cdn.jtvnw.net/emoticons/v1/302303566/3.0",
                  "OwnerID": "537206155",
                  "StartsAt": "2020-05-29T16:00:00Z"
                },
                {
                  "Id": "302303567",
                  "Type": "emote",
                  "Name": "PrideHeyyy",
                  "Description": "PrideHeyyy",
                  "ImageURL": "https://static-cdn.jtvnw.net/emoticons/v1/302303567/3.0",
                  "OwnerID": "537206155",
                  "StartsAt": "2020-05-29T16:00:00Z"
                },
                {
                  "Id": "302303568",
                  "Type": "emote",
                  "Name": "PrideLove",
                  "Description": "PrideLove",
                  "ImageURL": "https://static-cdn.jtvnw.net/emoticons/v1/302303568/3.0",
                  "OwnerID": "537206155",
                  "StartsAt": "2020-05-29T16:00:00Z"
                },
                {
                  "Id": "302303569",
                  "Type": "emote",
                  "Name": "PrideStrong",
                  "Description": "PrideStrong",
                  "ImageURL": "https://static-cdn.jtvnw.net/emoticons/v1/302303569/3.0",
                  "OwnerID": "537206155",
                  "StartsAt": "2020-05-29T16:00:00Z"
                },
                {
                  "Id": "302303570",
                  "Type": "emote",
                  "Name": "PrideRise",
                  "Description": "PrideRise",
                  "ImageURL": "https://static-cdn.jtvnw.net/emoticons/v1/302303570/3.0",
                  "OwnerID": "537206155",
                  "StartsAt": "2020-05-29T16:00:00Z"
                },
                {
                  "Id": "302303573",
                  "Type": "emote",
                  "Name": "PrideHeartL",
                  "Description": "PrideHeartL",
                  "ImageURL": "https://static-cdn.jtvnw.net/emoticons/v1/302303573/3.0",
                  "OwnerID": "537206155",
                  "StartsAt": "2020-05-29T16:00:00Z"
                },
                {
                  "Id": "302303574",
                  "Type": "emote",
                  "Name": "PrideHeartR",
                  "Description": "PrideHeartR",
                  "ImageURL": "https://static-cdn.jtvnw.net/emoticons/v1/302303574/3.0",
                  "OwnerID": "537206155",
                  "StartsAt": "2020-05-29T16:00:00Z"
                },
                {
                  "Id": "302303576",
                  "Type": "emote",
                  "Name": "PrideLion",
                  "Description": "PrideLion",
                  "ImageURL": "https://static-cdn.jtvnw.net/emoticons/v1/302303576/3.0",
                  "OwnerID": "537206155",
                  "StartsAt": "2020-05-29T16:00:00Z"
                },
                {
                  "Id": "302303577",
                  "Type": "emote",
                  "Name": "PrideFlower",
                  "Description": "PrideFlower",
                  "ImageURL": "https://static-cdn.jtvnw.net/emoticons/v1/302303577/3.0",
                  "OwnerID": "537206155",
                  "StartsAt": "2020-05-29T16:00:00Z"
                },
                {
                  "Id": "302303578",
                  "Type": "emote",
                  "Name": "PridePenguin",
                  "Description": "PridePenguin",
                  "ImageURL": "https://static-cdn.jtvnw.net/emoticons/v1/302303578/3.0",
                  "OwnerID": "537206155",
                  "StartsAt": "2020-05-29T16:00:00Z"
                },
                {
                  "Id": "302303579",
                  "Type": "emote",
                  "Name": "PrideWave",
                  "Description": "PrideWave",
                  "ImageURL": "https://static-cdn.jtvnw.net/emoticons/v1/302303579/3.0",
                  "OwnerID": "537206155",
                  "StartsAt": "2020-05-29T16:00:00Z"
                },
                {
                  "Id": "302303580",
                  "Type": "emote",
                  "Name": "PrideUnicorn",
                  "Description": "PrideUnicorn",
                  "ImageURL": "https://static-cdn.jtvnw.net/emoticons/v1/302303580/3.0",
                  "OwnerID": "537206155",
                  "StartsAt": "2020-05-29T16:00:00Z"
                },
                {
                  "Id": "302303581",
                  "Type": "emote",
                  "Name": "PrideDragon",
                  "Description": "PrideDragon",
                  "ImageURL": "https://static-cdn.jtvnw.net/emoticons/v1/302303581/3.0",
                  "OwnerID": "537206155",
                  "StartsAt": "2020-05-29T16:00:00Z"
                },
                {
                  "Id": "302303582",
                  "Type": "emote",
                  "Name": "PrideToucan",
                  "Description": "PrideToucan",
                  "ImageURL": "https://static-cdn.jtvnw.net/emoticons/v1/302303582/3.0",
                  "OwnerID": "537206155",
                  "StartsAt": "2020-05-29T16:00:00Z"
                },
                {
                  "Id": "302303585",
                  "Type": "emote",
                  "Name": "PrideLGBTea",
                  "Description": "PrideLGBTea",
                  "ImageURL": "https://static-cdn.jtvnw.net/emoticons/v1/302303585/3.0",
                  "OwnerID": "537206155",
                  "StartsAt": "2020-05-29T16:00:00Z"
                },
                {
                  "Id": "302303587",
                  "Type": "emote",
                  "Name": "PrideRhino",
                  "Description": "PrideRhino",
                  "ImageURL": "https://static-cdn.jtvnw.net/emoticons/v1/302303587/3.0",
                  "OwnerID": "537206155",
                  "StartsAt": "2020-05-29T16:00:00Z"
                },
                {
                  "Id": "302303590",
                  "Type": "emote",
                  "Name": "PrideUwu",
                  "Description": "PrideUwu",
                  "ImageURL": "https://static-cdn.jtvnw.net/emoticons/v1/302303590/3.0",
                  "OwnerID": "537206155",
                  "StartsAt": "2020-05-29T16:00:00Z"
                },
                {
                  "Id": "302303593",
                  "Type": "emote",
                  "Name": "PrideLaugh",
                  "Description": "PrideLaugh",
                  "ImageURL": "https://static-cdn.jtvnw.net/emoticons/v1/302303593/3.0",
                  "OwnerID": "537206155",
                  "StartsAt": "2020-05-29T16:00:00Z"
                },
                {
                  "Id": "302303594",
                  "Type": "emote",
                  "Name": "PrideCute",
                  "Description": "PrideCute",
                  "ImageURL": "https://static-cdn.jtvnw.net/emoticons/v1/302303594/3.0",
                  "OwnerID": "537206155",
                  "StartsAt": "2020-05-29T16:00:00Z"
                },
                {
                  "Id": "302303596",
                  "Type": "emote",
                  "Name": "PridePog",
                  "Description": "PridePog",
                  "ImageURL": "https://static-cdn.jtvnw.net/emoticons/v1/302303596/3.0",
                  "OwnerID": "537206155",
                  "StartsAt": "2020-05-29T16:00:00Z"
                },
                {
                  "Id": "302303599",
                  "Type": "emote",
                  "Name": "PrideFloat",
                  "Description": "PrideFloat",
                  "ImageURL": "https://static-cdn.jtvnw.net/emoticons/v1/302303599/3.0",
                  "OwnerID": "537206155",
                  "StartsAt": "2020-05-29T16:00:00Z"
                },
                {
                  "Id": "302303601",
                  "Type": "emote",
                  "Name": "PrideShrug",
                  "Description": "PrideShrug",
                  "ImageURL": "https://static-cdn.jtvnw.net/emoticons/v1/302303601/3.0",
                  "OwnerID": "537206155",
                  "StartsAt": "2020-05-29T16:00:00Z"
                }
              ],
              "SelectionStrategy": "RANDOMINDEPENDENT",
              "SelectionAmountScaled": true
            }
          },
          {
            "Id": "pride_megacommerce_2020.megacheer.subscription.trigger",
            "Title": "pride_megacommerce_2020",
            "Description": "pride_megacommerce_2020",
            "TriggerAmountMin": 1,
            "TriggerAmountMax": 10000000,
            "TriggerType": "SUBSCRIPTION",
            "ActiveStartDate": "2020-06-16T20:00:00Z",
            "ActiveEndDate": "2020-07-16T06:59:59Z",
            "VisibleStartDate": "2020-06-16T20:00:00Z",
            "VisibleEndDate": "2020-07-16T06:59:59Z",
            "RecipientSelectionFormula": "holiday2019",
            "StaffOnly": true,
            "BenefactorRewardAttributes": {
              "Rewards": [
                {
                  "Id": "302303563",
                  "Type": "emote",
                  "Name": "PridePaint",
                  "Description": "PridePaint",
                  "ImageURL": "https://static-cdn.jtvnw.net/emoticons/v1/302303563/3.0",
                  "OwnerID": "537206155",
                  "StartsAt": "2020-05-29T16:00:00Z"
                },
                {
                  "Id": "302303564",
                  "Type": "emote",
                  "Name": "PrideWorld",
                  "Description": "PrideWorld",
                  "ImageURL": "https://static-cdn.jtvnw.net/emoticons/v1/302303564/3.0",
                  "OwnerID": "537206155",
                  "StartsAt": "2020-05-29T16:00:00Z"
                },
                {
                  "Id": "302303565",
                  "Type": "emote",
                  "Name": "PrideCrown",
                  "Description": "PrideCrown",
                  "ImageURL": "https://static-cdn.jtvnw.net/emoticons/v1/302303565/3.0",
                  "OwnerID": "537206155",
                  "StartsAt": "2020-05-29T16:00:00Z"
                },
                {
                  "Id": "302303566",
                  "Type": "emote",
                  "Name": "PrideKoala",
                  "Description": "PrideKoala",
                  "ImageURL": "https://static-cdn.jtvnw.net/emoticons/v1/302303566/3.0",
                  "OwnerID": "537206155",
                  "StartsAt": "2020-05-29T16:00:00Z"
                },
                {
                  "Id": "302303567",
                  "Type": "emote",
                  "Name": "PrideHeyyy",
                  "Description": "PrideHeyyy",
                  "ImageURL": "https://static-cdn.jtvnw.net/emoticons/v1/302303567/3.0",
                  "OwnerID": "537206155",
                  "StartsAt": "2020-05-29T16:00:00Z"
                },
                {
                  "Id": "302303568",
                  "Type": "emote",
                  "Name": "PrideLove",
                  "Description": "PrideLove",
                  "ImageURL": "https://static-cdn.jtvnw.net/emoticons/v1/302303568/3.0",
                  "OwnerID": "537206155",
                  "StartsAt": "2020-05-29T16:00:00Z"
                },
                {
                  "Id": "302303569",
                  "Type": "emote",
                  "Name": "PrideStrong",
                  "Description": "PrideStrong",
                  "ImageURL": "https://static-cdn.jtvnw.net/emoticons/v1/302303569/3.0",
                  "OwnerID": "537206155",
                  "StartsAt": "2020-05-29T16:00:00Z"
                },
                {
                  "Id": "302303570",
                  "Type": "emote",
                  "Name": "PrideRise",
                  "Description": "PrideRise",
                  "ImageURL": "https://static-cdn.jtvnw.net/emoticons/v1/302303570/3.0",
                  "OwnerID": "537206155",
                  "StartsAt": "2020-05-29T16:00:00Z"
                },
                {
                  "Id": "302303573",
                  "Type": "emote",
                  "Name": "PrideHeartL",
                  "Description": "PrideHeartL",
                  "ImageURL": "https://static-cdn.jtvnw.net/emoticons/v1/302303573/3.0",
                  "OwnerID": "537206155",
                  "StartsAt": "2020-05-29T16:00:00Z"
                },
                {
                  "Id": "302303574",
                  "Type": "emote",
                  "Name": "PrideHeartR",
                  "Description": "PrideHeartR",
                  "ImageURL": "https://static-cdn.jtvnw.net/emoticons/v1/302303574/3.0",
                  "OwnerID": "537206155",
                  "StartsAt": "2020-05-29T16:00:00Z"
                },
                {
                  "Id": "302303576",
                  "Type": "emote",
                  "Name": "PrideLion",
                  "Description": "PrideLion",
                  "ImageURL": "https://static-cdn.jtvnw.net/emoticons/v1/302303576/3.0",
                  "OwnerID": "537206155",
                  "StartsAt": "2020-05-29T16:00:00Z"
                },
                {
                  "Id": "302303577",
                  "Type": "emote",
                  "Name": "PrideFlower",
                  "Description": "PrideFlower",
                  "ImageURL": "https://static-cdn.jtvnw.net/emoticons/v1/302303577/3.0",
                  "OwnerID": "537206155",
                  "StartsAt": "2020-05-29T16:00:00Z"
                },
                {
                  "Id": "302303578",
                  "Type": "emote",
                  "Name": "PridePenguin",
                  "Description": "PridePenguin",
                  "ImageURL": "https://static-cdn.jtvnw.net/emoticons/v1/302303578/3.0",
                  "OwnerID": "537206155",
                  "StartsAt": "2020-05-29T16:00:00Z"
                },
                {
                  "Id": "302303579",
                  "Type": "emote",
                  "Name": "PrideWave",
                  "Description": "PrideWave",
                  "ImageURL": "https://static-cdn.jtvnw.net/emoticons/v1/302303579/3.0",
                  "OwnerID": "537206155",
                  "StartsAt": "2020-05-29T16:00:00Z"
                },
                {
                  "Id": "302303580",
                  "Type": "emote",
                  "Name": "PrideUnicorn",
                  "Description": "PrideUnicorn",
                  "ImageURL": "https://static-cdn.jtvnw.net/emoticons/v1/302303580/3.0",
                  "OwnerID": "537206155",
                  "StartsAt": "2020-05-29T16:00:00Z"
                },
                {
                  "Id": "302303581",
                  "Type": "emote",
                  "Name": "PrideDragon",
                  "Description": "PrideDragon",
                  "ImageURL": "https://static-cdn.jtvnw.net/emoticons/v1/302303581/3.0",
                  "OwnerID": "537206155",
                  "StartsAt": "2020-05-29T16:00:00Z"
                },
                {
                  "Id": "302303582",
                  "Type": "emote",
                  "Name": "PrideToucan",
                  "Description": "PrideToucan",
                  "ImageURL": "https://static-cdn.jtvnw.net/emoticons/v1/302303582/3.0",
                  "OwnerID": "537206155",
                  "StartsAt": "2020-05-29T16:00:00Z"
                },
                {
                  "Id": "302303585",
                  "Type": "emote",
                  "Name": "PrideLGBTea",
                  "Description": "PrideLGBTea",
                  "ImageURL": "https://static-cdn.jtvnw.net/emoticons/v1/302303585/3.0",
                  "OwnerID": "537206155",
                  "StartsAt": "2020-05-29T16:00:00Z"
                },
                {
                  "Id": "302303587",
                  "Type": "emote",
                  "Name": "PrideRhino",
                  "Description": "PrideRhino",
                  "ImageURL": "https://static-cdn.jtvnw.net/emoticons/v1/302303587/3.0",
                  "OwnerID": "537206155",
                  "StartsAt": "2020-05-29T16:00:00Z"
                },
                {
                  "Id": "302303590",
                  "Type": "emote",
                  "Name": "PrideUwu",
                  "Description": "PrideUwu",
                  "ImageURL": "https://static-cdn.jtvnw.net/emoticons/v1/302303590/3.0",
                  "OwnerID": "537206155",
                  "StartsAt": "2020-05-29T16:00:00Z"
                },
                {
                  "Id": "302303593",
                  "Type": "emote",
                  "Name": "PrideLaugh",
                  "Description": "PrideLaugh",
                  "ImageURL": "https://static-cdn.jtvnw.net/emoticons/v1/302303593/3.0",
                  "OwnerID": "537206155",
                  "StartsAt": "2020-05-29T16:00:00Z"
                },
                {
                  "Id": "302303594",
                  "Type": "emote",
                  "Name": "PrideCute",
                  "Description": "PrideCute",
                  "ImageURL": "https://static-cdn.jtvnw.net/emoticons/v1/302303594/3.0",
                  "OwnerID": "537206155",
                  "StartsAt": "2020-05-29T16:00:00Z"
                },
                {
                  "Id": "302303596",
                  "Type": "emote",
                  "Name": "PridePog",
                  "Description": "PridePog",
                  "ImageURL": "https://static-cdn.jtvnw.net/emoticons/v1/302303596/3.0",
                  "OwnerID": "537206155",
                  "StartsAt": "2020-05-29T16:00:00Z"
                },
                {
                  "Id": "302303599",
                  "Type": "emote",
                  "Name": "PrideFloat",
                  "Description": "PrideFloat",
                  "ImageURL": "https://static-cdn.jtvnw.net/emoticons/v1/302303599/3.0",
                  "OwnerID": "537206155",
                  "StartsAt": "2020-05-29T16:00:00Z"
                },
                {
                  "Id": "302303601",
                  "Type": "emote",
                  "Name": "PrideShrug",
                  "Description": "PrideShrug",
                  "ImageURL": "https://static-cdn.jtvnw.net/emoticons/v1/302303601/3.0",
                  "OwnerID": "537206155",
                  "StartsAt": "2020-05-29T16:00:00Z"
                }
              ],
              "SelectionStrategy": "RANDOMINDEPENDENT",
              "SelectionAmountScaled": true
            },
            "RecipientRewardAttributes": {
              "Rewards": [
                {
                  "Id": "302303563",
                  "Type": "emote",
                  "Name": "PridePaint",
                  "Description": "PridePaint",
                  "ImageURL": "https://static-cdn.jtvnw.net/emoticons/v1/302303563/3.0",
                  "OwnerID": "537206155",
                  "StartsAt": "2020-05-29T16:00:00Z"
                },
                {
                  "Id": "302303564",
                  "Type": "emote",
                  "Name": "PrideWorld",
                  "Description": "PrideWorld",
                  "ImageURL": "https://static-cdn.jtvnw.net/emoticons/v1/302303564/3.0",
                  "OwnerID": "537206155",
                  "StartsAt": "2020-05-29T16:00:00Z"
                },
                {
                  "Id": "302303565",
                  "Type": "emote",
                  "Name": "PrideCrown",
                  "Description": "PrideCrown",
                  "ImageURL": "https://static-cdn.jtvnw.net/emoticons/v1/302303565/3.0",
                  "OwnerID": "537206155",
                  "StartsAt": "2020-05-29T16:00:00Z"
                },
                {
                  "Id": "302303566",
                  "Type": "emote",
                  "Name": "PrideKoala",
                  "Description": "PrideKoala",
                  "ImageURL": "https://static-cdn.jtvnw.net/emoticons/v1/302303566/3.0",
                  "OwnerID": "537206155",
                  "StartsAt": "2020-05-29T16:00:00Z"
                },
                {
                  "Id": "302303567",
                  "Type": "emote",
                  "Name": "PrideHeyyy",
                  "Description": "PrideHeyyy",
                  "ImageURL": "https://static-cdn.jtvnw.net/emoticons/v1/302303567/3.0",
                  "OwnerID": "537206155",
                  "StartsAt": "2020-05-29T16:00:00Z"
                },
                {
                  "Id": "302303568",
                  "Type": "emote",
                  "Name": "PrideLove",
                  "Description": "PrideLove",
                  "ImageURL": "https://static-cdn.jtvnw.net/emoticons/v1/302303568/3.0",
                  "OwnerID": "537206155",
                  "StartsAt": "2020-05-29T16:00:00Z"
                },
                {
                  "Id": "302303569",
                  "Type": "emote",
                  "Name": "PrideStrong",
                  "Description": "PrideStrong",
                  "ImageURL": "https://static-cdn.jtvnw.net/emoticons/v1/302303569/3.0",
                  "OwnerID": "537206155",
                  "StartsAt": "2020-05-29T16:00:00Z"
                },
                {
                  "Id": "302303570",
                  "Type": "emote",
                  "Name": "PrideRise",
                  "Description": "PrideRise",
                  "ImageURL": "https://static-cdn.jtvnw.net/emoticons/v1/302303570/3.0",
                  "OwnerID": "537206155",
                  "StartsAt": "2020-05-29T16:00:00Z"
                },
                {
                  "Id": "302303573",
                  "Type": "emote",
                  "Name": "PrideHeartL",
                  "Description": "PrideHeartL",
                  "ImageURL": "https://static-cdn.jtvnw.net/emoticons/v1/302303573/3.0",
                  "OwnerID": "537206155",
                  "StartsAt": "2020-05-29T16:00:00Z"
                },
                {
                  "Id": "302303574",
                  "Type": "emote",
                  "Name": "PrideHeartR",
                  "Description": "PrideHeartR",
                  "ImageURL": "https://static-cdn.jtvnw.net/emoticons/v1/302303574/3.0",
                  "OwnerID": "537206155",
                  "StartsAt": "2020-05-29T16:00:00Z"
                },
                {
                  "Id": "302303576",
                  "Type": "emote",
                  "Name": "PrideLion",
                  "Description": "PrideLion",
                  "ImageURL": "https://static-cdn.jtvnw.net/emoticons/v1/302303576/3.0",
                  "OwnerID": "537206155",
                  "StartsAt": "2020-05-29T16:00:00Z"
                },
                {
                  "Id": "302303577",
                  "Type": "emote",
                  "Name": "PrideFlower",
                  "Description": "PrideFlower",
                  "ImageURL": "https://static-cdn.jtvnw.net/emoticons/v1/302303577/3.0",
                  "OwnerID": "537206155",
                  "StartsAt": "2020-05-29T16:00:00Z"
                },
                {
                  "Id": "302303578",
                  "Type": "emote",
                  "Name": "PridePenguin",
                  "Description": "PridePenguin",
                  "ImageURL": "https://static-cdn.jtvnw.net/emoticons/v1/302303578/3.0",
                  "OwnerID": "537206155",
                  "StartsAt": "2020-05-29T16:00:00Z"
                },
                {
                  "Id": "302303579",
                  "Type": "emote",
                  "Name": "PrideWave",
                  "Description": "PrideWave",
                  "ImageURL": "https://static-cdn.jtvnw.net/emoticons/v1/302303579/3.0",
                  "OwnerID": "537206155",
                  "StartsAt": "2020-05-29T16:00:00Z"
                },
                {
                  "Id": "302303580",
                  "Type": "emote",
                  "Name": "PrideUnicorn",
                  "Description": "PrideUnicorn",
                  "ImageURL": "https://static-cdn.jtvnw.net/emoticons/v1/302303580/3.0",
                  "OwnerID": "537206155",
                  "StartsAt": "2020-05-29T16:00:00Z"
                },
                {
                  "Id": "302303581",
                  "Type": "emote",
                  "Name": "PrideDragon",
                  "Description": "PrideDragon",
                  "ImageURL": "https://static-cdn.jtvnw.net/emoticons/v1/302303581/3.0",
                  "OwnerID": "537206155",
                  "StartsAt": "2020-05-29T16:00:00Z"
                },
                {
                  "Id": "302303582",
                  "Type": "emote",
                  "Name": "PrideToucan",
                  "Description": "PrideToucan",
                  "ImageURL": "https://static-cdn.jtvnw.net/emoticons/v1/302303582/3.0",
                  "OwnerID": "537206155",
                  "StartsAt": "2020-05-29T16:00:00Z"
                },
                {
                  "Id": "302303585",
                  "Type": "emote",
                  "Name": "PrideLGBTea",
                  "Description": "PrideLGBTea",
                  "ImageURL": "https://static-cdn.jtvnw.net/emoticons/v1/302303585/3.0",
                  "OwnerID": "537206155",
                  "StartsAt": "2020-05-29T16:00:00Z"
                },
                {
                  "Id": "302303587",
                  "Type": "emote",
                  "Name": "PrideRhino",
                  "Description": "PrideRhino",
                  "ImageURL": "https://static-cdn.jtvnw.net/emoticons/v1/302303587/3.0",
                  "OwnerID": "537206155",
                  "StartsAt": "2020-05-29T16:00:00Z"
                },
                {
                  "Id": "302303590",
                  "Type": "emote",
                  "Name": "PrideUwu",
                  "Description": "PrideUwu",
                  "ImageURL": "https://static-cdn.jtvnw.net/emoticons/v1/302303590/3.0",
                  "OwnerID": "537206155",
                  "StartsAt": "2020-05-29T16:00:00Z"
                },
                {
                  "Id": "302303593",
                  "Type": "emote",
                  "Name": "PrideLaugh",
                  "Description": "PrideLaugh",
                  "ImageURL": "https://static-cdn.jtvnw.net/emoticons/v1/302303593/3.0",
                  "OwnerID": "537206155",
                  "StartsAt": "2020-05-29T16:00:00Z"
                },
                {
                  "Id": "302303594",
                  "Type": "emote",
                  "Name": "PrideCute",
                  "Description": "PrideCute",
                  "ImageURL": "https://static-cdn.jtvnw.net/emoticons/v1/302303594/3.0",
                  "OwnerID": "537206155",
                  "StartsAt": "2020-05-29T16:00:00Z"
                },
                {
                  "Id": "302303596",
                  "Type": "emote",
                  "Name": "PridePog",
                  "Description": "PridePog",
                  "ImageURL": "https://static-cdn.jtvnw.net/emoticons/v1/302303596/3.0",
                  "OwnerID": "537206155",
                  "StartsAt": "2020-05-29T16:00:00Z"
                },
                {
                  "Id": "302303599",
                  "Type": "emote",
                  "Name": "PrideFloat",
                  "Description": "PrideFloat",
                  "ImageURL": "https://static-cdn.jtvnw.net/emoticons/v1/302303599/3.0",
                  "OwnerID": "537206155",
                  "StartsAt": "2020-05-29T16:00:00Z"
                },
                {
                  "Id": "302303601",
                  "Type": "emote",
                  "Name": "PrideShrug",
                  "Description": "PrideShrug",
                  "ImageURL": "https://static-cdn.jtvnw.net/emoticons/v1/302303601/3.0",
                  "OwnerID": "537206155",
                  "StartsAt": "2020-05-29T16:00:00Z"
                }
              ],
              "SelectionStrategy": "RANDOMINDEPENDENT",
              "SelectionAmountScaled": true
            }
          },
          {
            "Id": "pride_megacommerce_2020.megacheer.subgift.trigger",
            "Title": "pride_megacommerce_2020",
            "Description": "pride_megacommerce_2020",
            "TriggerAmountMin": 1,
            "TriggerAmountMax": 10000000,
            "TriggerType": "SUBGIFT",
            "ActiveStartDate": "2020-06-16T20:00:00Z",
            "ActiveEndDate": "2020-07-16T06:59:59Z",
            "VisibleStartDate": "2020-06-16T20:00:00Z",
            "VisibleEndDate": "2020-07-16T06:59:59Z",
            "RecipientSelectionFormula": "holiday2019",
            "StaffOnly": true,
            "BenefactorRewardAttributes": {
              "Rewards": [
                {
                  "Id": "302303563",
                  "Type": "emote",
                  "Name": "PridePaint",
                  "Description": "PridePaint",
                  "ImageURL": "https://static-cdn.jtvnw.net/emoticons/v1/302303563/3.0",
                  "OwnerID": "537206155",
                  "StartsAt": "2020-05-29T16:00:00Z"
                },
                {
                  "Id": "302303564",
                  "Type": "emote",
                  "Name": "PrideWorld",
                  "Description": "PrideWorld",
                  "ImageURL": "https://static-cdn.jtvnw.net/emoticons/v1/302303564/3.0",
                  "OwnerID": "537206155",
                  "StartsAt": "2020-05-29T16:00:00Z"
                },
                {
                  "Id": "302303565",
                  "Type": "emote",
                  "Name": "PrideCrown",
                  "Description": "PrideCrown",
                  "ImageURL": "https://static-cdn.jtvnw.net/emoticons/v1/302303565/3.0",
                  "OwnerID": "537206155",
                  "StartsAt": "2020-05-29T16:00:00Z"
                },
                {
                  "Id": "302303566",
                  "Type": "emote",
                  "Name": "PrideKoala",
                  "Description": "PrideKoala",
                  "ImageURL": "https://static-cdn.jtvnw.net/emoticons/v1/302303566/3.0",
                  "OwnerID": "537206155",
                  "StartsAt": "2020-05-29T16:00:00Z"
                },
                {
                  "Id": "302303567",
                  "Type": "emote",
                  "Name": "PrideHeyyy",
                  "Description": "PrideHeyyy",
                  "ImageURL": "https://static-cdn.jtvnw.net/emoticons/v1/302303567/3.0",
                  "OwnerID": "537206155",
                  "StartsAt": "2020-05-29T16:00:00Z"
                },
                {
                  "Id": "302303568",
                  "Type": "emote",
                  "Name": "PrideLove",
                  "Description": "PrideLove",
                  "ImageURL": "https://static-cdn.jtvnw.net/emoticons/v1/302303568/3.0",
                  "OwnerID": "537206155",
                  "StartsAt": "2020-05-29T16:00:00Z"
                },
                {
                  "Id": "302303569",
                  "Type": "emote",
                  "Name": "PrideStrong",
                  "Description": "PrideStrong",
                  "ImageURL": "https://static-cdn.jtvnw.net/emoticons/v1/302303569/3.0",
                  "OwnerID": "537206155",
                  "StartsAt": "2020-05-29T16:00:00Z"
                },
                {
                  "Id": "302303570",
                  "Type": "emote",
                  "Name": "PrideRise",
                  "Description": "PrideRise",
                  "ImageURL": "https://static-cdn.jtvnw.net/emoticons/v1/302303570/3.0",
                  "OwnerID": "537206155",
                  "StartsAt": "2020-05-29T16:00:00Z"
                },
                {
                  "Id": "302303573",
                  "Type": "emote",
                  "Name": "PrideHeartL",
                  "Description": "PrideHeartL",
                  "ImageURL": "https://static-cdn.jtvnw.net/emoticons/v1/302303573/3.0",
                  "OwnerID": "537206155",
                  "StartsAt": "2020-05-29T16:00:00Z"
                },
                {
                  "Id": "302303574",
                  "Type": "emote",
                  "Name": "PrideHeartR",
                  "Description": "PrideHeartR",
                  "ImageURL": "https://static-cdn.jtvnw.net/emoticons/v1/302303574/3.0",
                  "OwnerID": "537206155",
                  "StartsAt": "2020-05-29T16:00:00Z"
                },
                {
                  "Id": "302303576",
                  "Type": "emote",
                  "Name": "PrideLion",
                  "Description": "PrideLion",
                  "ImageURL": "https://static-cdn.jtvnw.net/emoticons/v1/302303576/3.0",
                  "OwnerID": "537206155",
                  "StartsAt": "2020-05-29T16:00:00Z"
                },
                {
                  "Id": "302303577",
                  "Type": "emote",
                  "Name": "PrideFlower",
                  "Description": "PrideFlower",
                  "ImageURL": "https://static-cdn.jtvnw.net/emoticons/v1/302303577/3.0",
                  "OwnerID": "537206155",
                  "StartsAt": "2020-05-29T16:00:00Z"
                },
                {
                  "Id": "302303578",
                  "Type": "emote",
                  "Name": "PridePenguin",
                  "Description": "PridePenguin",
                  "ImageURL": "https://static-cdn.jtvnw.net/emoticons/v1/302303578/3.0",
                  "OwnerID": "537206155",
                  "StartsAt": "2020-05-29T16:00:00Z"
                },
                {
                  "Id": "302303579",
                  "Type": "emote",
                  "Name": "PrideWave",
                  "Description": "PrideWave",
                  "ImageURL": "https://static-cdn.jtvnw.net/emoticons/v1/302303579/3.0",
                  "OwnerID": "537206155",
                  "StartsAt": "2020-05-29T16:00:00Z"
                },
                {
                  "Id": "302303580",
                  "Type": "emote",
                  "Name": "PrideUnicorn",
                  "Description": "PrideUnicorn",
                  "ImageURL": "https://static-cdn.jtvnw.net/emoticons/v1/302303580/3.0",
                  "OwnerID": "537206155",
                  "StartsAt": "2020-05-29T16:00:00Z"
                },
                {
                  "Id": "302303581",
                  "Type": "emote",
                  "Name": "PrideDragon",
                  "Description": "PrideDragon",
                  "ImageURL": "https://static-cdn.jtvnw.net/emoticons/v1/302303581/3.0",
                  "OwnerID": "537206155",
                  "StartsAt": "2020-05-29T16:00:00Z"
                },
                {
                  "Id": "302303582",
                  "Type": "emote",
                  "Name": "PrideToucan",
                  "Description": "PrideToucan",
                  "ImageURL": "https://static-cdn.jtvnw.net/emoticons/v1/302303582/3.0",
                  "OwnerID": "537206155",
                  "StartsAt": "2020-05-29T16:00:00Z"
                },
                {
                  "Id": "302303585",
                  "Type": "emote",
                  "Name": "PrideLGBTea",
                  "Description": "PrideLGBTea",
                  "ImageURL": "https://static-cdn.jtvnw.net/emoticons/v1/302303585/3.0",
                  "OwnerID": "537206155",
                  "StartsAt": "2020-05-29T16:00:00Z"
                },
                {
                  "Id": "302303587",
                  "Type": "emote",
                  "Name": "PrideRhino",
                  "Description": "PrideRhino",
                  "ImageURL": "https://static-cdn.jtvnw.net/emoticons/v1/302303587/3.0",
                  "OwnerID": "537206155",
                  "StartsAt": "2020-05-29T16:00:00Z"
                },
                {
                  "Id": "302303590",
                  "Type": "emote",
                  "Name": "PrideUwu",
                  "Description": "PrideUwu",
                  "ImageURL": "https://static-cdn.jtvnw.net/emoticons/v1/302303590/3.0",
                  "OwnerID": "537206155",
                  "StartsAt": "2020-05-29T16:00:00Z"
                },
                {
                  "Id": "302303593",
                  "Type": "emote",
                  "Name": "PrideLaugh",
                  "Description": "PrideLaugh",
                  "ImageURL": "https://static-cdn.jtvnw.net/emoticons/v1/302303593/3.0",
                  "OwnerID": "537206155",
                  "StartsAt": "2020-05-29T16:00:00Z"
                },
                {
                  "Id": "302303594",
                  "Type": "emote",
                  "Name": "PrideCute",
                  "Description": "PrideCute",
                  "ImageURL": "https://static-cdn.jtvnw.net/emoticons/v1/302303594/3.0",
                  "OwnerID": "537206155",
                  "StartsAt": "2020-05-29T16:00:00Z"
                },
                {
                  "Id": "302303596",
                  "Type": "emote",
                  "Name": "PridePog",
                  "Description": "PridePog",
                  "ImageURL": "https://static-cdn.jtvnw.net/emoticons/v1/302303596/3.0",
                  "OwnerID": "537206155",
                  "StartsAt": "2020-05-29T16:00:00Z"
                },
                {
                  "Id": "302303599",
                  "Type": "emote",
                  "Name": "PrideFloat",
                  "Description": "PrideFloat",
                  "ImageURL": "https://static-cdn.jtvnw.net/emoticons/v1/302303599/3.0",
                  "OwnerID": "537206155",
                  "StartsAt": "2020-05-29T16:00:00Z"
                },
                {
                  "Id": "302303601",
                  "Type": "emote",
                  "Name": "PrideShrug",
                  "Description": "PrideShrug",
                  "ImageURL": "https://static-cdn.jtvnw.net/emoticons/v1/302303601/3.0",
                  "OwnerID": "537206155",
                  "StartsAt": "2020-05-29T16:00:00Z"
                }
              ],
              "SelectionStrategy": "RANDOMINDEPENDENT",
              "SelectionAmountScaled": true
            },
            "RecipientRewardAttributes": {
              "Rewards": [
                {
                  "Id": "302303563",
                  "Type": "emote",
                  "Name": "PridePaint",
                  "Description": "PridePaint",
                  "ImageURL": "https://static-cdn.jtvnw.net/emoticons/v1/302303563/3.0",
                  "OwnerID": "537206155",
                  "StartsAt": "2020-05-29T16:00:00Z"
                },
                {
                  "Id": "302303564",
                  "Type": "emote",
                  "Name": "PrideWorld",
                  "Description": "PrideWorld",
                  "ImageURL": "https://static-cdn.jtvnw.net/emoticons/v1/302303564/3.0",
                  "OwnerID": "537206155",
                  "StartsAt": "2020-05-29T16:00:00Z"
                },
                {
                  "Id": "302303565",
                  "Type": "emote",
                  "Name": "PrideCrown",
                  "Description": "PrideCrown",
                  "ImageURL": "https://static-cdn.jtvnw.net/emoticons/v1/302303565/3.0",
                  "OwnerID": "537206155",
                  "StartsAt": "2020-05-29T16:00:00Z"
                },
                {
                  "Id": "302303566",
                  "Type": "emote",
                  "Name": "PrideKoala",
                  "Description": "PrideKoala",
                  "ImageURL": "https://static-cdn.jtvnw.net/emoticons/v1/302303566/3.0",
                  "OwnerID": "537206155",
                  "StartsAt": "2020-05-29T16:00:00Z"
                },
                {
                  "Id": "302303567",
                  "Type": "emote",
                  "Name": "PrideHeyyy",
                  "Description": "PrideHeyyy",
                  "ImageURL": "https://static-cdn.jtvnw.net/emoticons/v1/302303567/3.0",
                  "OwnerID": "537206155",
                  "StartsAt": "2020-05-29T16:00:00Z"
                },
                {
                  "Id": "302303568",
                  "Type": "emote",
                  "Name": "PrideLove",
                  "Description": "PrideLove",
                  "ImageURL": "https://static-cdn.jtvnw.net/emoticons/v1/302303568/3.0",
                  "OwnerID": "537206155",
                  "StartsAt": "2020-05-29T16:00:00Z"
                },
                {
                  "Id": "302303569",
                  "Type": "emote",
                  "Name": "PrideStrong",
                  "Description": "PrideStrong",
                  "ImageURL": "https://static-cdn.jtvnw.net/emoticons/v1/302303569/3.0",
                  "OwnerID": "537206155",
                  "StartsAt": "2020-05-29T16:00:00Z"
                },
                {
                  "Id": "302303570",
                  "Type": "emote",
                  "Name": "PrideRise",
                  "Description": "PrideRise",
                  "ImageURL": "https://static-cdn.jtvnw.net/emoticons/v1/302303570/3.0",
                  "OwnerID": "537206155",
                  "StartsAt": "2020-05-29T16:00:00Z"
                },
                {
                  "Id": "302303573",
                  "Type": "emote",
                  "Name": "PrideHeartL",
                  "Description": "PrideHeartL",
                  "ImageURL": "https://static-cdn.jtvnw.net/emoticons/v1/302303573/3.0",
                  "OwnerID": "537206155",
                  "StartsAt": "2020-05-29T16:00:00Z"
                },
                {
                  "Id": "302303574",
                  "Type": "emote",
                  "Name": "PrideHeartR",
                  "Description": "PrideHeartR",
                  "ImageURL": "https://static-cdn.jtvnw.net/emoticons/v1/302303574/3.0",
                  "OwnerID": "537206155",
                  "StartsAt": "2020-05-29T16:00:00Z"
                },
                {
                  "Id": "302303576",
                  "Type": "emote",
                  "Name": "PrideLion",
                  "Description": "PrideLion",
                  "ImageURL": "https://static-cdn.jtvnw.net/emoticons/v1/302303576/3.0",
                  "OwnerID": "537206155",
                  "StartsAt": "2020-05-29T16:00:00Z"
                },
                {
                  "Id": "302303577",
                  "Type": "emote",
                  "Name": "PrideFlower",
                  "Description": "PrideFlower",
                  "ImageURL": "https://static-cdn.jtvnw.net/emoticons/v1/302303577/3.0",
                  "OwnerID": "537206155",
                  "StartsAt": "2020-05-29T16:00:00Z"
                },
                {
                  "Id": "302303578",
                  "Type": "emote",
                  "Name": "PridePenguin",
                  "Description": "PridePenguin",
                  "ImageURL": "https://static-cdn.jtvnw.net/emoticons/v1/302303578/3.0",
                  "OwnerID": "537206155",
                  "StartsAt": "2020-05-29T16:00:00Z"
                },
                {
                  "Id": "302303579",
                  "Type": "emote",
                  "Name": "PrideWave",
                  "Description": "PrideWave",
                  "ImageURL": "https://static-cdn.jtvnw.net/emoticons/v1/302303579/3.0",
                  "OwnerID": "537206155",
                  "StartsAt": "2020-05-29T16:00:00Z"
                },
                {
                  "Id": "302303580",
                  "Type": "emote",
                  "Name": "PrideUnicorn",
                  "Description": "PrideUnicorn",
                  "ImageURL": "https://static-cdn.jtvnw.net/emoticons/v1/302303580/3.0",
                  "OwnerID": "537206155",
                  "StartsAt": "2020-05-29T16:00:00Z"
                },
                {
                  "Id": "302303581",
                  "Type": "emote",
                  "Name": "PrideDragon",
                  "Description": "PrideDragon",
                  "ImageURL": "https://static-cdn.jtvnw.net/emoticons/v1/302303581/3.0",
                  "OwnerID": "537206155",
                  "StartsAt": "2020-05-29T16:00:00Z"
                },
                {
                  "Id": "302303582",
                  "Type": "emote",
                  "Name": "PrideToucan",
                  "Description": "PrideToucan",
                  "ImageURL": "https://static-cdn.jtvnw.net/emoticons/v1/302303582/3.0",
                  "OwnerID": "537206155",
                  "StartsAt": "2020-05-29T16:00:00Z"
                },
                {
                  "Id": "302303585",
                  "Type": "emote",
                  "Name": "PrideLGBTea",
                  "Description": "PrideLGBTea",
                  "ImageURL": "https://static-cdn.jtvnw.net/emoticons/v1/302303585/3.0",
                  "OwnerID": "537206155",
                  "StartsAt": "2020-05-29T16:00:00Z"
                },
                {
                  "Id": "302303587",
                  "Type": "emote",
                  "Name": "PrideRhino",
                  "Description": "PrideRhino",
                  "ImageURL": "https://static-cdn.jtvnw.net/emoticons/v1/302303587/3.0",
                  "OwnerID": "537206155",
                  "StartsAt": "2020-05-29T16:00:00Z"
                },
                {
                  "Id": "302303590",
                  "Type": "emote",
                  "Name": "PrideUwu",
                  "Description": "PrideUwu",
                  "ImageURL": "https://static-cdn.jtvnw.net/emoticons/v1/302303590/3.0",
                  "OwnerID": "537206155",
                  "StartsAt": "2020-05-29T16:00:00Z"
                },
                {
                  "Id": "302303593",
                  "Type": "emote",
                  "Name": "PrideLaugh",
                  "Description": "PrideLaugh",
                  "ImageURL": "https://static-cdn.jtvnw.net/emoticons/v1/302303593/3.0",
                  "OwnerID": "537206155",
                  "StartsAt": "2020-05-29T16:00:00Z"
                },
                {
                  "Id": "302303594",
                  "Type": "emote",
                  "Name": "PrideCute",
                  "Description": "PrideCute",
                  "ImageURL": "https://static-cdn.jtvnw.net/emoticons/v1/302303594/3.0",
                  "OwnerID": "537206155",
                  "StartsAt": "2020-05-29T16:00:00Z"
                },
                {
                  "Id": "302303596",
                  "Type": "emote",
                  "Name": "PridePog",
                  "Description": "PridePog",
                  "ImageURL": "https://static-cdn.jtvnw.net/emoticons/v1/302303596/3.0",
                  "OwnerID": "537206155",
                  "StartsAt": "2020-05-29T16:00:00Z"
                },
                {
                  "Id": "302303599",
                  "Type": "emote",
                  "Name": "PrideFloat",
                  "Description": "PrideFloat",
                  "ImageURL": "https://static-cdn.jtvnw.net/emoticons/v1/302303599/3.0",
                  "OwnerID": "537206155",
                  "StartsAt": "2020-05-29T16:00:00Z"
                },
                {
                  "Id": "302303601",
                  "Type": "emote",
                  "Name": "PrideShrug",
                  "Description": "PrideShrug",
                  "ImageURL": "https://static-cdn.jtvnw.net/emoticons/v1/302303601/3.0",
                  "OwnerID": "537206155",
                  "StartsAt": "2020-05-29T16:00:00Z"
                }
              ],
              "SelectionStrategy": "RANDOMINDEPENDENT",
              "SelectionAmountScaled": true
            }
          }
        ]
      }
    ]
  }
}