{
    "type": "metric",
    "x": 0,
    "y": <VERTICAL-OFFSET>,
    "width": 12,
    "height": 6,
    "properties": {
        "metrics": [
            [ "<SERVICE>", "twirp.<TWIRP-API>.response", "Service", "<SERVICE>", "Stage", "<STAGE>", "Region", "<REGION>", { "label": "Average", "stat": "Average"} ],
            [ "...", { "stat": "p90",   "label": "p90" } ],
            [ "...", { "stat": "p99",   "label": "p99" } ],
            [ "...", { "stat": "p99.9", "label": "p99.9" , "visible": <HIGH-PERCENTILE-VISIBLE> } ],
            [ "...", { "stat": "p99.99", "label": "p99.99", "visible": <HIGH-PERCENTILE-VISIBLE> } ]
        ],
        "view": "timeSeries",
        "stacked": false,
        "region": "<REGION>",
        "stat": "Maximum",
        "period": 300,
        "title": "<TWIRP-API> Latency",
        "yAxis": {
            "left": {
                "min": 0
            }
        }
    }
},
{
    "type": "metric",
    "x": 12,
    "y": <VERTICAL-OFFSET>,
    "width": 12,
    "height": 6,
    "properties": {
        "metrics": [
            [ "<SERVICE>", "twirp.status_codes.<TWIRP-API>.200",      "Service", "<SERVICE>", "Stage", "<STAGE>", "Region", "<REGION>", { "label": "2xx", "id": "m1" } ],
            [ ".", "twirp.status_codes.<TWIRP-API>.400",              "Service", "<SERVICE>", "Stage", "<STAGE>", "Region", "<REGION>",{ "label": "4xx", "id": "m2" } ],
            [ ".", "twirp.status_codes.<TWIRP-API>.500",              "Service", "<SERVICE>", "Stage", "<STAGE>", "Region", "<REGION>", { "label": "5xx", "id": "m3" } ],
            [ { "expression": "(m1+m2)/(m1+m2+m3)*100",  "label": "Success rate", "id": "e1", "yAxis": "right", "color": "#bcbd22", "region": "<REGION>", "period": 300 } ]
        ],
        "view": "timeSeries",
        "stacked": false,
        "region": "<REGION>",
        "stat": "Sum",
        "period": 300,
        "title": "<TWIRP-API> Status Codes",
        "yAxis": {
            "left": {
                "min": 0
            },
            "right": {
                "showUnits": false,
                "label": "Percent",
                "max": 100
            }
        },
        "annotations": {
            "horizontal": [
                {
                    "color": "#e377c2",
                    "label": "bar",
                    "value": 99.9,
                    "yAxis": "right"
                }
            ]
        }
    }
}
