{
	"_type": "export",
	"__export_format": 3,
	"__export_source": "protoc-gen-insomniaenv",
	"resources": [
		{
			"_type": "workspace",
			"_id": "workspace-rpc/pachinko-service.proto-code.justin.tv.commerce.pachinko",
			"parentId": null,
			"name": "Rpc/Pachinko-Service"
		},
		{
			"_type": "environment",
			"_id": "BaseEnvironment",
			"parentId": "workspace-rpc/pachinko-service.proto-code.justin.tv.commerce.pachinko",
			"name": "Base",
			"data": {}
		},
		{
			"_type": "environment",
			"_id": "LocalhostHttps",
			"parentId": "BaseEnvironment",
			"name": "Localhost - Https",
			"data": {
				"base_url": "https://localhost:8000"
			}
		},
		{
			"_type": "environment",
			"_id": "LocalhostHttp",
			"parentId": "BaseEnvironment",
			"name": "Localhost - Http",
			"data": {
				"base_url": "http://localhost:8000"
			}
		},
		{
			"_type": "request_group",
			"_id": "request_group-Pachinko",
			"parentId": "workspace-rpc/pachinko-service.proto-code.justin.tv.commerce.pachinko",
			"name": "Pachinko",
			"environment": {
				"Pachinko": "{{ base_url }}/twirp/code.justin.tv.commerce.pachinko.Pachinko/"
			}
		},
		{
			"_type": "request",
			"_id": "request-Pachinko-AddTokens",
			"parentId": "request_group-Pachinko",
			"name": "AddTokens",
			"method": "POST",
			"url": "{{Pachinko}}AddTokens",
			"headers": [
				{
					"name": "Content-Type",
					"value": "application/json"
				}
			],
			"body": {
				"mimeType": "application/json",
				"text": "{\n\t\"token\": {\n\t\t\"ownerId\": \"HSiQEmasYj\",\n\t\t\"groupId\": \"FQVvbJDXPD\",\n\t\t\"domain\": \"BITS\",\n\t\t\"quantity\": -51,\n\t\t\"status\": \"FROZEN\"\n\t},\n\t\"transactionId\": \"ZJUXVziIZV\"\n}"
			}
		},
		{
			"_type": "request",
			"_id": "request-Pachinko-AsyncAddTokens",
			"parentId": "request_group-Pachinko",
			"name": "AsyncAddTokens",
			"method": "POST",
			"url": "{{Pachinko}}AsyncAddTokens",
			"headers": [
				{
					"name": "Content-Type",
					"value": "application/json"
				}
			],
			"body": {
				"mimeType": "application/json",
				"text": "{\n\t\"token\": {\n\t\t\"ownerId\": \"wsDolxCBfP\",\n\t\t\"groupId\": \"caaoTPuSud\",\n\t\t\"domain\": \"STICKER\",\n\t\t\"quantity\": 469,\n\t\t\"status\": \"FROZEN\"\n\t},\n\t\"transactionId\": \"mlkkaFBCCm\"\n}"
			}
		},
		{
			"_type": "request",
			"_id": "request-Pachinko-GetTokens",
			"parentId": "request_group-Pachinko",
			"name": "GetTokens",
			"method": "POST",
			"url": "{{Pachinko}}GetTokens",
			"headers": [
				{
					"name": "Content-Type",
					"value": "application/json"
				}
			],
			"body": {
				"mimeType": "application/json",
				"text": "{\n\t\"ownerId\": \"CdnruRKqCD\",\n\t\"domain\": \"WALLET\"\n}"
			}
		},
		{
			"_type": "request",
			"_id": "request-Pachinko-GetTokensBatch",
			"parentId": "request_group-Pachinko",
			"name": "GetTokensBatch",
			"method": "POST",
			"url": "{{Pachinko}}GetTokensBatch",
			"headers": [
				{
					"name": "Content-Type",
					"value": "application/json"
				}
			],
			"body": {
				"mimeType": "application/json",
				"text": "{\n\t\"getTokensBatches\": [\n\t\t{\n\t\t\t\"ownerId\": \"CdnruRKqCD\",\n\t\t\t\"groupId\": \"TNBaXpjrXV\"\n\t\t},\n\t\t{\n\t\t\t\"ownerId\": \"RGYXLcdIYA\",\n\t\t\t\"groupId\": \"hkOSkXvcHl\"\n\t\t},\n\t\t{\n\t\t\t\"ownerId\": \"XLBicIzTPt\",\n\t\t\t\"groupId\": \"xgFeQHzjoM\"\n\t\t}\n\t],\n\t\"domain\": \"WALLET\"\n}"
			}
		},
		{
			"_type": "request",
			"_id": "request-Pachinko-GetToken",
			"parentId": "request_group-Pachinko",
			"name": "GetToken",
			"method": "POST",
			"url": "{{Pachinko}}GetToken",
			"headers": [
				{
					"name": "Content-Type",
					"value": "application/json"
				}
			],
			"body": {
				"mimeType": "application/json",
				"text": "{\n\t\"domain\": \"BITS\",\n\t\"ownerId\": \"dnruRKqCDT\",\n\t\"groupId\": \"NBaXpjrXVR\"\n}"
			}
		},
		{
			"_type": "request",
			"_id": "request-Pachinko-StartTransaction",
			"parentId": "request_group-Pachinko",
			"name": "StartTransaction",
			"method": "POST",
			"url": "{{Pachinko}}StartTransaction",
			"headers": [
				{
					"name": "Content-Type",
					"value": "application/json"
				}
			],
			"body": {
				"mimeType": "application/json",
				"text": "{\n\t\"operation\": \"CREATE_HOLD\",\n\t\"tokens\": [\n\t\t{\n\t\t\t\"ownerId\": \"HQrulZCtvR\",\n\t\t\t\"groupId\": \"IQXCTmHeQb\",\n\t\t\t\"domain\": \"WALLET\",\n\t\t\t\"quantity\": 135,\n\t\t\t\"status\": \"NORMAL\"\n\t\t},\n\t\t{\n\t\t\t\"ownerId\": \"BBHiFfMOCt\",\n\t\t\t\"groupId\": \"YZGWjRpRxj\",\n\t\t\t\"domain\": \"BOUNTY_BOARD\",\n\t\t\t\"quantity\": 325,\n\t\t\t\"status\": \"FROZEN\"\n\t\t},\n\t\t{\n\t\t\t\"ownerId\": \"IJrmSDsjWD\",\n\t\t\t\"groupId\": \"vlNKHKREPs\",\n\t\t\t\"domain\": \"WALLET\",\n\t\t\t\"quantity\": 420,\n\t\t\t\"status\": \"NORMAL\"\n\t\t}\n\t],\n\t\"transactionId\": \"demOZlysem\",\n\t\"operandTransactionId\": \"HfzAbpriVO\"\n}"
			}
		},
		{
			"_type": "request",
			"_id": "request-Pachinko-CommitTransaction",
			"parentId": "request_group-Pachinko",
			"name": "CommitTransaction",
			"method": "POST",
			"url": "{{Pachinko}}CommitTransaction",
			"headers": [
				{
					"name": "Content-Type",
					"value": "application/json"
				}
			],
			"body": {
				"mimeType": "application/json",
				"text": "{\n\t\"transactionId\": \"LjauitZVPi\",\n\t\"domain\": \"BOUNTY_BOARD\"\n}"
			}
		},
		{
			"_type": "request",
			"_id": "request-Pachinko-OverrideBalance",
			"parentId": "request_group-Pachinko",
			"name": "OverrideBalance",
			"method": "POST",
			"url": "{{Pachinko}}OverrideBalance",
			"headers": [
				{
					"name": "Content-Type",
					"value": "application/json"
				}
			],
			"body": {
				"mimeType": "application/json",
				"text": "{\n\t\"token\": {\n\t\t\"ownerId\": \"EfRpCtBtEw\",\n\t\t\"groupId\": \"yBrgsAtfKs\",\n\t\t\"domain\": \"COMMUNITY_POINTS\",\n\t\t\"quantity\": 282,\n\t\t\"status\": \"FROZEN\"\n\t}\n}"
			}
		},
		{
			"_type": "request",
			"_id": "request-Pachinko-CheckHoldsForOwner",
			"parentId": "request_group-Pachinko",
			"name": "CheckHoldsForOwner",
			"method": "POST",
			"url": "{{Pachinko}}CheckHoldsForOwner",
			"headers": [
				{
					"name": "Content-Type",
					"value": "application/json"
				}
			],
			"body": {
				"mimeType": "application/json",
				"text": "{\n\t\"ownerId\": \"PIaiqVcUeH\",\n\t\"isActive\": false,\n\t\"isFinalized\": false,\n\t\"isReleased\": true,\n\t\"hasExpired\": false\n}"
			}
		},
		{
			"_type": "request",
			"_id": "request-Pachinko-CheckHold",
			"parentId": "request_group-Pachinko",
			"name": "CheckHold",
			"method": "POST",
			"url": "{{Pachinko}}CheckHold",
			"headers": [
				{
					"name": "Content-Type",
					"value": "application/json"
				}
			],
			"body": {
				"mimeType": "application/json",
				"text": "{\n\t\"transactionId\": \"PIaiqVcUeH\",\n\t\"ownerId\": \"KPAKjlCUFT\"\n}"
			}
		},
		{
			"_type": "request",
			"_id": "request-Pachinko-UpdateTokenStatus",
			"parentId": "request_group-Pachinko",
			"name": "UpdateTokenStatus",
			"method": "POST",
			"url": "{{Pachinko}}UpdateTokenStatus",
			"headers": [
				{
					"name": "Content-Type",
					"value": "application/json"
				}
			],
			"body": {
				"mimeType": "application/json",
				"text": "{\n\t\"token\": {\n\t\t\"ownerId\": \"HonQOpNMax\",\n\t\t\"groupId\": \"QHYgQbstFF\",\n\t\t\"domain\": \"BOUNTY_BOARD\",\n\t\t\"quantity\": -210,\n\t\t\"status\": \"NORMAL\"\n\t},\n\t\"transactionId\": \"bhwDKAIoyh\"\n}"
			}
		},
		{
			"_type": "request",
			"_id": "request-Pachinko-HealthCheck",
			"parentId": "request_group-Pachinko",
			"name": "HealthCheck",
			"method": "POST",
			"url": "{{Pachinko}}HealthCheck",
			"headers": [
				{
					"name": "Content-Type",
					"value": "application/json"
				}
			],
			"body": {
				"mimeType": "application/json",
				"text": "{\n}"
			}
		},
		{
			"_type": "request",
			"_id": "request-Pachinko-GetPendingTransactions",
			"parentId": "request_group-Pachinko",
			"name": "GetPendingTransactions",
			"method": "POST",
			"url": "{{Pachinko}}GetPendingTransactions",
			"headers": [
				{
					"name": "Content-Type",
					"value": "application/json"
				}
			],
			"body": {
				"mimeType": "application/json",
				"text": "{\n\t\"domain\": \"STICKER\",\n\t\"ownerId\": \"JpGAPgmQIJ\",\n\t\"groupId\": \"UCVEgTVzap\"\n}"
			}
		},
		{
			"_type": "request",
			"_id": "request-Pachinko-GetTransactionRecord",
			"parentId": "request_group-Pachinko",
			"name": "GetTransactionRecord",
			"method": "POST",
			"url": "{{Pachinko}}GetTransactionRecord",
			"headers": [
				{
					"name": "Content-Type",
					"value": "application/json"
				}
			],
			"body": {
				"mimeType": "application/json",
				"text": "{\n\t\"transactionId\": \"WkHWOcGKVG\"\n}"
			}
		},
		{
			"_type": "request",
			"_id": "request-Pachinko-GetTransactionRecords",
			"parentId": "request_group-Pachinko",
			"name": "GetTransactionRecords",
			"method": "POST",
			"url": "{{Pachinko}}GetTransactionRecords",
			"headers": [
				{
					"name": "Content-Type",
					"value": "application/json"
				}
			],
			"body": {
				"mimeType": "application/json",
				"text": "{\n\t\"transactionIds\": [\n\t\t\"WkHWOcGKVG\",\n\t\t\"IgDBWnQhSa\",\n\t\t\"FGcRVuMvSK\"\n\t]\n}"
			}
		},
		{
			"_type": "request",
			"_id": "request-Pachinko-DeleteBalanceByOwnerId",
			"parentId": "request_group-Pachinko",
			"name": "DeleteBalanceByOwnerId",
			"method": "POST",
			"url": "{{Pachinko}}DeleteBalanceByOwnerId",
			"headers": [
				{
					"name": "Content-Type",
					"value": "application/json"
				}
			],
			"body": {
				"mimeType": "application/json",
				"text": "{\n\t\"ownerId\": \"JcbBOpJsJO\"\n}"
			}
		},
		{
			"_type": "request",
			"_id": "request-Pachinko-DeleteBalanceByGroupId",
			"parentId": "request_group-Pachinko",
			"name": "DeleteBalanceByGroupId",
			"method": "POST",
			"url": "{{Pachinko}}DeleteBalanceByGroupId",
			"headers": [
				{
					"name": "Content-Type",
					"value": "application/json"
				}
			],
			"body": {
				"mimeType": "application/json",
				"text": "{\n\t\"groupId\": \"JcbBOpJsJO\"\n}"
			}
		}
	]
}