<svg id="home__header--code" width="411px" height="247px" viewBox="828 190 411 247" version="1.1" xmlns="http://www.w3.org/2000/svg"
     xmlns:xlink="http://www.w3.org/1999/xlink">
  <rect id="Rectangle-2" stroke="none" fill="#4B387A" fill-rule="evenodd" x="929.949442" y="200.826087" width="0.162081784"
        height="15.4658385"></rect>
  <rect id="Rectangle-5" stroke="none" fill="#7D5EBC" fill-rule="evenodd" x="831.241636" y="190" width="213.758364" height="10.826087"></rect>
  <rect id="Rectangle-5" stroke="none" fill="#7D5EBC" fill-rule="evenodd" x="831.241636" y="321.459627" width="56.7286245"
        height="10.826087"></rect>
  <rect id="Rectangle-5" stroke="none" fill="#9A81CA" fill-rule="evenodd" x="865.27881" y="217.065217" width="203" height="10.826087"></rect>
  <rect id="Rectangle-5" stroke="none" fill="#24B769" fill-rule="evenodd" x="897.456083" y="267.586957" width="257.949121"
        height="10.826087"></rect>
  <rect id="Rectangle-5" stroke="none" fill="#FFFFFF" fill-rule="evenodd" x="1166" y="268" width="72.936803" height="10.826087"></rect>
  <rect id="Rectangle-5" stroke="none" fill="#FDB22B" fill-rule="evenodd" x="1081" y="217" width="56.7286245" height="10.826087"></rect>
  <rect id="Rectangle-5" stroke="none" fill="#9A81CA" fill-rule="evenodd" x="865" y="293.621118" width="104" height="10.826087"></rect>
  <rect id="Rectangle-5" stroke="none" fill="#24B769" fill-rule="evenodd" x="896" y="241.586957" width="214.764176" height="10.826087"></rect>
  <rect id="Rectangle-5" stroke="none" fill="#FFFFFF" fill-rule="evenodd" x="1125" y="242" width="75" height="10.826087"></rect>
  <rect id="Rectangle-2" stroke="none" fill="#4B387A" fill-rule="evenodd" x="930.111524" y="309.860248" width="0.162081784"
        height="15.4658385"></rect>
  <rect id="Rectangle-5" stroke="none" fill="#7D5EBC" fill-rule="evenodd" x="831.241636" y="349.298137" width="147.494424"
        height="10.826087"></rect>
  <rect id="Rectangle-5" stroke="none" fill="#9A81CA" fill-rule="evenodd" x="999.806691" y="349.298137" width="72.936803" height="10.826087"></rect>
  <rect id="Rectangle-5" stroke="none" fill="#7D5EBC" fill-rule="evenodd" x="828" y="425.854037" width="72.936803" height="10.826087"></rect>
  <rect id="Rectangle-5" stroke="none" fill="#9A81CA" fill-rule="evenodd" x="865.27881" y="374.81677" width="94.0074349" height="10.826087"></rect>
  <rect id="Rectangle-5" stroke="none" fill="#24B769" fill-rule="evenodd" x="977.115242" y="374.81677" width="158.840149" height="10.826087"></rect>
  <rect id="Rectangle-5" stroke="none" fill="#FFFFFF" fill-rule="evenodd" x="1155.4052" y="374.81677" width="48.5913931" height="10.826087"></rect>
  <rect id="Rectangle-5" stroke="none" fill="#9A81CA" fill-rule="evenodd" x="868.520446" y="400.335404" width="158.840149"
        height="10.826087"></rect>
  <rect id="Rectangle-5" stroke="none" fill="#FDB22B" fill-rule="evenodd" x="1040.50558" y="400.335404" width="76" height="10.826087"></rect>
  <rect id="Rectangle-5" stroke="none" fill="#FDB22B" fill-rule="evenodd" x="980" y="294" width="76" height="10.826087"></rect>
</svg>
