<svg width="102px" height="109px" viewBox="58 38 102 109" version="1.1" xmlns="http://www.w3.org/2000/svg" xmlns:xlink="http://www.w3.org/1999/xlink">
  <path d="M58,38 L160,38.0000015 L160,120.872342 L105.073913,120.87234 L80.6652174,146.170213 L80.6652174,120.87234 L58,120.87234 L58,38 Z M87,131 L87,114.96878 L63.9796061,114.96878 L63.9796061,43.9999971 L154.005554,43.9999971 L154.005554,114 L101.990387,114 L87,131 Z M90,94.3571429 L97.9285714,86.4285714 L105.857143,86.4285714 L97.9285714,78.5 L97.9285714,60 L119.071429,60 L119.071429,78.5 L111.142857,86.4285714 L119.071429,86.4285714 L127,94.3571429 L127,97 L90,97 L90,94.3571429 Z" id="Combined-Shape" stroke="none" fill="#D7CDEA" fill-rule="evenodd"></path>
</svg>
