<svg id="home__header--code-contain" width="570px" height="386px" viewBox="790 115 570 386" version="1.1" xmlns="http://www.w3.org/2000/svg"
     xmlns:xlink="http://www.w3.org/1999/xlink">
  <path d="M790,122.995664 C790,118.579781 793.584159,115 798.003207,115 L1351.99679,115 C1356.41684,115 1360,118.574768 1360,122.995664 L1360,493.004336 C1360,497.420219 1356.41584,501 1351.99679,501 L798.003207,501 C793.583158,501 790,497.425232 790,493.004336 L790,122.995664 Z M811.5,142 C815.089851,142 818,139.089851 818,135.5 C818,131.910149 815.089851,129 811.5,129 C807.910149,129 805,131.910149 805,135.5 C805,139.089851 807.910149,142 811.5,142 Z M831.5,142 C835.089851,142 838,139.089851 838,135.5 C838,131.910149 835.089851,129 831.5,129 C827.910149,129 825,131.910149 825,135.5 C825,139.089851 827.910149,142 831.5,142 Z M851.5,142 C855.089851,142 858,139.089851 858,135.5 C858,131.910149 855.089851,129 851.5,129 C847.910149,129 845,131.910149 845,135.5 C845,139.089851 847.910149,142 851.5,142 Z"
        id="Combined-Shape" stroke="none" fill="#2C2640" fill-rule="evenodd"></path>
</svg>
