<svg width="80px" height="46px" viewBox="247 11 62 36" version="1.1" xmlns="http://www.w3.org/2000/svg" xmlns:xlink="http://www.w3.org/1999/xlink">
  <defs>
    <polygon id="path-1" points="0 34.9223947 61.9358943 34.9223947 61.9358943 0.0563414634 0 0.0563414634"></polygon>
  </defs>
  <g id="Page-1" stroke="none" stroke-width="1" fill="none" fill-rule="evenodd" transform="translate(247.000000, 11.000000)">
    <path d="M48.1627698,0.0776286031 L44.9776855,3.19037805 L41.4383044,3.19037805 L39.6484151,4.95729601 L39.6484151,3.19037805 L36.4421182,3.19037805 L36.4421182,0.0776286031 L24.3989887,0.0776286031 L24.3989887,3.19037805 L9.93949686,3.19037805 L6.75402264,0.0776286031 L0,0.0776286031 L0,14.1140255 L3.20029182,17.2899457 L8.52379119,20.4661763 L13.137917,20.4661763 L13.137917,19.7489479 L14.8945057,20.4661763 L23.4710164,20.4661763 L24.9910692,18.7051563 L25.1900151,20.4661763 L30.8051094,20.4661763 L30.9188151,18.7051563 L32.9443824,20.4661763 L37.8990792,20.4661763 L38.2529862,18.7051563 L40.0226767,20.4661763 L45.6854214,20.4661763 L47.4685258,18.692429 L47.4685258,20.4661763 L50.6402742,20.4661763 L53.0990616,18.692429 L53.0990616,20.4661763 L56.6570038,20.4661763 L61.9358943,16.9314867 L61.9358943,6.36583259 L58.7803673,3.19037805 L54.8976855,3.19037805 L54.8976855,0.0776286031 L48.1627698,0.0776286031 Z M49.5800352,1.47832705 L53.4900906,1.47832705 L53.4900906,4.66891463 L58.0725535,4.66891463 L60.5282214,7.0702561 L60.5282214,15.8748126 L56.618166,15.8748126 L56.618166,8.48205211 L53.4900906,8.48205211 L53.4900906,15.8748126 L49.5800352,15.8748126 L49.5800352,1.47832705 Z M31.1243119,13.4096796 L31.1243119,1.47832705 L35.0344453,1.47832705 L35.0344453,4.66891463 L38.2407421,4.66891463 L38.2407421,8.48205211 L35.0344453,8.48205211 L35.0344453,12.0617528 L38.2407421,12.0617528 L38.2407421,15.8748126 L33.6521962,15.8748126 L31.1243119,13.4096796 Z M25.884805,3.19037805 L29.716717,3.19037805 L29.716717,1.47832705 L25.884805,1.47832705 L25.884805,3.19037805 Z M1.40767296,13.4096796 L1.40767296,1.47832705 L5.3177283,1.47832705 L5.3177283,4.66891463 L8.52402516,4.66891463 L8.52402516,8.48205211 L5.3177283,8.48205211 L5.3177283,12.0617528 L8.52402516,12.0617528 L8.52402516,15.8748126 L3.92284528,15.8748126 L1.40767296,13.4096796 Z M39.6484151,13.4096796 L39.6484151,7.0702561 L42.1460403,4.66891463 L48.1723623,4.66891463 L48.1723623,8.48205211 L43.5584704,8.48205211 L43.5584704,12.0617528 L48.1723623,12.0617528 L48.1723623,15.8748126 L42.1460403,15.8748126 L39.6484151,13.4096796 Z M25.884805,15.8748126 L29.716717,15.8748126 L29.716717,4.66891463 L25.884805,4.66891463 L25.884805,15.8748126 Z M20.5670767,12.0617528 L20.5670767,4.66891463 L24.3989887,4.66891463 L24.3989887,13.4096796 L21.972722,15.8748126 L9.93162013,15.8748126 L9.93162013,4.66891463 L13.8417535,4.66891463 L13.8417535,12.0617528 L15.2494264,12.0617528 L15.2494264,4.66891463 L19.1594818,4.66891463 L19.1594818,12.0617528 L20.5670767,12.0617528 Z" id="Fill-1" fill="#FFFFFF"></path>
    <g id="Group-17" transform="translate(0.000000, 0.021264)">
      <path d="M5.49716176,31.4217428 C6.55373535,31.4217428 7.34936302,30.8774967 7.34936302,29.059204 L7.34936302,27.3645366 C7.34936302,25.5708448 6.56621333,25.0390155 5.49716176,25.0390155 L4.04277434,25.0390155 L4.04277434,31.4217428 L5.49716176,31.4217428 L5.49716176,31.4217428 Z M2.82453283,32.5845033 L2.82453283,23.8638381 L5.63387371,23.8638381 C7.36176302,23.8638381 8.56752654,24.9647472 8.56752654,27.0923747 L8.56752654,29.3437051 C8.56752654,31.4589157 7.36176302,32.5845033 5.63387371,32.5845033 L2.82453283,32.5845033 L2.82453283,32.5845033 Z" id="Fill-2" fill="#FFFFFF"></path>
      <path d="M11.02856,28.589071 L13.9746128,28.589071 L13.9746128,28.1561885 C13.9746128,27.0057672 13.415287,26.5110333 12.5078254,26.5110333 C11.6127638,26.5110333 11.02856,27.0428625 11.02856,28.0571641 L11.02856,28.589071 Z M15.1306984,29.430235 L11.02856,29.430235 L11.02856,30.2095477 C11.02856,31.1990931 11.6749197,31.7434169 12.5078254,31.7434169 C13.3779311,31.7434169 13.9746128,31.21151 13.9746128,30.4445366 L13.9746128,30.3332506 L15.1306984,30.3332506 L15.1306984,30.3826851 C15.1306984,31.6568093 14.1610808,32.7082062 12.5078254,32.7082062 C10.8420921,32.7082062 9.87247447,31.6443925 9.87247447,29.9745588 L9.87247447,28.2922306 C9.87247447,26.5975632 10.8420921,25.5337494 12.5078254,25.5337494 C14.1610808,25.5337494 15.1306984,26.5233725 15.1306984,28.2303792 L15.1306984,29.430235 Z" id="Fill-4" fill="#FFFFFF"></path>
      <polygon id="Fill-6" fill="#FFFFFF" points="18.014447 32.5845344 15.652598 25.6327273 16.9453955 25.6327273 18.6235288 31.0259091 20.2767842 25.6327273 21.5695816 25.6327273 19.2202106 32.5845344"></polygon>
      <path d="M23.1854186,28.589071 L26.1314714,28.589071 L26.1314714,28.1561885 C26.1314714,27.0057672 25.5721457,26.5110333 24.664684,26.5110333 C23.7696224,26.5110333 23.1854186,27.0428625 23.1854186,28.0571641 L23.1854186,28.589071 Z M27.287557,29.430235 L23.1854186,29.430235 L23.1854186,30.2095477 C23.1854186,31.1990931 23.8317784,31.7434169 24.664684,31.7434169 C25.5347897,31.7434169 26.1314714,31.21151 26.1314714,30.4445366 L26.1314714,30.3332506 L27.287557,30.3332506 L27.287557,30.3826851 C27.287557,31.6568093 26.3179394,32.7082062 24.664684,32.7082062 C22.9989507,32.7082062 22.0293331,31.6443925 22.0293331,29.9745588 L22.0293331,28.2922306 C22.0293331,26.5975632 22.9989507,25.5337494 24.664684,25.5337494 C26.3179394,25.5337494 27.287557,26.5233725 27.287557,28.2303792 L27.287557,29.430235 Z" id="Fill-8" fill="#FFFFFF"></path>
      <mask id="mask-2" fill="white">
        <use xlink:href="#path-1"></use>
      </mask>
      <g id="Clip-11"></g>
      <polygon id="Fill-10" fill="#FFFFFF" mask="url(#mask-2)" points="28.6546063 32.5845344 29.8230918 32.5845344 29.8230918 23.2824501 28.6546063 23.2824501"></polygon>
      <path d="M32.4085698,28.1561807 L32.4085698,30.085837 C32.4085698,31.1125554 32.9928516,31.6568016 33.8878352,31.6568016 C34.7455409,31.6568016 35.3546226,31.1125554 35.3546226,30.085837 L35.3546226,28.1561807 C35.3546226,27.1542184 34.7580189,26.6098947 33.8878352,26.6098947 C32.9928516,26.6098947 32.4085698,27.1542184 32.4085698,28.1561807 M31.2525623,29.937378 L31.2525623,28.2922228 C31.2525623,26.6347284 32.2097019,25.5584978 33.8878352,25.5584978 C35.5286906,25.5584978 36.5107082,26.6347284 36.5107082,28.2922228 L36.5107082,29.937378 C36.5107082,31.6443847 35.5286906,32.7081984 33.8878352,32.7081984 C32.2097019,32.7081984 31.2525623,31.6443847 31.2525623,29.937378" id="Fill-12" fill="#FFFFFF" mask="url(#mask-2)"></path>
      <path d="M39.0960692,28.3788381 L39.0960692,29.8136829 C39.0960692,31.0507118 39.618117,31.7062439 40.5628566,31.7062439 C41.5323962,31.7062439 42.042044,31.0507118 42.042044,29.8136829 L42.042044,28.4283503 C42.042044,27.1913215 41.5323962,26.5110333 40.5628566,26.5110333 C39.642995,26.5110333 39.0960692,27.1542262 39.0960692,28.3788381 M43.2106075,28.6633392 L43.2106075,29.9621419 C43.2106075,31.7062439 42.3405019,32.6711885 40.9357925,32.6711885 C39.8791409,32.6711885 39.2949371,32.1268647 39.0960692,31.6691486 L39.0960692,34.9223636 L37.9399836,34.9223636 L37.9399836,25.6326962 L39.0338352,25.6326962 L39.0338352,26.6223193 C39.2327811,26.1646031 39.8791409,25.5461663 40.9357925,25.5461663 C42.4274579,25.5461663 43.2106075,26.5852239 43.2106075,28.6633392" id="Fill-13" fill="#FFFFFF" mask="url(#mask-2)"></path>
      <path d="M45.6715396,28.589071 L48.6175925,28.589071 L48.6175925,28.1561885 C48.6175925,27.0057672 48.0582667,26.5110333 47.150805,26.5110333 C46.2558214,26.5110333 45.6715396,27.0428625 45.6715396,28.0571641 L45.6715396,28.589071 Z M49.773678,29.430235 L45.6715396,29.430235 L45.6715396,30.2095477 C45.6715396,31.1990931 46.3179774,31.7434169 47.150805,31.7434169 C48.0209887,31.7434169 48.6175925,31.21151 48.6175925,30.4445366 L48.6175925,30.3332506 L49.773678,30.3332506 L49.773678,30.3826851 C49.773678,31.6568093 48.8040604,32.7082062 47.150805,32.7082062 C45.4850717,32.7082062 44.5155321,31.6443925 44.5155321,29.9745588 L44.5155321,28.2922306 C44.5155321,26.5975632 45.4850717,25.5337494 47.150805,25.5337494 C48.8040604,25.5337494 49.773678,26.5233725 49.773678,28.2303792 L49.773678,29.430235 Z" id="Fill-14" fill="#FFFFFF" mask="url(#mask-2)"></path>
      <path d="M54.260887,25.5461741 L54.260887,26.6965177 L54.1241751,26.6965177 C52.9805675,26.6965177 52.2968518,27.3273714 52.2968518,28.5644002 L52.2968518,32.5845111 L51.1407663,32.5845111 L51.1407663,25.632704 L52.2346958,25.632704 L52.2346958,26.8944113 C52.3838858,26.3007306 53.0302455,25.5461741 54.0495411,25.5461741 L54.260887,25.5461741 Z" id="Fill-15" fill="#FFFFFF" mask="url(#mask-2)"></path>
      <path d="M58.8476782,27.9211685 C58.8476782,26.8573548 58.3380304,26.4862461 57.3808128,26.4862461 C56.5107072,26.4862461 56.0756153,26.8450155 56.0756153,27.4386962 C56.0756153,29.1210244 60.0160858,28.1685743 60.0160858,30.7043282 C60.0160858,32.0032084 59.1211801,32.7453481 57.4305688,32.7453481 C55.7524355,32.7453481 54.7330619,31.792898 54.7330619,30.2342727 L55.8891474,30.2342727 C55.8891474,31.2238958 56.4982292,31.7557251 57.4305688,31.7557251 C58.2385185,31.7557251 58.8476782,31.3475211 58.8476782,30.6919889 C58.8476782,29.1705366 54.9320078,30.0487184 54.9320078,27.4634523 C54.9320078,26.2265011 55.8394694,25.4967007 57.3808128,25.4967007 C59.0714242,25.4967007 59.9415298,26.3254479 59.9415298,27.9211685 L58.8476782,27.9211685 Z" id="Fill-16" fill="#FFFFFF" mask="url(#mask-2)"></path>
    </g>
  </g>
</svg>
