<svg width="188px" height="142px" viewBox="13 38 188 142" version="1.1" xmlns="http://www.w3.org/2000/svg" xmlns:xlink="http://www.w3.org/1999/xlink">
  <path d="M117,177.357143 L124.928571,169.428571 L132.857143,169.428571 L124.928571,161.5 L124.928571,143 L146.071429,143 L146.071429,161.5 L138.142857,169.428571 L146.071429,169.428571 L154,177.357143 L154,180 L117,180 L117,177.357143 Z M13,177.357143 L20.9285714,169.428571 L28.8571429,169.428571 L20.9285714,161.5 L20.9285714,143 L42.0714286,143 L42.0714286,161.5 L34.1428571,169.428571 L42.0714286,169.428571 L50,177.357143 L50,180 L13,180 L13,177.357143 Z M65,177.357143 L72.9285714,169.428571 L80.8571429,169.428571 L72.9285714,161.5 L72.9285714,143 L94.0714286,143 L94.0714286,161.5 L86.1428571,169.428571 L94.0714286,169.428571 L102,177.357143 L102,180 L65,180 L65,177.357143 Z M75,86.2380952 L80.3129602,80.952381 L85.6259205,80.952381 L80.3129602,75.6666667 L80.3129602,63.3333333 L94.4808542,63.3333333 L94.4808542,75.6666667 L89.167894,80.952381 L94.4808542,80.952381 L99.7938144,86.2380952 L99.7938144,88 L75,88 L75,86.2380952 Z M81,38 L118,38 L118,52 L132,38 L140,38 L140,75 L132,75 L118,61 L118,75.0356688 L97.9999682,75.0356688 L97.9999682,59 L81,59 L81,38 Z M164,177.357143 L171.928571,169.428571 L179.857143,169.428571 L171.928571,161.5 L171.928571,143 L193.071429,143 L193.071429,161.5 L185.142857,169.428571 L193.071429,169.428571 L201,177.357143 L201,180 L164,180 L164,177.357143 Z" id="Combined-Shape" stroke="none" fill="#D7CDEA" fill-rule="evenodd"></path>
</svg>
