[
  "131862486",
  "39249330",
  "117974920",
  "105022773",
  "77862597",
  "21095024",
  "58836975",
  "23844396",
  "85521892",
  "23735582",
  "37455669",
  "30656206",
  "23179441",
  "165785",
  "37530941",
  "53728390",
  "137347549",
  "190708734",
  "21080562",
  "135675015",
  "2005586",
  "61339182",
  "38770961"
]
