Existing Message: cheer500
Existing Emote Totals: map[]
New Emote Totals: map[cheer:500]
Skip update due to dry run...

Existing Message: cheer10 yannkeYEET
Existing Emote Totals: map[]
New Emote Totals: map[cheer:10]
Skip update due to dry run...

Existing Message: cheer1015
Existing Emote Totals: map[]
New Emote Totals: map[cheer:1015]
Skip update due to dry run...

Existing Message: cheer235 Hidden power rock that bit boss
Existing Emote Totals: map[]
New Emote Totals: map[cheer:235]
Skip update due to dry run...

Existing Message: cheer75 Happy Birthday Dan congrats on the shinys wishing you luck with type null
Existing Emote Totals: map[]
New Emote Totals: map[cheer:75]
Skip update due to dry run...

Existing Message: cheer200 Meow Kappa
Existing Emote Totals: map[]
New Emote Totals: map[cheer:200]
Skip update due to dry run...

Existing Message: cheer200 cheer200 Kappa
Existing Emote Totals: map[]
New Emote Totals: map[cheer:400]
Skip update due to dry run...

Existing Message: cheer69 Kappa
Existing Emote Totals: map[]
New Emote Totals: map[cheer:69]
Skip update due to dry run...

Existing Message: cheer1 cheer1 cheer1 cheer1 cheer1 cheer1 cheer1 cheer1 cheer1 cheer1 cheer1 cheer1 cheer1 cheer1 cheer1 cheer1 cheer1 cheer1 cheer1 cheer1 cheer1 cheer1 cheer1 cheer1 cheer1 cheer1 cheer1 cheer1 cheer1 cheer1 cheer1
Existing Emote Totals: map[]
New Emote Totals: map[cheer:31]
Skip update due to dry run...

Existing Message: cheer200 Kappa
Existing Emote Totals: map[]
New Emote Totals: map[cheer:200]
Skip update due to dry run...

Existing Message: cheer200 Kappa
Existing Emote Totals: map[]
New Emote Totals: map[cheer:200]
Skip update due to dry run...

Existing Message: cheer1049 my finished now Kappa
Existing Emote Totals: map[]
New Emote Totals: map[cheer:1049]
Skip update due to dry run...

Existing Message: cheer51 Kappa
Existing Emote Totals: map[]
New Emote Totals: map[cheer:51]
Skip update due to dry run...

Existing Message: bleedpurple101 bonus10
Existing Emote Totals: map[]
New Emote Totals: map[bleedpurple:101]
Skip update due to dry run...

Existing Message: cheer99
Existing Emote Totals: map[]
New Emote Totals: map[cheer:99]
Skip update due to dry run...

Existing Message: cheer6 cheer9 Kappa
Existing Emote Totals: map[]
New Emote Totals: map[cheer:15]
Skip update due to dry run...

Existing Message: cheer1 showlove1 pride1 frankerz1 seemsgood1 party1 kappa1 bday1 pjsalt1 ripcheer1 shamrock1 pogchamp1 heyguys1 notlikethis1 vohiyo1 vohiyo1
Existing Emote Totals: map[]
New Emote Totals: map[bday:1 cheer:1 frankerz:1 heyguys:1 kappa:1 notlikethis:1 party:1 pjsalt:1 pogchamp:1 pride:1 ripcheer:1 seemsgood:1 shamrock:1 showlove:1 vohiyo:2]
Skip update due to dry run...

Existing Message: cheer1500 Kappa
Existing Emote Totals: map[]
New Emote Totals: map[cheer:1500]
Skip update due to dry run...

Existing Message: cheer200 cheer200 cheer100 Kappa
Existing Emote Totals: map[]
New Emote Totals: map[cheer:500]
Skip update due to dry run...

Existing Message: cheer1000 FOR THE HENTAI Kappa
Existing Emote Totals: map[]
New Emote Totals: map[cheer:1000]
Skip update due to dry run...

Existing Message: cheer501 !lurk victory Kappa
Existing Emote Totals: map[]
New Emote Totals: map[cheer:501]
Skip update due to dry run...

Existing Message: cheer2 LUL
Existing Emote Totals: map[]
New Emote Totals: map[cheer:2]
Skip update due to dry run...

Existing Message: cheer36 you know what KAPPA
Existing Emote Totals: map[]
New Emote Totals: map[cheer:36]
Skip update due to dry run...

Existing Message: cheer30 now its perfect
Existing Emote Totals: map[]
New Emote Totals: map[cheer:30]
Skip update due to dry run...

Existing Message: cheer31 just take the rest Ksppa
Existing Emote Totals: map[]
New Emote Totals: map[cheer:31]
Skip update due to dry run...

Existing Message: cheer500 here's the new week support Kappa
Existing Emote Totals: map[]
New Emote Totals: map[cheer:500]
Skip update due to dry run...

Existing Message: showlove100 stop thanking Kappa
Existing Emote Totals: map[]
New Emote Totals: map[showlove:100]
Skip update due to dry run...

Existing Message: bleedpurple245 bonus24
Existing Emote Totals: map[]
New Emote Totals: map[bleedpurple:245]
Skip update due to dry run...

Existing Message: cheer500 TPFufun
Existing Emote Totals: map[]
New Emote Totals: map[cheer:500]
Skip update due to dry run...

Existing Message: bleedpurple100 bonus10
Existing Emote Totals: map[]
New Emote Totals: map[bleedpurple:100]
Skip update due to dry run...

Existing Message: bleedpurple500 bonus50
Existing Emote Totals: map[]
New Emote Totals: map[bleedpurple:500]
Skip update due to dry run...

Existing Message: bleedpurple100 bonus10
Existing Emote Totals: map[]
New Emote Totals: map[bleedpurple:100]
Skip update due to dry run...

Existing Message: cheer100 Good luck with the first gym aDrive
Existing Emote Totals: map[]
New Emote Totals: map[cheer:100]
Skip update due to dry run...

Existing Message: cheer1
Existing Emote Totals: map[]
New Emote Totals: map[cheer:1]
Skip update due to dry run...

Existing Message: cheer3
Existing Emote Totals: map[]
New Emote Totals: map[cheer:3]
Skip update due to dry run...

Existing Message: cheer96
Existing Emote Totals: map[]
New Emote Totals: map[cheer:96]
Skip update due to dry run...

Existing Message: cheer500
Existing Emote Totals: map[]
New Emote Totals: map[cheer:500]
Skip update due to dry run...

Existing Message: cheer1500
Existing Emote Totals: map[]
New Emote Totals: map[cheer:1500]
Skip update due to dry run...

Existing Message: cheer5
Existing Emote Totals: map[]
New Emote Totals: map[cheer:5]
Skip update due to dry run...

Existing Message: cheer500 someone say bits Kappa
Existing Emote Totals: map[]
New Emote Totals: map[cheer:500]
Skip update due to dry run...

Existing Message: cheer500 about this mini bomb Kappa
Existing Emote Totals: map[]
New Emote Totals: map[cheer:500]
Skip update due to dry run...

Existing Message: cheer500 here's the reward anyways for entertaining me
Existing Emote Totals: map[]
New Emote Totals: map[cheer:500]
Skip update due to dry run...

Existing Message: cheer500 let the night go strong
Existing Emote Totals: map[]
New Emote Totals: map[cheer:500]
Skip update due to dry run...

Existing Message: cheer499 whoops did i just drop some of my bits kappa1
Existing Emote Totals: map[]
New Emote Totals: map[cheer:499 kappa:1]
Skip update due to dry run...

Existing Message: kappa69
Existing Emote Totals: map[]
New Emote Totals: map[kappa:69]
Skip update due to dry run...

Existing Message: pogchamp31 had leftovers from king's stream here u go LUL
Existing Emote Totals: map[]
New Emote Totals: map[pogchamp:31]
Skip update due to dry run...

Existing Message: cheer1 LUL
Existing Emote Totals: map[]
New Emote Totals: map[cheer:1]
Skip update due to dry run...

Existing Message: cheer1 cheer1 LUL LUL
Existing Emote Totals: map[]
New Emote Totals: map[cheer:2]
Skip update due to dry run...

Existing Message: cheer66 for the bird
Existing Emote Totals: map[]
New Emote Totals: map[cheer:66]
Skip update due to dry run...

Existing Message: cheer77 LUL
Existing Emote Totals: map[]
New Emote Totals: map[cheer:77]
Skip update due to dry run...

Existing Message: cheer23 oops i accidently dropped them Kappa
Existing Emote Totals: map[]
New Emote Totals: map[cheer:23]
Skip update due to dry run...

Existing Message: cheer200 is this crazy enough? LUL I have more Kappa
Existing Emote Totals: map[]
New Emote Totals: map[cheer:200]
Skip update due to dry run...

Existing Message: bleedpurple1500 bonus150
Existing Emote Totals: map[]
New Emote Totals: map[bleedpurple:1500]
Skip update due to dry run...

Existing Message: cheer5
Existing Emote Totals: map[]
New Emote Totals: map[cheer:5]
Skip update due to dry run...

Existing Message: cheer2000
Existing Emote Totals: map[]
New Emote Totals: map[cheer:2000]
Skip update due to dry run...

Existing Message: cheer5
Existing Emote Totals: map[]
New Emote Totals: map[cheer:5]
Skip update due to dry run...

Existing Message: cheer10
Existing Emote Totals: map[]
New Emote Totals: map[cheer:10]
Skip update due to dry run...

Existing Message: cheer2000 I'M FINALLY HERE!!!!
Existing Emote Totals: map[]
New Emote Totals: map[cheer:2000]
Skip update due to dry run...

Existing Message: kappa69
Existing Emote Totals: map[]
New Emote Totals: map[kappa:69]
Skip update due to dry run...

Existing Message: cheer1
Existing Emote Totals: map[]
New Emote Totals: map[cheer:1]
Skip update due to dry run...

Existing Message: cheer1
Existing Emote Totals: map[]
New Emote Totals: map[cheer:1]
Skip update due to dry run...

Existing Message: cheer1
Existing Emote Totals: map[]
New Emote Totals: map[cheer:1]
Skip update due to dry run...

Existing Message: cheer1
Existing Emote Totals: map[]
New Emote Totals: map[cheer:1]
Skip update due to dry run...

Existing Message: cheer1
Existing Emote Totals: map[]
New Emote Totals: map[cheer:1]
Skip update due to dry run...

Existing Message: cheer389 i need the number to finis it off Kappa
Existing Emote Totals: map[]
New Emote Totals: map[cheer:389]
Skip update due to dry run...

Existing Message: cheer111 Kappa
Existing Emote Totals: map[]
New Emote Totals: map[cheer:111]
Skip update due to dry run...

Existing Message: cheer69 Kappa
Existing Emote Totals: map[]
New Emote Totals: map[cheer:69]
Skip update due to dry run...

Existing Message: cheer31 Kappa
Existing Emote Totals: map[]
New Emote Totals: map[cheer:31]
Skip update due to dry run...

Existing Message: kappa1500
Existing Emote Totals: map[]
New Emote Totals: map[kappa:1500]
Skip update due to dry run...

Existing Message: cheer1000 Kappa
Existing Emote Totals: map[]
New Emote Totals: map[cheer:1000]
Skip update due to dry run...

Existing Message: cheer20
Existing Emote Totals: map[]
New Emote Totals: map[cheer:20]
Skip update due to dry run...

Existing Message: cheer25
Existing Emote Totals: map[]
New Emote Totals: map[cheer:25]
Skip update due to dry run...

Existing Message: cheer100 this isn't my finally form Kappa
Existing Emote Totals: map[]
New Emote Totals: map[cheer:100]
Skip update due to dry run...

Existing Message: cheer245 heres my backup reserve i had for that war
Existing Emote Totals: map[]
New Emote Totals: map[cheer:245]
Skip update due to dry run...

Existing Message: cheer500
Existing Emote Totals: map[]
New Emote Totals: map[cheer:500]
Skip update due to dry run...

Existing Message: cheer100 for that even 2000
Existing Emote Totals: map[]
New Emote Totals: map[cheer:100]
Skip update due to dry run...

Existing Message: bleedpurple500 bonus50 is this enough to pass some points under the table Kappa
Existing Emote Totals: map[]
New Emote Totals: map[bleedpurple:500]
Skip update due to dry run...

Existing Message: cheer10
Existing Emote Totals: map[]
New Emote Totals: map[cheer:10]
Skip update due to dry run...

Existing Message: cheer37 GG
Existing Emote Totals: map[]
New Emote Totals: map[cheer:37]
Skip update due to dry run...

Existing Message: cheer1000 Kappa
Existing Emote Totals: map[]
New Emote Totals: map[cheer:1000]
Skip update due to dry run...

Existing Message: cheer500
Existing Emote Totals: map[]
New Emote Totals: map[cheer:500]
Skip update due to dry run...

Existing Message: cheer500 Kappa
Existing Emote Totals: map[]
New Emote Totals: map[cheer:500]
Skip update due to dry run...

Existing Message: cheer1
Existing Emote Totals: map[]
New Emote Totals: map[cheer:1]
Skip update due to dry run...

Existing Message: cheer1000 Kappa
Existing Emote Totals: map[]
New Emote Totals: map[cheer:1000]
Skip update due to dry run...

Existing Message: cheer100
Existing Emote Totals: map[]
New Emote Totals: map[cheer:100]
Skip update due to dry run...

Existing Message: cheer1
Existing Emote Totals: map[]
New Emote Totals: map[cheer:1]
Skip update due to dry run...

Existing Message: cheer62
Existing Emote Totals: map[]
New Emote Totals: map[cheer:62]
Skip update due to dry run...

Existing Message: cheer150
Existing Emote Totals: map[]
New Emote Totals: map[cheer:150]
Skip update due to dry run...

Existing Message: bleedpurple231 bonus23
Existing Emote Totals: map[]
New Emote Totals: map[bleedpurple:231]
Skip update due to dry run...

Existing Message: bleedpurple100 bonus10
Existing Emote Totals: map[]
New Emote Totals: map[bleedpurple:100]
Skip update due to dry run...

Existing Message: cheer102
Existing Emote Totals: map[]
New Emote Totals: map[cheer:102]
Skip update due to dry run...

Existing Message: cheer98
Existing Emote Totals: map[]
New Emote Totals: map[cheer:98]
Skip update due to dry run...

Existing Message: cheer1000 Kappa
Existing Emote Totals: map[]
New Emote Totals: map[cheer:1000]
Skip update due to dry run...

Existing Message: cheer500 LUL
Existing Emote Totals: map[]
New Emote Totals: map[cheer:500]
Skip update due to dry run...

Existing Message: cheer100
Existing Emote Totals: map[]
New Emote Totals: map[cheer:100]
Skip update due to dry run...

Existing Message: cheer69 Kappa
Existing Emote Totals: map[]
New Emote Totals: map[cheer:69]
Skip update due to dry run...

Existing Message: cheer31
Existing Emote Totals: map[]
New Emote Totals: map[cheer:31]
Skip update due to dry run...

Existing Message: cheer200 Kappa
Existing Emote Totals: map[]
New Emote Totals: map[cheer:200]
Skip update due to dry run...

Existing Message: cheer69 Kappa
Existing Emote Totals: map[]
New Emote Totals: map[cheer:69]
Skip update due to dry run...

Existing Message: cheer200 RaccAttack
Existing Emote Totals: map[]
New Emote Totals: map[cheer:200]
Skip update due to dry run...

Existing Message: Kappa31
Existing Emote Totals: map[]
New Emote Totals: map[kappa:31]
Skip update due to dry run...

Existing Message: cheer100 Kappa
Existing Emote Totals: map[]
New Emote Totals: map[cheer:100]
Skip update due to dry run...

Existing Message: cheer100 cheer100
Existing Emote Totals: map[]
New Emote Totals: map[cheer:200]
Skip update due to dry run...

Existing Message: cheer1
Existing Emote Totals: map[]
New Emote Totals: map[cheer:1]
Skip update due to dry run...

Existing Message: cheer97 Kappa
Existing Emote Totals: map[]
New Emote Totals: map[cheer:97]
Skip update due to dry run...

Existing Message: cheer1000 Kappa
Existing Emote Totals: map[]
New Emote Totals: map[cheer:1000]
Skip update due to dry run...

Existing Message: cheer200 Kappa
Existing Emote Totals: map[]
New Emote Totals: map[cheer:200]
Skip update due to dry run...

Existing Message: cheer45
Existing Emote Totals: map[]
New Emote Totals: map[cheer:45]
Skip update due to dry run...

Existing Message: cheer34
Existing Emote Totals: map[cheer:34]
New Emote Totals: map[cheer:34]
Skip update due to dry run...

Existing Message: cheer61 Kappa challenge me
Existing Emote Totals: map[cheer:61]
New Emote Totals: map[cheer:61]
Skip update due to dry run...

Existing Message: cheer1000 Kappa
Existing Emote Totals: map[cheer:1000]
New Emote Totals: map[cheer:1000]
Skip update due to dry run...

Existing Message: kappa69
Existing Emote Totals: map[]
New Emote Totals: map[kappa:69]
Skip update due to dry run...

Existing Message: party1
Existing Emote Totals: map[]
New Emote Totals: map[party:1]
Skip update due to dry run...

Existing Message: seemsgood1 bday1 frankerz1 showlove1 pjsalt1
Existing Emote Totals: map[]
New Emote Totals: map[bday:1 frankerz:1 pjsalt:1 seemsgood:1 showlove:1]
Skip update due to dry run...

Existing Message: kappa101
Existing Emote Totals: map[]
New Emote Totals: map[kappa:101]
Skip update due to dry run...

Existing Message: cheer1 cheer1 cheer1 cheer1 cheer1 cheer1 cheer1 cheer1 cheer1
Existing Emote Totals: map[]
New Emote Totals: map[cheer:9]
Skip update due to dry run...

Existing Message: cheer1
Existing Emote Totals: map[]
New Emote Totals: map[cheer:1]
Skip update due to dry run...

Existing Message: party5 party5 party5 party5 party5
Existing Emote Totals: map[]
New Emote Totals: map[party:25]
Skip update due to dry run...

Existing Message: cheer801 Kappa
Existing Emote Totals: map[]
New Emote Totals: map[cheer:801]
Skip update due to dry run...

Existing Message: cheer2
Existing Emote Totals: map[]
New Emote Totals: map[cheer:2]
Skip update due to dry run...

Existing Message: cheer3 Kappa
Existing Emote Totals: map[]
New Emote Totals: map[cheer:3]
Skip update due to dry run...

Existing Message: cheer4
Existing Emote Totals: map[]
New Emote Totals: map[cheer:4]
Skip update due to dry run...

Existing Message: cheer60 Love your streams and good luck with the shiny hunts aDrive
Existing Emote Totals: map[]
New Emote Totals: map[cheer:60]
Skip update due to dry run...

Existing Message: cheer500 Kappa
Existing Emote Totals: map[]
New Emote Totals: map[cheer:500]
Skip update due to dry run...

Existing Message: cheer125 Kappa
Existing Emote Totals: map[]
New Emote Totals: map[cheer:125]
Skip update due to dry run...

Existing Message: cheer75 you got me today Kappa
Existing Emote Totals: map[]
New Emote Totals: map[cheer:75]
Skip update due to dry run...

Existing Message: cheer500 THAT"S WHAT LOSERS SAY Kappa
Existing Emote Totals: map[]
New Emote Totals: map[cheer:500]
Skip update due to dry run...

Existing Message: cheer5 Kappa
Existing Emote Totals: map[]
New Emote Totals: map[cheer:5]
Skip update due to dry run...

Existing Message: cheer1000 last one i promise LUL
Existing Emote Totals: map[]
New Emote Totals: map[cheer:1000]
Skip update due to dry run...

Existing Message: cheer131 no more 69 bigboiking Kappa
Existing Emote Totals: map[]
New Emote Totals: map[cheer:131]
Skip update due to dry run...

Existing Message: cheer69 LUL
Existing Emote Totals: map[]
New Emote Totals: map[cheer:69]
Skip update due to dry run...

Existing Message: cheer31 Kappa
Existing Emote Totals: map[]
New Emote Totals: map[cheer:31]
Skip update due to dry run...

Existing Message: cheer69 bigboiking Kappa
Existing Emote Totals: map[]
New Emote Totals: map[cheer:69]
Skip update due to dry run...

Existing Message: kappa10 for the death
Existing Emote Totals: map[]
New Emote Totals: map[kappa:10]
Skip update due to dry run...

Existing Message: kappa10 another death
Existing Emote Totals: map[]
New Emote Totals: map[kappa:10]
Skip update due to dry run...

Existing Message: party11
Existing Emote Totals: map[]
New Emote Totals: map[party:11]
Skip update due to dry run...

Existing Message: bleedpurple500 bonus50
Existing Emote Totals: map[]
New Emote Totals: map[bleedpurple:500]
Skip update due to dry run...

Existing Message: bleedpurple500 bonus50 Kappa
Existing Emote Totals: map[]
New Emote Totals: map[bleedpurple:500]
Skip update due to dry run...

Existing Message: cheer51 LUL
Existing Emote Totals: map[]
New Emote Totals: map[cheer:51]
Skip update due to dry run...

Existing Message: cheer49
Existing Emote Totals: map[]
New Emote Totals: map[cheer:49]
Skip update due to dry run...

Existing Message: cheer51 Kappa
Existing Emote Totals: map[]
New Emote Totals: map[cheer:51]
Skip update due to dry run...

Existing Message: cheer2
Existing Emote Totals: map[]
New Emote Totals: map[cheer:2]
Skip update due to dry run...

Existing Message: cheer4
Existing Emote Totals: map[]
New Emote Totals: map[cheer:4]
Skip update due to dry run...

Existing Message: cheer20
Existing Emote Totals: map[]
New Emote Totals: map[cheer:20]
Skip update due to dry run...

Existing Message: cheer69 LUL
Existing Emote Totals: map[]
New Emote Totals: map[cheer:69]
Skip update due to dry run...

Existing Message: cheer1 cheer1 cheer1 cheer1 cheer1 cheer1 cheer1 cheer1 cheer1 cheer1 cheer1
Existing Emote Totals: map[]
New Emote Totals: map[cheer:11]
Skip update due to dry run...

Existing Message: cheer200 cheer200 cheer200 Kappa
Existing Emote Totals: map[]
New Emote Totals: map[cheer:600]
Skip update due to dry run...

Existing Message: cheer200 Kappa
Existing Emote Totals: map[]
New Emote Totals: map[cheer:200]
Skip update due to dry run...

Existing Message: kappa69
Existing Emote Totals: map[]
New Emote Totals: map[kappa:69]
Skip update due to dry run...

Existing Message: cheer200 Kappa
Existing Emote Totals: map[]
New Emote Totals: map[cheer:200]
Skip update due to dry run...

