{
    "entitlements": [
        {
            "owner": "488881234",
            "productId": "owl2018.LOADTEST-RYANRESI.milestone1",
            "domain": "campaigns",
            "origin": "Test CreateEntitlement for load test"
         }
     ]
}