{
  "Tools": [
    {
      "Repository": "github.com/twitchtv/retool",
      "Commit": "41330f8b4e07dd732ea7aeff69cf8a1f0e84aff7"
    },
    {
      "Repository": "github.com/golang/dep/cmd/dep",
      "Commit": "5600de07d5903b1d1acd8939b93ecf5c35151ace"
    },
    {
      "Repository": "github.com/alecthomas/gometalinter",
      "Commit": "32416ab75314da538e4a51cdf3c6189b66fe3de4"
    },
    {
      "Repository": "golang.org/x/tools/cmd/goimports",
      "Commit": "6536af71d98a5bb8f2cbd2f5e62afc2f6cc93dbb"
    }
  ],
  "RetoolVersion": "1.3.7"
}