{
  "category": "affiliate",
  "timestamp": "2017-08-23T22:46:35.114143809Z",
  "action_category": "affiliate",
  "channel_id": "87098594",
  "action": "onboard",
  "invitation_id": "171dc341-814d-47eb-9eb5-f2fc2752860f"
}