{
  "image": "docker.pkgs.xarth.tv/devtools/bionic/go1.15.4:latest",
  "mount": "/go/src/code.justin.tv/commerce/box-office",
  "env": [
    "PATH=/go/bin/:/usr/local/go/bin:$PATH",
    "GOPATH=/go"
  ],
  "setup": [
   ],
   "build": [
       "make manta"
   ],
   "extract": {
       "source": "/go/src/code.justin.tv/commerce/box-office",
       "destination": ".manta/"
   }
}
