{
  "apiConfig": {
    "cblPage": {
      "endpoint": "https://cblEndpoint1",
      "operationName": "cblOperationName1",
      "path": "cblPath1",
      "retries": 1,
      "retryDelaySeconds": 1.1,
      "serviceName": "cblServiceName1",
      "serviceNamespace": "cblServiceNamespace1",
      "timeoutSeconds": 1.2
    },
    "cookie": {
      "endpoint": "https://www.amazon.com"
    },
    "getProductListDetails": {
      "endpoint": "https://getProductListDetailsEndpoint1",
      "operationName": "foo",
      "serviceName": "foo",
      "serviceNamespace": "foo"
    },
    "metrics": {
      "endpoint": "https://metricsEndpoint1",
      "path": "foo"
    },
    "purchasePage": {
      "endpoint": "https://purchasePageEndpoint1"
    },
    "unlinkedAccountsPage": {
      "endpoint": "https://unlinkedAccountsPageEndpoint1",
      "path": "foo"
    },
    "expiredCredentialsPage": {
      "endpoint": "https://expiredCredentialsPage1",
      "path": "foo"
    },
    "syncGoods": {
      "endpoint": "https://syncGoodsEndpoint1",
      "operationName": "foo",
      "serviceName": "foo",
      "serviceNamespace": "foo"
    },
    "tokenExchange": {
      "endpoint": "https://tokenExchangeEndpoint1"
    },
    "validateTwitchToken": {
      "endpoint": "https://validateTwitchTokenEndpoint1"
    }
  },
  "configSettings": {
    "fallbackDurationSeconds": 11000,
    "file": "https://configFile1",
    "initializationTimeoutSeconds": 12,
    "jitterMultiplier": 0.13,
    "maxFailuresUntilFallback": 14,
    "refreshIntervalSeconds": 150000
  },
  "cookiesDomain": "cookies1",
  "discoveryProductBlacklist": [ "discoveryProductBlacklist1" ],
  "entitlementProductBlacklist": [ "entitlementProductBlacklist1" ],
  "metricsMaxQueueSize": 1,
  "metricsTransmissionIntervalSeconds": 10.5,
  "openInBrowserWhitelist": [
    { "path":  "openInBrowserWhitelist1" }
  ],
  "overlayUriWhitelist": [
    { "path":  "overlayUriWhitelist1" }
  ],
  "pageLoadTimeoutSeconds": 10,
  "restartCblBlacklist": [
    { "path":  "restartCblBlacklist1" }
  ],
  "urlPathBlacklistMaxRedirects": 1
}