{
  "apiConfig": {
    "cblPage": {
      "enabled":  false,
      "endpoint": "https://cblEndpoint2",
      "operationName": "cblOperationName2",
      "path": "cblPath2",
      "retries": 2,
      "retryDelaySeconds": 2.1,
      "serviceName": "cblServiceName2",
      "serviceNamespace": "cblServiceNamespace2",
      "timeoutSeconds": 2.2
    },
    "cookie": {
      "endpoint": "https://www.amazon.com"
    },
    "getProductListDetails": {
      "endpoint": "https://getProductListDetailsEndpoint2",
      "operationName": "foo",
      "serviceName": "foo",
      "serviceNamespace": "foo"
    },
    "metrics": {
      "endpoint": "https://metricsEndpoint2",
      "path": "foo"
    },
    "purchasePage": {
      "endpoint": "https://purchasePageEndpoint2"
    },
    "unlinkedAccountsPage": {
      "endpoint": "https://unlinkedAccountsPageEndpoint2",
      "path": "foo"
    },
    "expiredCredentialsPage": {
      "endpoint": "https://expiredCredentialsPage2",
      "path": "foo"
    },
    "syncGoods": {
      "endpoint": "https://syncGoodsEndpoint2",
      "operationName": "foo",
      "serviceName": "foo",
      "serviceNamespace": "foo"
    },
    "tokenExchange": {
      "endpoint": "https://tokenExchangeEndpoint2"
    },
    "validateTwitchToken": {
      "endpoint": "https://validateTwitchTokenEndpoint2"
    }
  },
  "configSettings": {
    "fallbackDurationSeconds": 21000,
    "file": "https://configFile2",
    "initializationTimeoutSeconds": 22,
    "jitterMultiplier": 0.23,
    "maxFailuresUntilFallback": 24,
    "refreshIntervalSeconds": 250000
  },
  "cookiesDomain": "cookies2",
  "discoveryProductBlacklist": [ "discoveryProductBlacklist2" ],
  "entitlementProductBlacklist": [ "entitlementProductBlacklist2" ],
  "metricsMaxQueueSize": 2,
  "metricsTransmissionIntervalSeconds": 20.5,
  "openInBrowserWhitelist": [
    { "path":  "openInBrowserWhitelist2" }
  ],
  "overlayUriWhitelist": [
    { "path": "overlayUriWhitelist2" }
  ],
  "pageLoadTimeoutSeconds": 20,
  "restartCblBlacklist": [
    { "path":  "restartCblBlacklist2" }
  ],
  "urlPathBlacklistMaxRedirects": 2
}