AMAZON,B017L2UX4C,Amazon $1.40 for 100 Bits,CB_140_CBP_00140,100,FALSE,TRUE,B017L2UX4C-AMAZON,FALSE,10,,,,,,,,,246b78a1-8e90-4667-a948-84f75c796eda,TRUE
AMAZON,B018WMZKR0,Amazon $7 for 500 Bits,CB_700_CBP_00140,500,FALSE,TRUE,B018WMZKR0-AMAZON,FALSE,10,,,,,,,,,cd9e195a-d394-4c2f-a744-00020109d08c,TRUE
AMAZON,B018WMZN5E,"Amazon $19.95 for 1,500 Bits",CB_1995_CBP_00133,1500,FALSE,TRUE,B018WMZN5E-AMAZON,FALSE,10,,,,,,,,,0fb1952c-8739-4c8d-bae2-b44aa5efd44d,TRUE
AMAZON,B018WMZSPY,"Amazon $64.40 for 5,000 Bits",CB_6440_CBP_00129,5000,FALSE,TRUE,B018WMZSPY-AMAZON,FALSE,10,,,,,,,,,3f3b0757-b95e-4db2-8d1b-a60921ccf94f,TRUE
AMAZON,B018WMZYPI,"Amazon $126 for 10,000 Bits",CB_12600_CBP_00126,10000,FALSE,TRUE,B018WMZYPI-AMAZON,FALSE,10,,,,,,,,,3cfabf59-92ce-47c4-83be-4adbf5b7cac2,TRUE
AMAZON,B01G4BISOS,"Amazon $308 for 25,000 Bits",CB_30800_CBP_00120,25000,FALSE,TRUE,B01G4BISOS-AMAZON,FALSE,6,,,,,,,,,02cd1d71-27c1-4c50-9182-7275c2522814,TRUE
AMAZON,B01H2MOPH2,Amazon $0 for 0 Bits,CB_0,0,FALSE,TRUE,B01H2MOPH2,TRUE,1,,,,,,TRUE,,,,FALSE
AMAZON,B073RTRHTZ,"Amazon $10 for 1,000 Bits Promo",CB_1000_CBP_00100,1000,TRUE,TRUE,B073RTRHTZ-AMAZON,FALSE,1,2020/11/21 09:59 PST,first_time_purchase,2017/11/28 00:00 PDT,first_time_purchase,,,,,5b851070-640d-42ba-b751-9f055e1e81be,TRUE
AMAZON,B075ZD2VZQ,Amazon $3.50 for 500 Bits Promo,500_BITS_FOR_350_PROMO,500,TRUE,TRUE,B075ZD2VZQ-AMAZON,TRUE,1,2017/04/20 04:21 PDT,fake_promo_id,2017/04/20 04:19 PDT,first_time_purchase,,,,,,FALSE
AMAZON,B077H4S2KH,"Amazon $25 for 2,500 Bits Promo",CB_2500_CBP_00100,2500,TRUE,TRUE,B077H4S2KH-AMAZON,FALSE,1,2017/11/27 23:59 PST,black_friday_2017,2017/11/22 00:00 PST,single_purchase,,,,,,FALSE
AMAZON,B079Y8SGFK,Amazon $0.99 for 500 Bits Prime Promo,CB_099_PRIME_PROMO,500,TRUE,TRUE,B079Y8SGFK,FALSE,1,2018/04/20 00:00 PDT,twitch_prime_2018,2018/04/16 09:00 PDT,prime_single_purchase,,,,,,FALSE
AMAZON,B07KFRRT2Y,"Amazon $25 for 2,500 Bits Promo",CB_2500_CBP_00100,2500,TRUE,TRUE,B07KFRRT2Y-AMAZON,FALSE,1,2018/11/26 23:59 PST,black_friday_2018,2018/11/21 10:00 PST,single_purchase,[],,,,,FALSE
AMAZON,SKU-00000026,"Amazon $25 for 2,500 Bits Spring Promo",CB_2500_CBP_00100_SPRING,2500,TRUE,TRUE,SKU-00000026-AMAZON,FALSE,1,2019/04/01 00:00 PDT,spring_sale_2019,2019/03/21 10:00 PDT,single_purchase,,,,,80d5535c-6ece-4280-ae08-e3a9e80ca516,FALSE
ANDROID,tv.twitch.android.iap.bits.everyday.t10,Android $10 for 510 Bits,tv.twitch.android.iap.bits.everyday.t10,510,FALSE,TRUE,tv.twitch.android.iap.bits.everyday.t10,FALSE,1,,,,,,,,,,TRUE
ANDROID,tv.twitch.android.iap.bits.everyday.t100,"Android $100 for 5,550 Bits",tv.twitch.android.iap.bits.everyday.t100,5550,FALSE,TRUE,tv.twitch.android.iap.bits.everyday.t100,FALSE,1,,,,,,,,,,TRUE
ANDROID,tv.twitch.android.iap.bits.everyday.t2,Android $2 for 95 Bits,tv.twitch.android.iap.bits.everyday.t2,95,FALSE,TRUE,tv.twitch.android.iap.bits.everyday.t2,FALSE,1,,,,,,,,,,TRUE
ANDROID,tv.twitch.android.iap.bits.everyday.t20,"Android $20 for 1,050 Bits",tv.twitch.android.iap.bits.everyday.t20,1050,FALSE,TRUE,tv.twitch.android.iap.bits.everyday.t20,FALSE,1,,,,,,,,,,TRUE
ANDROID,tv.twitch.android.iap.bits.everyday.t200,"Android $200 for 11,500 Bits",tv.twitch.android.iap.bits.everyday.t200,11500,FALSE,TRUE,tv.twitch.android.iap.bits.everyday.t200,TRUE,1,,,,,,,,,,TRUE
ANDROID,tv.twitch.android.iap.bits.everyday.t5,Android $5 for 245 Bits,tv.twitch.android.iap.bits.everyday.t5,245,FALSE,TRUE,tv.twitch.android.iap.bits.everyday.t5,FALSE,1,,,,,,,,,,TRUE
ANDROID,tv.twitch.android.iap.bits.everyday.t50,"Android $50 for 2,750 Bits",tv.twitch.android.iap.bits.everyday.t50,2750,FALSE,TRUE,tv.twitch.android.iap.bits.everyday.t50,FALSE,1,,,,,,,,,,TRUE
ANDROID,tv.twitch.android.iap.bits.promotion.t1,Android $1 for 500 Bits Promo,tv.twitch.android.iap.bits.promotion.t1,500,TRUE,TRUE,tv.twitch.android.iap.bits.promotion.t1,FALSE,1,2018/04/20 00:00 PDT,twitch_prime_2018,2018/04/16 09:00 PDT,prime_single_purchase,,,,,,TRUE
ANDROID,tv.twitch.android.iap.bits.promotion.t25,"Android $25 for 2,500 Bits Promo",tv.twitch.android.iap.bits.promotion.t25,2500,TRUE,TRUE,tv.twitch.android.iap.bits.promotion.t25,FALSE,1,2018/11/26 23:59 PST,black_friday_2018,2018/11/21 10:00 PST,single_purchase,[],,,,,TRUE
ANDROID,tv.twitch.android.iap.bits.promotion.t7,Android $7 for 500 Bits Promo,tv.twitch.android.iap.bits.promotion.t7,500,TRUE,TRUE,tv.twitch.android.iap.bits.promotion.t7,FALSE,1,2020/11/23 00:00 PST,first_time_purchase,2016/01/01 00:00 PDT,first_time_purchase,,,,,,TRUE
IOS,tv.twitch.ios.iap.bits.everyday.t10,iOS $10 for 510 Bits,tv.twitch.ios.iap.bits.everyday.t10,510,FALSE,TRUE,tv.twitch.ios.iap.bits.everyday.t10,FALSE,1,,,,,,,,,,TRUE
IOS,tv.twitch.ios.iap.bits.everyday.t2,iOS $2 for 95 Bits,tv.twitch.ios.iap.bits.everyday.t2,95,FALSE,TRUE,tv.twitch.ios.iap.bits.everyday.t2,FALSE,1,,,,,,,,,,TRUE
IOS,tv.twitch.ios.iap.bits.everyday.t20,"iOS $20 for 1,050 Bits",tv.twitch.ios.iap.bits.everyday.t20,1050,FALSE,TRUE,tv.twitch.ios.iap.bits.everyday.t20,FALSE,1,,,,,,,,,,TRUE
IOS,tv.twitch.ios.iap.bits.everyday.t200,"iOS $200 for 11,500 Bits",tv.twitch.ios.iap.bits.everyday.t200,11500,FALSE,TRUE,tv.twitch.ios.iap.bits.everyday.t200,TRUE,1,,,,,,,,,,TRUE
IOS,tv.twitch.ios.iap.bits.everyday.t5,iOS $5 for 245 Bits,tv.twitch.ios.iap.bits.everyday.t5,245,FALSE,TRUE,tv.twitch.ios.iap.bits.everyday.t5,FALSE,1,,,,,,,,,,TRUE
IOS,tv.twitch.ios.iap.bits.everyday.t50,"iOS $50 for 2,750 Bits",tv.twitch.ios.iap.bits.everyday.t50,2750,FALSE,TRUE,tv.twitch.ios.iap.bits.everyday.t50,FALSE,1,,,,,,,,,,TRUE
IOS,tv.twitch.ios.iap.bits.everyday.v1.t100,"iOS $100 for 5,550 Bits",tv.twitch.ios.iap.bits.everyday.v1.t100,5550,FALSE,TRUE,tv.twitch.ios.iap.bits.everyday.v1.t100,FALSE,1,,,,,,,,,,TRUE
IOS,tv.twitch.ios.iap.bits.everyday.v1.t200,"iOS $200 for 11,500 Bits",tv.twitch.ios.iap.bits.everyday.t200,11500,FALSE,TRUE,tv.twitch.ios.iap.bits.everyday.v1.t200,FALSE,1,,,,,,,,,,TRUE
IOS,tv.twitch.ios.iap.bits.promotion.t1,iOS $1 for 500 Bits Promo,tv.twitch.ios.iap.bits.promotion.t1,500,TRUE,TRUE,tv.twitch.ios.iap.bits.promotion.t1,FALSE,1,2018/04/20 00:00 PDT,twitch_prime_2018,2018/04/16 09:00 PDT,prime_single_purchase,,,,,,TRUE
IOS,tv.twitch.ios.iap.bits.promotion.t25,"iOS $25 for 2,500 Bits Promo",tv.twitch.ios.iap.bits.promotion.t25,2500,TRUE,TRUE,tv.twitch.ios.iap.bits.promotion.t25,FALSE,1,2018/11/26 23:59 PST,black_friday_2018,2018/11/21 10:00 PST,single_purchase,[],,,,,TRUE
IOS,tv.twitch.ios.iap.bits.promotion.t7,iOS $7 for 500 Bits Promo,tv.twitch.ios.iap.bits.promotion.t7,500,TRUE,TRUE,tv.twitch.ios.iap.bits.promotion.t7,FALSE,1,2020/11/23 00:00 PST,first_time_purchase,2016/01/01 00:00 PDT,first_time_purchase,,,,,,TRUE
PAYPAL,B017L2UX4C,Paypal $1.40 for 100 Bits,CB_140_CBP_00140_PAYPAL,100,FALSE,TRUE,B017L2UX4C,FALSE,10,,,,,,,,,246b78a1-8e90-4667-a948-84f75c796eda,TRUE
PAYPAL,B018WMZKR0,Paypal $7 for 500 Bits,CB_700_CBP_00140_PAYPAL,500,FALSE,TRUE,B018WMZKR0,FALSE,10,,,,,,,,,cd9e195a-d394-4c2f-a744-00020109d08c,TRUE
PAYPAL,B018WMZN5E,"Paypal $19.95 for 1,500 Bits",CB_1995_CBP_00133_PAYPAL,1500,FALSE,TRUE,B018WMZN5E,FALSE,10,,,,,,,,,0fb1952c-8739-4c8d-bae2-b44aa5efd44d,TRUE
PAYPAL,B018WMZSPY,"Paypal $64.40 for 5,000 Bits",CB_6440_CBP_00129_PAYPAL,5000,FALSE,TRUE,B018WMZSPY,FALSE,10,,,,,,,,,3f3b0757-b95e-4db2-8d1b-a60921ccf94f,TRUE
PAYPAL,B018WMZYPI,"Paypal $126 for 10,000 Bits",CB_12600_CBP_00126_PAYPAL,10000,FALSE,TRUE,B018WMZYPI,FALSE,10,,,,,,,,,3cfabf59-92ce-47c4-83be-4adbf5b7cac2,TRUE
PAYPAL,B01G4BISOS,"Paypal $308 for 25,000 Bits",CB_30800_CBP_00120_PAYPAL,25000,FALSE,TRUE,B01G4BISOS,FALSE,6,,,,,,,,,02cd1d71-27c1-4c50-9182-7275c2522814,TRUE
PAYPAL,B073RTRHTZ,"Paypal $10 for 1,000 Bits Promo",CB_1000_CBP_00100_PAYPAL,1000,TRUE,TRUE,B073RTRHTZ,FALSE,1,2020/11/21 09:59 PST,first_time_purchase,2017/11/28 00:00 PDT,first_time_purchase,,,,,5b851070-640d-42ba-b751-9f055e1e81be,TRUE
PAYPAL,B077H4S2KH,Paypal $3.50 for 500 Bits Promo,CB_2500_CBP_00100_PAYPAL,2500,TRUE,TRUE,B077H4S2KH,FALSE,1,2017/11/27 23:59 PST,black_friday_2017,2017/11/22 00:00 PST,single_purchase,,,,,,FALSE
PAYPAL,B079Y8SGFK,Paypal $0.99 for 500 Bits Prime Promo,CB_099_PRIME_PROMO_PAYPAL,500,TRUE,TRUE,B079Y8SGFK,FALSE,1,2018/04/20 00:00 PDT,twitch_prime_2018,2018/04/16 09:00 PDT,prime_single_purchase,,,,,,FALSE
PAYPAL,B07KFRRT2Y,"Paypal $25 for 2,500 Bits Promo",CB_2500_CBP_00100_PAYPAL,2500,TRUE,TRUE,B07KFRRT2Y,FALSE,1,2018/11/26 23:59 PST,black_friday_2018,2018/11/21 10:00 PST,single_purchase,[],,,,,FALSE
PAYPAL,SKU-00000026,"Paypal $25 for 2,500 Bits Spring Promo",CB_2500_CBP_00100_SPRING_PAYPAL,2500,TRUE,TRUE,SKU-00000026,FALSE,1,2019/04/01 00:00 PDT,spring_sale_2019,2019/03/21 10:00 PDT,single_purchase,,,,,80d5535c-6ece-4280-ae08-e3a9e80ca516,FALSE
PHANTO,100_bits,Phanto 100 Bits Code,BitsForCode,100,FALSE,FALSE,100_bits,TRUE,1,,,,,,,,,,FALSE
PHANTO,1_bits,Phanto 1 Bits Code,BitsForCode,1,FALSE,FALSE,1_bits,TRUE,1,,,,,,,,,,FALSE
PHANTO,phanto.AGS_Twitch_GDC_2019.RECRUIT,AGS GDC 2019 Recruitment Code,phanto.AGS_Twitch_GDC_2019.RECRUIT,500,FALSE,FALSE,phanto.AGS_Twitch_GDC_2019.RECRUIT,TRUE,1,,,,,,,,,,FALSE
PHANTO,phanto.GILLETTE_Gaming_Alliance_2019,Gillette Gaming Alliance 2019 Code,phanto.GILLETTE_Gaming_Alliance_2019,250,FALSE,FALSE,phanto.GILLETTE_Gaming_Alliance_2019,TRUE,1,,,,,,,,,,FALSE
PHANTO,phanto.bitsbot,Bits Bot Code,phanto.bitsbot,100,FALSE,FALSE,phanto.bitsbot,TRUE,1,,,,,,,,,,FALSE
PHANTO,phanto.blizzard_of_bits.bonus_bits,Blizzard of Bits - Bonus Bits Code,phanto.blizzard_of_bits.bonus_bits,200,FALSE,FALSE,phanto.blizzard_of_bits.bonus_bits,TRUE,1,,,,,,,,,,FALSE
PHANTO,phanto.game_on_tournament.2018.high,Game On Tournament 2018 - High Reward,phanto.game_on_tournament.2018.high,5000,FALSE,FALSE,phanto.game_on_tournament.2018.high,TRUE,1,,,,,,,,,,FALSE
PHANTO,phanto.game_on_tournament.2018.low,Game On Tournament 2018 - Low Reward,phanto.game_on_tournament.2018.low,500,FALSE,FALSE,phanto.game_on_tournament.2018.low,TRUE,1,,,,,,,,,,FALSE
PHANTO,phanto.global_mod_thanks.2018,Global Moderator Thank You Gift 2018,phanto.global_mod_thanks.2018,5000,FALSE,FALSE,phanto.global_mod_thanks.2018,TRUE,1,,,,,,,,,,FALSE
PHANTO,phanto.kingdom_hearts_3_preorder,Kingdom Hearts 3 Preorder Bits Code,phanto.kingdom_hearts_3_preorder,500,FALSE,FALSE,phanto.kingdom_hearts_3_preorder,TRUE,1,,,,,,,,,,FALSE
PHANTO,phanto.mp.e3party2019,Pachter E3 Party 2019 Bits Code,phanto.mp.e3party2019,100,FALSE,FALSE,phanto.mp.e3party2019,TRUE,1,,,,,,,,,,FALSE
PHANTO,phanto.sc2_war_chest.2019,Starcraft 2 War Chest 2019 Code,phanto.sc2_war_chest.2019,185,FALSE,FALSE,phanto.sc2_war_chest.2019,TRUE,1,,,,,,,,,,FALSE
PHANTO,phanto.test_bits.1bit,Phanto Test 1 Bits Code,phanto.test_bits.1bit,1,FALSE,FALSE,phanto.test_bits.1bit,TRUE,1,,,,,,,,,,FALSE
PHANTO,phanto.twitch_amazon_hoodie_2018,Twitch Amazon Hoodie 2018 Bits Code,phanto.twitch_amazon_hoodie_2018,1500,FALSE,FALSE,phanto.twitch_amazon_hoodie_2018,TRUE,1,,,,,,,,,,FALSE
PHANTO,phanto.twitch_gdc_2019,Twitch GDC 2018 Code,phanto.twitch_gdc_2019,1000,FALSE,FALSE,phanto.twitch_gdc_2019,TRUE,1,,,,,,,,,,FALSE
PHANTO,phanto.twitchcon.2018.bitsblaster.hightier,TwitchCon 2018 - Bits Blaster - High Tier Code,phanto.twitchcon.2018.bitsblaster.hightier,1000,FALSE,FALSE,phanto.twitchcon.2018.bitsblaster.hightier,TRUE,1,,,,,,,,,,FALSE
PHANTO,phanto.twitchcon.2018.bitsblaster.lowtier,TwitchCon 2018 - Bits Blaster - Low Tier Code,phanto.twitchcon.2018.bitsblaster.lowtier,250,FALSE,FALSE,phanto.twitchcon.2018.bitsblaster.lowtier,TRUE,1,,,,,,,,,,FALSE
PHANTO,phanto.twitchcon.2018.bitsblaster.mediumtier,TwitchCon 2018 - Bits Blaster - Medium Tier Code,phanto.twitchcon.2018.bitsblaster.mediumtier,500,FALSE,FALSE,phanto.twitchcon.2018.bitsblaster.mediumtier,TRUE,1,,,,,,,,,,FALSE
PHANTO,phanto.twitchcon.2018.gameon,TwitchCon 2018 - Game On Code,phanto.twitchcon.2018.gameon,500,FALSE,FALSE,phanto.twitchcon.2018.gameon,TRUE,1,,,,,,,,,,FALSE
PHANTO,phanto.twitchcon.2018.swagbag,TwitchCon 2018 - Swag Bag Code,phanto.twitchcon.2018.swagbag,100,FALSE,FALSE,phanto.twitchcon.2018.swagbag,TRUE,1,,,,,,,,,,FALSE
XSOLLA,B017L2UX4C,Xsolla $1.40 for 100 Bits,CB_140_CBP_00140_XSOLLA,100,FALSE,TRUE,B017L2UX4C,FALSE,10,,,,,,,,,246b78a1-8e90-4667-a948-84f75c796eda,TRUE
XSOLLA,B018WMZKR0,Xsolla $7 for 500 Bits,CB_700_CBP_00140_XSOLLA,500,FALSE,TRUE,B018WMZKR0,FALSE,10,,,,,,,,,cd9e195a-d394-4c2f-a744-00020109d08c,TRUE
XSOLLA,B018WMZN5E,"Xsolla $19.95 for 1,500 Bits",CB_1995_CBP_00133_XSOLLA,1500,FALSE,TRUE,B018WMZN5E,FALSE,10,,,,,,,,,0fb1952c-8739-4c8d-bae2-b44aa5efd44d,TRUE
XSOLLA,B018WMZSPY,"Xsolla $64.40 for 5,000 Bits",CB_6440_CBP_00129_XSOLLA,5000,FALSE,TRUE,B018WMZSPY,FALSE,10,,,,,,,,,3f3b0757-b95e-4db2-8d1b-a60921ccf94f,TRUE
XSOLLA,B018WMZYPI,"Xsolla $126 for 10,000 Bits",CB_12600_CBP_00126_XSOLLA,10000,FALSE,TRUE,B018WMZYPI,FALSE,10,,,,,,,,,3cfabf59-92ce-47c4-83be-4adbf5b7cac2,TRUE
XSOLLA,B01G4BISOS,"Xsolla $308 for 25,000 Bits",CB_30800_CBP_00120_XSOLLA,25000,FALSE,TRUE,B01G4BISOS,FALSE,6,,,,,,,,,02cd1d71-27c1-4c50-9182-7275c2522814,TRUE
XSOLLA,B073RTRHTZ,"Xsolla $10 for 1,000 Bits Promo",CB_1000_CBP_00100_XSOLLA,1000,TRUE,TRUE,B073RTRHTZ,FALSE,1,2020/01/01 00:00 PST,first_time_purchase,2017/11/28 00:00 PST,first_time_purchase,,,,,5b851070-640d-42ba-b751-9f055e1e81be,TRUE