{
    "Campaigns": {
        "creator_luv": [
            {
                "Id": "creator_luv.megacheer",
                "ActiveStartDate": "2020-01-30T22:00:00Z",
                "ActiveEndDate": "2020-02-17T08:00:00Z",
                "Title": "creator_luv",
                "Description": "creator_luv",
                "AllChannels": true,
                "Triggers": [
                    {
                        "Id": "creator_luv.megacheer.cheer.trigger",
                        "Title": "creator_luv",
                        "Description": "creator_luv",
                        "TriggerAmountMin": 300,
                        "TriggerAmountMax": 10000000,
                        "TriggerType": "CHEER",
                        "ActiveStartDate": "2020-01-30T22:00:00Z",
                        "ActiveEndDate": "2020-02-17T08:00:00Z",
                        "VisibleStartDate": "2020-01-30T22:00:00Z",
                        "VisibleEndDate": "2020-02-17T08:00:00Z",
                        "RecipientSelectionFormula": "holiday2019",
                        "BenefactorRewardAttributes": {
                            "Rewards": [
                                {
                                    "Description": "LuvOops",
                                    "ImageUrl": "https://static-cdn.jtvnw.net/emoticons/v1/301396357/3.0",
                                    "Type": "emote",
                                    "Id": "301396357",
                                    "Name": "LuvOops",
                                    "OwnerID": "488737509",
                                    "StartsAt": "2020-01-27T18:00:00Z"
                                },
                                {
                                    "Description": "LuvPeekL",
                                    "ImageUrl": "https://static-cdn.jtvnw.net/emoticons/v1/301396363/3.0",
                                    "Type": "emote",
                                    "Id": "301396363",
                                    "Name": "LuvPeekL",
                                    "OwnerID": "488737509",
                                    "StartsAt": "2020-01-27T18:00:00Z"
                                },
                                {
                                    "Description": "LuvPeekR",
                                    "ImageUrl": "https://static-cdn.jtvnw.net/emoticons/v1/301396373/3.0",
                                    "Type": "emote",
                                    "Id": "301396373",
                                    "Name": "LuvPeekR",
                                    "OwnerID": "488737509",
                                    "StartsAt": "2020-01-27T18:00:00Z"
                                },
                                {
                                    "Description": "LuvSnooze",
                                    "ImageUrl": "https://static-cdn.jtvnw.net/emoticons/v1/301396378/3.0",
                                    "Type": "emote",
                                    "Id": "301396378",
                                    "Name": "LuvSnooze",
                                    "OwnerID": "488737509",
                                    "StartsAt": "2020-01-27T18:00:00Z"
                                },
                                {
                                    "Description": "LuvCool",
                                    "ImageUrl": "https://static-cdn.jtvnw.net/emoticons/v1/301396382/3.0",
                                    "Type": "emote",
                                    "Id": "301396382",
                                    "Name": "LuvCool",
                                    "OwnerID": "488737509",
                                    "StartsAt": "2020-01-27T18:00:00Z"
                                },
                                {
                                    "Description": "LuvUok",
                                    "ImageUrl": "https://static-cdn.jtvnw.net/emoticons/v1/301396388/3.0",
                                    "Type": "emote",
                                    "Id": "301396388",
                                    "Name": "LuvUok",
                                    "OwnerID": "488737509",
                                    "StartsAt": "2020-01-27T18:00:00Z"
                                },
                                {
                                    "Description": "LuvBlush",
                                    "ImageUrl": "https://static-cdn.jtvnw.net/emoticons/v1/301396406/3.0",
                                    "Type": "emote",
                                    "Id": "301396406",
                                    "Name": "LuvBlush",
                                    "OwnerID": "488737509",
                                    "StartsAt": "2020-01-27T18:00:00Z"
                                },
                                {
                                    "Description": "LuvHearts",
                                    "ImageUrl": "https://static-cdn.jtvnw.net/emoticons/v1/301396428/3.0",
                                    "Type": "emote",
                                    "Id": "301396428",
                                    "Name": "LuvHearts",
                                    "OwnerID": "488737509",
                                    "StartsAt": "2020-01-27T18:00:00Z"
                                },
                                {
                                    "Description": "LuvGift",
                                    "ImageUrl": "https://static-cdn.jtvnw.net/emoticons/v1/301396432/3.0",
                                    "Type": "emote",
                                    "Id": "301396432",
                                    "Name": "LuvGift",
                                    "OwnerID": "488737509",
                                    "StartsAt": "2020-01-27T18:00:00Z"
                                },
                                {
                                    "Description": "LuvSign",
                                    "ImageUrl": "https://static-cdn.jtvnw.net/emoticons/v1/301396453/3.0",
                                    "Type": "emote",
                                    "Id": "301396453",
                                    "Name": "LuvSign",
                                    "OwnerID": "488737509",
                                    "StartsAt": "2020-01-27T18:00:00Z"
                                },
                                {
                                    "Description": "LuvBlondeL",
                                    "ImageUrl": "https://static-cdn.jtvnw.net/emoticons/v1/301396403/3.0",
                                    "Type": "emote",
                                    "Id": "301396403",
                                    "Name": "LuvBlondeL",
                                    "OwnerID": "488737509",
                                    "StartsAt": "2020-01-27T18:00:00Z"
                                },
                                {
                                    "Description": "LuvBrownR",
                                    "ImageUrl": "https://static-cdn.jtvnw.net/emoticons/v1/301396400/3.0",
                                    "Type": "emote",
                                    "Id": "301396400",
                                    "Name": "LuvBrownR",
                                    "OwnerID": "488737509",
                                    "StartsAt": "2020-01-27T18:00:00Z"
                                },
                                {
                                    "Description": "LuvBrownL",
                                    "ImageUrl": "https://static-cdn.jtvnw.net/emoticons/v1/301396467/3.0",
                                    "Type": "emote",
                                    "Id": "301396467",
                                    "Name": "LuvBrownL",
                                    "OwnerID": "488737509",
                                    "StartsAt": "2020-01-27T18:00:00Z"
                                },
                                {
                                    "Description": "LuvBlondeR",
                                    "ImageUrl": "https://static-cdn.jtvnw.net/emoticons/v1/301396475/3.0",
                                    "Type": "emote",
                                    "Id": "301396475",
                                    "Name": "LuvBlondeR",
                                    "OwnerID": "488737509",
                                    "StartsAt": "2020-01-27T18:00:00Z"
                                }
                            ],
                            "SelectionStrategy": "RANDOMINDEPENDENT",
                            "SelectionAmountScaled": true
                        },
                        "RecipientRewardAttributes": {
                            "Rewards": [
                                {
                                    "Description": "LuvOops",
                                    "ImageUrl": "https://static-cdn.jtvnw.net/emoticons/v1/301396357/3.0",
                                    "Type": "emote",
                                    "Id": "301396357",
                                    "Name": "LuvOops",
                                    "OwnerID": "488737509",
                                    "StartsAt": "2020-01-27T18:00:00Z"
                                },
                                {
                                    "Description": "LuvPeekL",
                                    "ImageUrl": "https://static-cdn.jtvnw.net/emoticons/v1/301396363/3.0",
                                    "Type": "emote",
                                    "Id": "301396363",
                                    "Name": "LuvPeekL",
                                    "OwnerID": "488737509",
                                    "StartsAt": "2020-01-27T18:00:00Z"
                                },
                                {
                                    "Description": "LuvPeekR",
                                    "ImageUrl": "https://static-cdn.jtvnw.net/emoticons/v1/301396373/3.0",
                                    "Type": "emote",
                                    "Id": "301396373",
                                    "Name": "LuvPeekR",
                                    "OwnerID": "488737509",
                                    "StartsAt": "2020-01-27T18:00:00Z"
                                },
                                {
                                    "Description": "LuvSnooze",
                                    "ImageUrl": "https://static-cdn.jtvnw.net/emoticons/v1/301396378/3.0",
                                    "Type": "emote",
                                    "Id": "301396378",
                                    "Name": "LuvSnooze",
                                    "OwnerID": "488737509",
                                    "StartsAt": "2020-01-27T18:00:00Z"
                                },
                                {
                                    "Description": "LuvCool",
                                    "ImageUrl": "https://static-cdn.jtvnw.net/emoticons/v1/301396382/3.0",
                                    "Type": "emote",
                                    "Id": "301396382",
                                    "Name": "LuvCool",
                                    "OwnerID": "488737509",
                                    "StartsAt": "2020-01-27T18:00:00Z"
                                },
                                {
                                    "Description": "LuvUok",
                                    "ImageUrl": "https://static-cdn.jtvnw.net/emoticons/v1/301396388/3.0",
                                    "Type": "emote",
                                    "Id": "301396388",
                                    "Name": "LuvUok",
                                    "OwnerID": "488737509",
                                    "StartsAt": "2020-01-27T18:00:00Z"
                                },
                                {
                                    "Description": "LuvBlush",
                                    "ImageUrl": "https://static-cdn.jtvnw.net/emoticons/v1/301396406/3.0",
                                    "Type": "emote",
                                    "Id": "301396406",
                                    "Name": "LuvBlush",
                                    "OwnerID": "488737509",
                                    "StartsAt": "2020-01-27T18:00:00Z"
                                },
                                {
                                    "Description": "LuvHearts",
                                    "ImageUrl": "https://static-cdn.jtvnw.net/emoticons/v1/301396428/3.0",
                                    "Type": "emote",
                                    "Id": "301396428",
                                    "Name": "LuvHearts",
                                    "OwnerID": "488737509",
                                    "StartsAt": "2020-01-27T18:00:00Z"
                                },
                                {
                                    "Description": "LuvGift",
                                    "ImageUrl": "https://static-cdn.jtvnw.net/emoticons/v1/301396432/3.0",
                                    "Type": "emote",
                                    "Id": "301396432",
                                    "Name": "LuvGift",
                                    "OwnerID": "488737509",
                                    "StartsAt": "2020-01-27T18:00:00Z"
                                },
                                {
                                    "Description": "LuvSign",
                                    "ImageUrl": "https://static-cdn.jtvnw.net/emoticons/v1/301396453/3.0",
                                    "Type": "emote",
                                    "Id": "301396453",
                                    "Name": "LuvSign",
                                    "OwnerID": "488737509",
                                    "StartsAt": "2020-01-27T18:00:00Z"
                                },
                                {
                                    "Description": "LuvBlondeL",
                                    "ImageUrl": "https://static-cdn.jtvnw.net/emoticons/v1/301396403/3.0",
                                    "Type": "emote",
                                    "Id": "301396403",
                                    "Name": "LuvBlondeL",
                                    "OwnerID": "488737509",
                                    "StartsAt": "2020-01-27T18:00:00Z"
                                },
                                {
                                    "Description": "LuvBrownR",
                                    "ImageUrl": "https://static-cdn.jtvnw.net/emoticons/v1/301396400/3.0",
                                    "Type": "emote",
                                    "Id": "301396400",
                                    "Name": "LuvBrownR",
                                    "OwnerID": "488737509",
                                    "StartsAt": "2020-01-27T18:00:00Z"
                                },
                                {
                                    "Description": "LuvBrownL",
                                    "ImageUrl": "https://static-cdn.jtvnw.net/emoticons/v1/301396467/3.0",
                                    "Type": "emote",
                                    "Id": "301396467",
                                    "Name": "LuvBrownL",
                                    "OwnerID": "488737509",
                                    "StartsAt": "2020-01-27T18:00:00Z"
                                },
                                {
                                    "Description": "LuvBlondeR",
                                    "ImageUrl": "https://static-cdn.jtvnw.net/emoticons/v1/301396475/3.0",
                                    "Type": "emote",
                                    "Id": "301396475",
                                    "Name": "LuvBlondeR",
                                    "OwnerID": "488737509",
                                    "StartsAt": "2020-01-27T18:00:00Z"
                                }
                            ],
                            "SelectionStrategy": "RANDOMINDEPENDENT",
                            "SelectionAmountScaled": true
                        }
                    },
                    {
                        "Id": "creator_luv.megacheer.subscription.trigger",
                        "Title": "creator_luv",
                        "Description": "creator_luv",
                        "TriggerAmountMin": 1,
                        "TriggerAmountMax": 10000000,
                        "TriggerType": "SUBSCRIPTION",
                        "ActiveStartDate": "2020-01-30T22:00:00Z",
                        "ActiveEndDate": "2020-02-17T08:00:00Z",
                        "VisibleStartDate": "2020-01-30T22:00:00Z",
                        "VisibleEndDate": "2020-02-17T08:00:00Z",
                        "RecipientSelectionFormula": "holiday2019",
                        "BenefactorRewardAttributes": {
                            "Rewards": [
                                {
                                    "Description": "LuvOops",
                                    "ImageUrl": "https://static-cdn.jtvnw.net/emoticons/v1/301396357/3.0",
                                    "Type": "emote",
                                    "Id": "301396357",
                                    "Name": "LuvOops",
                                    "OwnerID": "488737509",
                                    "StartsAt": "2020-01-27T18:00:00Z"
                                },
                                {
                                    "Description": "LuvPeekL",
                                    "ImageUrl": "https://static-cdn.jtvnw.net/emoticons/v1/301396363/3.0",
                                    "Type": "emote",
                                    "Id": "301396363",
                                    "Name": "LuvPeekL",
                                    "OwnerID": "488737509",
                                    "StartsAt": "2020-01-27T18:00:00Z"
                                },
                                {
                                    "Description": "LuvPeekR",
                                    "ImageUrl": "https://static-cdn.jtvnw.net/emoticons/v1/301396373/3.0",
                                    "Type": "emote",
                                    "Id": "301396373",
                                    "Name": "LuvPeekR",
                                    "OwnerID": "488737509",
                                    "StartsAt": "2020-01-27T18:00:00Z"
                                },
                                {
                                    "Description": "LuvSnooze",
                                    "ImageUrl": "https://static-cdn.jtvnw.net/emoticons/v1/301396378/3.0",
                                    "Type": "emote",
                                    "Id": "301396378",
                                    "Name": "LuvSnooze",
                                    "OwnerID": "488737509",
                                    "StartsAt": "2020-01-27T18:00:00Z"
                                },
                                {
                                    "Description": "LuvCool",
                                    "ImageUrl": "https://static-cdn.jtvnw.net/emoticons/v1/301396382/3.0",
                                    "Type": "emote",
                                    "Id": "301396382",
                                    "Name": "LuvCool",
                                    "OwnerID": "488737509",
                                    "StartsAt": "2020-01-27T18:00:00Z"
                                },
                                {
                                    "Description": "LuvUok",
                                    "ImageUrl": "https://static-cdn.jtvnw.net/emoticons/v1/301396388/3.0",
                                    "Type": "emote",
                                    "Id": "301396388",
                                    "Name": "LuvUok",
                                    "OwnerID": "488737509",
                                    "StartsAt": "2020-01-27T18:00:00Z"
                                },
                                {
                                    "Description": "LuvBlush",
                                    "ImageUrl": "https://static-cdn.jtvnw.net/emoticons/v1/301396406/3.0",
                                    "Type": "emote",
                                    "Id": "301396406",
                                    "Name": "LuvBlush",
                                    "OwnerID": "488737509",
                                    "StartsAt": "2020-01-27T18:00:00Z"
                                },
                                {
                                    "Description": "LuvHearts",
                                    "ImageUrl": "https://static-cdn.jtvnw.net/emoticons/v1/301396428/3.0",
                                    "Type": "emote",
                                    "Id": "301396428",
                                    "Name": "LuvHearts",
                                    "OwnerID": "488737509",
                                    "StartsAt": "2020-01-27T18:00:00Z"
                                },
                                {
                                    "Description": "LuvGift",
                                    "ImageUrl": "https://static-cdn.jtvnw.net/emoticons/v1/301396432/3.0",
                                    "Type": "emote",
                                    "Id": "301396432",
                                    "Name": "LuvGift",
                                    "OwnerID": "488737509",
                                    "StartsAt": "2020-01-27T18:00:00Z"
                                },
                                {
                                    "Description": "LuvSign",
                                    "ImageUrl": "https://static-cdn.jtvnw.net/emoticons/v1/301396453/3.0",
                                    "Type": "emote",
                                    "Id": "301396453",
                                    "Name": "LuvSign",
                                    "OwnerID": "488737509",
                                    "StartsAt": "2020-01-27T18:00:00Z"
                                },
                                {
                                    "Description": "LuvBlondeL",
                                    "ImageUrl": "https://static-cdn.jtvnw.net/emoticons/v1/301396403/3.0",
                                    "Type": "emote",
                                    "Id": "301396403",
                                    "Name": "LuvBlondeL",
                                    "OwnerID": "488737509",
                                    "StartsAt": "2020-01-27T18:00:00Z"
                                },
                                {
                                    "Description": "LuvBrownR",
                                    "ImageUrl": "https://static-cdn.jtvnw.net/emoticons/v1/301396400/3.0",
                                    "Type": "emote",
                                    "Id": "301396400",
                                    "Name": "LuvBrownR",
                                    "OwnerID": "488737509",
                                    "StartsAt": "2020-01-27T18:00:00Z"
                                },
                                {
                                    "Description": "LuvBrownL",
                                    "ImageUrl": "https://static-cdn.jtvnw.net/emoticons/v1/301396467/3.0",
                                    "Type": "emote",
                                    "Id": "301396467",
                                    "Name": "LuvBrownL",
                                    "OwnerID": "488737509",
                                    "StartsAt": "2020-01-27T18:00:00Z"
                                },
                                {
                                    "Description": "LuvBlondeR",
                                    "ImageUrl": "https://static-cdn.jtvnw.net/emoticons/v1/301396475/3.0",
                                    "Type": "emote",
                                    "Id": "301396475",
                                    "Name": "LuvBlondeR",
                                    "OwnerID": "488737509",
                                    "StartsAt": "2020-01-27T18:00:00Z"
                                }
                            ],
                            "SelectionStrategy": "RANDOMINDEPENDENT",
                            "SelectionAmountScaled": true
                        },
                        "RecipientRewardAttributes": {
                            "Rewards": [
                                {
                                    "Description": "LuvOops",
                                    "ImageUrl": "https://static-cdn.jtvnw.net/emoticons/v1/301396357/3.0",
                                    "Type": "emote",
                                    "Id": "301396357",
                                    "Name": "LuvOops",
                                    "OwnerID": "488737509",
                                    "StartsAt": "2020-01-27T18:00:00Z"
                                },
                                {
                                    "Description": "LuvPeekL",
                                    "ImageUrl": "https://static-cdn.jtvnw.net/emoticons/v1/301396363/3.0",
                                    "Type": "emote",
                                    "Id": "301396363",
                                    "Name": "LuvPeekL",
                                    "OwnerID": "488737509",
                                    "StartsAt": "2020-01-27T18:00:00Z"
                                },
                                {
                                    "Description": "LuvPeekR",
                                    "ImageUrl": "https://static-cdn.jtvnw.net/emoticons/v1/301396373/3.0",
                                    "Type": "emote",
                                    "Id": "301396373",
                                    "Name": "LuvPeekR",
                                    "OwnerID": "488737509",
                                    "StartsAt": "2020-01-27T18:00:00Z"
                                },
                                {
                                    "Description": "LuvSnooze",
                                    "ImageUrl": "https://static-cdn.jtvnw.net/emoticons/v1/301396378/3.0",
                                    "Type": "emote",
                                    "Id": "301396378",
                                    "Name": "LuvSnooze",
                                    "OwnerID": "488737509",
                                    "StartsAt": "2020-01-27T18:00:00Z"
                                },
                                {
                                    "Description": "LuvCool",
                                    "ImageUrl": "https://static-cdn.jtvnw.net/emoticons/v1/301396382/3.0",
                                    "Type": "emote",
                                    "Id": "301396382",
                                    "Name": "LuvCool",
                                    "OwnerID": "488737509",
                                    "StartsAt": "2020-01-27T18:00:00Z"
                                },
                                {
                                    "Description": "LuvUok",
                                    "ImageUrl": "https://static-cdn.jtvnw.net/emoticons/v1/301396388/3.0",
                                    "Type": "emote",
                                    "Id": "301396388",
                                    "Name": "LuvUok",
                                    "OwnerID": "488737509",
                                    "StartsAt": "2020-01-27T18:00:00Z"
                                },
                                {
                                    "Description": "LuvBlush",
                                    "ImageUrl": "https://static-cdn.jtvnw.net/emoticons/v1/301396406/3.0",
                                    "Type": "emote",
                                    "Id": "301396406",
                                    "Name": "LuvBlush",
                                    "OwnerID": "488737509",
                                    "StartsAt": "2020-01-27T18:00:00Z"
                                },
                                {
                                    "Description": "LuvHearts",
                                    "ImageUrl": "https://static-cdn.jtvnw.net/emoticons/v1/301396428/3.0",
                                    "Type": "emote",
                                    "Id": "301396428",
                                    "Name": "LuvHearts",
                                    "OwnerID": "488737509",
                                    "StartsAt": "2020-01-27T18:00:00Z"
                                },
                                {
                                    "Description": "LuvGift",
                                    "ImageUrl": "https://static-cdn.jtvnw.net/emoticons/v1/301396432/3.0",
                                    "Type": "emote",
                                    "Id": "301396432",
                                    "Name": "LuvGift",
                                    "OwnerID": "488737509",
                                    "StartsAt": "2020-01-27T18:00:00Z"
                                },
                                {
                                    "Description": "LuvSign",
                                    "ImageUrl": "https://static-cdn.jtvnw.net/emoticons/v1/301396453/3.0",
                                    "Type": "emote",
                                    "Id": "301396453",
                                    "Name": "LuvSign",
                                    "OwnerID": "488737509",
                                    "StartsAt": "2020-01-27T18:00:00Z"
                                },
                                {
                                    "Description": "LuvBlondeL",
                                    "ImageUrl": "https://static-cdn.jtvnw.net/emoticons/v1/301396403/3.0",
                                    "Type": "emote",
                                    "Id": "301396403",
                                    "Name": "LuvBlondeL",
                                    "OwnerID": "488737509",
                                    "StartsAt": "2020-01-27T18:00:00Z"
                                },
                                {
                                    "Description": "LuvBrownR",
                                    "ImageUrl": "https://static-cdn.jtvnw.net/emoticons/v1/301396400/3.0",
                                    "Type": "emote",
                                    "Id": "301396400",
                                    "Name": "LuvBrownR",
                                    "OwnerID": "488737509",
                                    "StartsAt": "2020-01-27T18:00:00Z"
                                },
                                {
                                    "Description": "LuvBrownL",
                                    "ImageUrl": "https://static-cdn.jtvnw.net/emoticons/v1/301396467/3.0",
                                    "Type": "emote",
                                    "Id": "301396467",
                                    "Name": "LuvBrownL",
                                    "OwnerID": "488737509",
                                    "StartsAt": "2020-01-27T18:00:00Z"
                                },
                                {
                                    "Description": "LuvBlondeR",
                                    "ImageUrl": "https://static-cdn.jtvnw.net/emoticons/v1/301396475/3.0",
                                    "Type": "emote",
                                    "Id": "301396475",
                                    "Name": "LuvBlondeR",
                                    "OwnerID": "488737509",
                                    "StartsAt": "2020-01-27T18:00:00Z"
                                }
                            ],
                            "SelectionStrategy": "RANDOMINDEPENDENT",
                            "SelectionAmountScaled": true
                        }
                    },
                    {
                        "Id": "creator_luv.megacheer.subgift.trigger",
                        "Title": "creator_luv",
                        "Description": "creator_luv",
                        "TriggerAmountMin": 1,
                        "TriggerAmountMax": 10000000,
                        "TriggerType": "SUBGIFT",
                        "ActiveStartDate": "2020-01-30T22:00:00Z",
                        "ActiveEndDate": "2020-02-17T08:00:00Z",
                        "VisibleStartDate": "2020-01-30T22:00:00Z",
                        "VisibleEndDate": "2020-02-17T08:00:00Z",
                        "RecipientSelectionFormula": "holiday2019",
                        "BenefactorRewardAttributes": {
                            "Rewards": [
                                {
                                    "Description": "LuvOops",
                                    "ImageUrl": "https://static-cdn.jtvnw.net/emoticons/v1/301396357/3.0",
                                    "Type": "emote",
                                    "Id": "301396357",
                                    "Name": "LuvOops",
                                    "OwnerID": "488737509",
                                    "StartsAt": "2020-01-27T18:00:00Z"
                                },
                                {
                                    "Description": "LuvPeekL",
                                    "ImageUrl": "https://static-cdn.jtvnw.net/emoticons/v1/301396363/3.0",
                                    "Type": "emote",
                                    "Id": "301396363",
                                    "Name": "LuvPeekL",
                                    "OwnerID": "488737509",
                                    "StartsAt": "2020-01-27T18:00:00Z"
                                },
                                {
                                    "Description": "LuvPeekR",
                                    "ImageUrl": "https://static-cdn.jtvnw.net/emoticons/v1/301396373/3.0",
                                    "Type": "emote",
                                    "Id": "301396373",
                                    "Name": "LuvPeekR",
                                    "OwnerID": "488737509",
                                    "StartsAt": "2020-01-27T18:00:00Z"
                                },
                                {
                                    "Description": "LuvSnooze",
                                    "ImageUrl": "https://static-cdn.jtvnw.net/emoticons/v1/301396378/3.0",
                                    "Type": "emote",
                                    "Id": "301396378",
                                    "Name": "LuvSnooze",
                                    "OwnerID": "488737509",
                                    "StartsAt": "2020-01-27T18:00:00Z"
                                },
                                {
                                    "Description": "LuvCool",
                                    "ImageUrl": "https://static-cdn.jtvnw.net/emoticons/v1/301396382/3.0",
                                    "Type": "emote",
                                    "Id": "301396382",
                                    "Name": "LuvCool",
                                    "OwnerID": "488737509",
                                    "StartsAt": "2020-01-27T18:00:00Z"
                                },
                                {
                                    "Description": "LuvUok",
                                    "ImageUrl": "https://static-cdn.jtvnw.net/emoticons/v1/301396388/3.0",
                                    "Type": "emote",
                                    "Id": "301396388",
                                    "Name": "LuvUok",
                                    "OwnerID": "488737509",
                                    "StartsAt": "2020-01-27T18:00:00Z"
                                },
                                {
                                    "Description": "LuvBlush",
                                    "ImageUrl": "https://static-cdn.jtvnw.net/emoticons/v1/301396406/3.0",
                                    "Type": "emote",
                                    "Id": "301396406",
                                    "Name": "LuvBlush",
                                    "OwnerID": "488737509",
                                    "StartsAt": "2020-01-27T18:00:00Z"
                                },
                                {
                                    "Description": "LuvHearts",
                                    "ImageUrl": "https://static-cdn.jtvnw.net/emoticons/v1/301396428/3.0",
                                    "Type": "emote",
                                    "Id": "301396428",
                                    "Name": "LuvHearts",
                                    "OwnerID": "488737509",
                                    "StartsAt": "2020-01-27T18:00:00Z"
                                },
                                {
                                    "Description": "LuvGift",
                                    "ImageUrl": "https://static-cdn.jtvnw.net/emoticons/v1/301396432/3.0",
                                    "Type": "emote",
                                    "Id": "301396432",
                                    "Name": "LuvGift",
                                    "OwnerID": "488737509",
                                    "StartsAt": "2020-01-27T18:00:00Z"
                                },
                                {
                                    "Description": "LuvSign",
                                    "ImageUrl": "https://static-cdn.jtvnw.net/emoticons/v1/301396453/3.0",
                                    "Type": "emote",
                                    "Id": "301396453",
                                    "Name": "LuvSign",
                                    "OwnerID": "488737509",
                                    "StartsAt": "2020-01-27T18:00:00Z"
                                },
                                {
                                    "Description": "LuvBlondeL",
                                    "ImageUrl": "https://static-cdn.jtvnw.net/emoticons/v1/301396403/3.0",
                                    "Type": "emote",
                                    "Id": "301396403",
                                    "Name": "LuvBlondeL",
                                    "OwnerID": "488737509",
                                    "StartsAt": "2020-01-27T18:00:00Z"
                                },
                                {
                                    "Description": "LuvBrownR",
                                    "ImageUrl": "https://static-cdn.jtvnw.net/emoticons/v1/301396400/3.0",
                                    "Type": "emote",
                                    "Id": "301396400",
                                    "Name": "LuvBrownR",
                                    "OwnerID": "488737509",
                                    "StartsAt": "2020-01-27T18:00:00Z"
                                },
                                {
                                    "Description": "LuvBrownL",
                                    "ImageUrl": "https://static-cdn.jtvnw.net/emoticons/v1/301396467/3.0",
                                    "Type": "emote",
                                    "Id": "301396467",
                                    "Name": "LuvBrownL",
                                    "OwnerID": "488737509",
                                    "StartsAt": "2020-01-27T18:00:00Z"
                                },
                                {
                                    "Description": "LuvBlondeR",
                                    "ImageUrl": "https://static-cdn.jtvnw.net/emoticons/v1/301396475/3.0",
                                    "Type": "emote",
                                    "Id": "301396475",
                                    "Name": "LuvBlondeR",
                                    "OwnerID": "488737509",
                                    "StartsAt": "2020-01-27T18:00:00Z"
                                }
                            ],
                            "SelectionStrategy": "RANDOMINDEPENDENT",
                            "SelectionAmountScaled": true
                        },
                        "RecipientRewardAttributes": {
                            "Rewards": [
                                {
                                    "Description": "LuvOops",
                                    "ImageUrl": "https://static-cdn.jtvnw.net/emoticons/v1/301396357/3.0",
                                    "Type": "emote",
                                    "Id": "301396357",
                                    "Name": "LuvOops",
                                    "OwnerID": "488737509",
                                    "StartsAt": "2020-01-27T18:00:00Z"
                                },
                                {
                                    "Description": "LuvPeekL",
                                    "ImageUrl": "https://static-cdn.jtvnw.net/emoticons/v1/301396363/3.0",
                                    "Type": "emote",
                                    "Id": "301396363",
                                    "Name": "LuvPeekL",
                                    "OwnerID": "488737509",
                                    "StartsAt": "2020-01-27T18:00:00Z"
                                },
                                {
                                    "Description": "LuvPeekR",
                                    "ImageUrl": "https://static-cdn.jtvnw.net/emoticons/v1/301396373/3.0",
                                    "Type": "emote",
                                    "Id": "301396373",
                                    "Name": "LuvPeekR",
                                    "OwnerID": "488737509",
                                    "StartsAt": "2020-01-27T18:00:00Z"
                                },
                                {
                                    "Description": "LuvSnooze",
                                    "ImageUrl": "https://static-cdn.jtvnw.net/emoticons/v1/301396378/3.0",
                                    "Type": "emote",
                                    "Id": "301396378",
                                    "Name": "LuvSnooze",
                                    "OwnerID": "488737509",
                                    "StartsAt": "2020-01-27T18:00:00Z"
                                },
                                {
                                    "Description": "LuvCool",
                                    "ImageUrl": "https://static-cdn.jtvnw.net/emoticons/v1/301396382/3.0",
                                    "Type": "emote",
                                    "Id": "301396382",
                                    "Name": "LuvCool",
                                    "OwnerID": "488737509",
                                    "StartsAt": "2020-01-27T18:00:00Z"
                                },
                                {
                                    "Description": "LuvUok",
                                    "ImageUrl": "https://static-cdn.jtvnw.net/emoticons/v1/301396388/3.0",
                                    "Type": "emote",
                                    "Id": "301396388",
                                    "Name": "LuvUok",
                                    "OwnerID": "488737509",
                                    "StartsAt": "2020-01-27T18:00:00Z"
                                },
                                {
                                    "Description": "LuvBlush",
                                    "ImageUrl": "https://static-cdn.jtvnw.net/emoticons/v1/301396406/3.0",
                                    "Type": "emote",
                                    "Id": "301396406",
                                    "Name": "LuvBlush",
                                    "OwnerID": "488737509",
                                    "StartsAt": "2020-01-27T18:00:00Z"
                                },
                                {
                                    "Description": "LuvHearts",
                                    "ImageUrl": "https://static-cdn.jtvnw.net/emoticons/v1/301396428/3.0",
                                    "Type": "emote",
                                    "Id": "301396428",
                                    "Name": "LuvHearts",
                                    "OwnerID": "488737509",
                                    "StartsAt": "2020-01-27T18:00:00Z"
                                },
                                {
                                    "Description": "LuvGift",
                                    "ImageUrl": "https://static-cdn.jtvnw.net/emoticons/v1/301396432/3.0",
                                    "Type": "emote",
                                    "Id": "301396432",
                                    "Name": "LuvGift",
                                    "OwnerID": "488737509",
                                    "StartsAt": "2020-01-27T18:00:00Z"
                                },
                                {
                                    "Description": "LuvSign",
                                    "ImageUrl": "https://static-cdn.jtvnw.net/emoticons/v1/301396453/3.0",
                                    "Type": "emote",
                                    "Id": "301396453",
                                    "Name": "LuvSign",
                                    "OwnerID": "488737509",
                                    "StartsAt": "2020-01-27T18:00:00Z"
                                },
                                {
                                    "Description": "LuvBlondeL",
                                    "ImageUrl": "https://static-cdn.jtvnw.net/emoticons/v1/301396403/3.0",
                                    "Type": "emote",
                                    "Id": "301396403",
                                    "Name": "LuvBlondeL",
                                    "OwnerID": "488737509",
                                    "StartsAt": "2020-01-27T18:00:00Z"
                                },
                                {
                                    "Description": "LuvBrownR",
                                    "ImageUrl": "https://static-cdn.jtvnw.net/emoticons/v1/301396400/3.0",
                                    "Type": "emote",
                                    "Id": "301396400",
                                    "Name": "LuvBrownR",
                                    "OwnerID": "488737509",
                                    "StartsAt": "2020-01-27T18:00:00Z"
                                },
                                {
                                    "Description": "LuvBrownL",
                                    "ImageUrl": "https://static-cdn.jtvnw.net/emoticons/v1/301396467/3.0",
                                    "Type": "emote",
                                    "Id": "301396467",
                                    "Name": "LuvBrownL",
                                    "OwnerID": "488737509",
                                    "StartsAt": "2020-01-27T18:00:00Z"
                                },
                                {
                                    "Description": "LuvBlondeR",
                                    "ImageUrl": "https://static-cdn.jtvnw.net/emoticons/v1/301396475/3.0",
                                    "Type": "emote",
                                    "Id": "301396475",
                                    "Name": "LuvBlondeR",
                                    "OwnerID": "488737509",
                                    "StartsAt": "2020-01-27T18:00:00Z"
                                }
                            ],
                            "SelectionStrategy": "RANDOMINDEPENDENT",
                            "SelectionAmountScaled": true
                        }
                    }
                ]
            }
        ]
    }
}