{
  "Campaigns": {
    "hgc2018": [
      {
        "Id": "hgc2018.stage1",
        "ActiveStartDate": "2018-06-05T00:00:00Z",
        "ActiveEndDate": "2018-07-30T06:59:00Z",
        "Title": "HGC 2018 Stage 1",
        "Description": "HGC 2018 Stage 1",
        "ChannelList": {
          "48937001": true,
          "170846405": true,
          "189906299": true,
          "166458814": true,
          "189905698": true
        },
        "Objectives": [
          {
            "Id": "hgc2018.stage1.launch.cheer.global",
            "Description": "Stage 1",
            "EventHandler": "GlobalCheerHandler",
            "Tag": "GLOBAL",
            "ShouldAutogrant": false,
            "Milestones": [
              {
                "Id": "hgc2018.stage1.launch.cheer.global.milestone1",
                "Handler": "MileStone31Handler",
                "HandlerMetadata": {
                  "Rewards": [
                    {
                      "Description": "Mount",
                      "ImageUrl": "https://d3aqoihi2n8ty8.cloudfront.net/hgc2018/global-rewards/1-DeadlyChaosLizard.png",
                      "Type": "igc",
                      "Id": "rewards-cheering-hgc2018-deadly-lizard",
                      "Name": "Deadly Chaos Lizard",
                      "FulfillmentStrategy": "blizzard",
                      "Rarity": 1
                    }
                  ],
                  "SelectionStrategy": "ALL"
                },
                "ActiveStartDate": "2018-06-05T00:00:00Z",
                "ActiveEndDate": "2018-11-16T18:00:00Z",
                "VisibleStartDate": "2018-06-05T00:00:00Z",
                "VisibleEndDate": "2018-11-16T18:00:00Z",
                "Threshold": 5000000,
                "ParticipationThreshold": 100
              },
              {
                "Id": "hgc2018.stage1.launch.cheer.global.milestone2",
                "Handler": "MileStone32Handler",
                "HandlerMetadata": {
                  "Rewards": [
                    {
                      "Description": "Mount",
                      "ImageUrl": "https://d3aqoihi2n8ty8.cloudfront.net/hgc2018/global-rewards/HGC-MSB-winnersmount.png",
                      "Type": "igc",
                      "Id": "rewards-cheering-hgc2018-msbwinner",
                      "Name": "MSB Winner Mount",
                      "FulfillmentStrategy": "blizzard",
                      "Rarity": 1,
                      "Metadata": {
                        "IsPending": true
                      }
                    }
                  ],
                  "SelectionStrategy": "ALL"
                },
                "ActiveStartDate": "2018-06-05T00:00:00Z",
                "ActiveEndDate": "2018-11-16T18:00:00Z",
                "VisibleStartDate": "2018-06-05T00:00:00Z",
                "VisibleEndDate": "2018-11-16T18:00:00Z",
                "Threshold": 7500000,
                "ParticipationThreshold": 100
              }
            ],
            "Title": "HGC 2018 Stage 1 Cheer Global"
          }
        ]
      },
      {
        "Id": "hgc2018.stage2",
        "ActiveStartDate": "2018-07-30T17:00:00Z",
        "ActiveEndDate": "2018-09-24T06:59:00Z",
        "Title": "HGC 2018 Stage 2",
        "Description": "HGC 2018 Stage 2",
        "ChannelList": {
          "48937001": true,
          "170846405": true,
          "189906299": true,
          "166458814": true,
          "189905698": true
        },
        "Objectives": [
          {
            "Id": "hgc2018.stage2.launch.cheer.global",
            "Description": "Stage 2",
            "EventHandler": "GlobalCheerHandler",
            "Tag": "GLOBAL",
            "ShouldAutogrant": false,
            "Milestones": [
              {
                "Id": "hgc2018.stage2.launch.cheer.global.milestone1",
                "Handler": "MileStone31Handler",
                "HandlerMetadata": {
                  "Rewards": [
                    {
                      "Description": "Mount",
                      "ImageUrl": "https://d3aqoihi2n8ty8.cloudfront.net/hgc2018/global-rewards/1-DeadlyChaosWolf.png",
                      "Type": "igc",
                      "Id": "rewards-cheering-hgc2018-deadly-wolf",
                      "Name": "Deadly Chaos Wolf",
                      "FulfillmentStrategy": "blizzard",
                      "Rarity": 1
                    }
                  ],
                  "SelectionStrategy": "ALL"
                },
                "ActiveStartDate": "2018-07-30T17:00:00Z",
                "ActiveEndDate": "2018-11-16T18:00:00Z",
                "VisibleStartDate": "2018-07-30T17:00:00Z",
                "VisibleEndDate": "2018-11-16T18:00:00Z",
                "Threshold": 5000000,
                "ParticipationThreshold": 100
              },
              {
                "Id": "hgc2018.stage2.launch.cheer.global.milestone2",
                "Handler": "MileStone32Handler",
                "HandlerMetadata": {
                  "Rewards": [
                    {
                      "Description": "Portrait / Spray",
                      "ImageUrl": "https://d3aqoihi2n8ty8.cloudfront.net/hgc2018/global-rewards/2-EW-EC-Winner-Set.png",
                      "Type": "igc",
                      "Id": "rewards-cheering-hgc2018-wcec-winner",
                      "Name": "WC/EC Winner Spray Portrait",
                      "FulfillmentStrategy": "blizzard",
                      "Rarity": 1,
                      "Metadata": {
                        "IsPending": true
                      }
                    }
                  ],
                  "SelectionStrategy": "ALL"
                },
                "ActiveStartDate": "2018-07-30T17:00:00Z",
                "ActiveEndDate": "2018-11-16T18:00:00Z",
                "VisibleStartDate": "2018-07-30T17:00:00Z",
                "VisibleEndDate": "2018-11-16T18:00:00Z",
                "Threshold": 7500000,
                "ParticipationThreshold": 100
              }
            ],
            "Title": "HGC 2018 Stage 2 Cheer Global"
          }
        ]
      },
      {
        "Id": "hgc2018.stage3",
        "ActiveStartDate": "2018-09-24T17:00:00Z",
        "ActiveEndDate": "2018-11-16T18:00:00Z",
        "Title": "HGC 2018 Stage 3",
        "Description": "HGC 2018 Stage 3",
        "ChannelList": {
          "48937001": true,
          "170846405": true,
          "189906299": true,
          "166458814": true,
          "189905698": true
        },
        "Objectives": [
          {
            "Id": "hgc2018.stage3.launch.cheer.global",
            "Description": "Stage 3",
            "EventHandler": "GlobalCheerHandler",
            "Tag": "GLOBAL",
            "ShouldAutogrant": false,
            "Milestones": [
              {
                "Id": "hgc2018.stage3.launch.cheer.global.milestone1",
                "Handler": "MileStone31Handler",
                "HandlerMetadata": {
                  "Rewards": [
                    {
                      "Description": "Portrait / Spray / Banner",
                      "ImageUrl": "https://d3aqoihi2n8ty8.cloudfront.net/hgc2018/global-rewards/1-HGCFinalsSet.png",
                      "Type": "igc",
                      "Id": "rewards-cheering-hgc2018-final-pbs",
                      "Name": "HGC Final Portrait Spray Banner",
                      "FulfillmentStrategy": "blizzard",
                      "Rarity": 1,
                      "Metadata": {
                        "IsPending": true
                      }
                    }
                  ],
                  "SelectionStrategy": "ALL"
                },
                "ActiveStartDate": "2018-09-24T17:00:00Z",
                "ActiveEndDate": "2018-11-16T18:00:00Z",
                "VisibleStartDate": "2018-09-24T17:00:00Z",
                "VisibleEndDate": "2018-11-16T18:00:00Z",
                "Threshold": 5000000,
                "ParticipationThreshold": 100
              },
              {
                "Id": "hgc2018.stage3.launch.cheer.global.milestone2",
                "Handler": "MileStone32Handler",
                "HandlerMetadata": {
                  "Rewards": [
                    {
                      "Description": "Mount",
                      "ImageUrl": "https://d3aqoihi2n8ty8.cloudfront.net/hgc2018/global-rewards/2-ArcaneElementalLion.png",
                      "Type": "igc",
                      "Id": "rewards-cheering-hgc2018-arcane-lion",
                      "Name": "Elemental Lion",
                      "FulfillmentStrategy": "blizzard",
                      "Rarity": 2
                    }
                  ],
                  "SelectionStrategy": "ALL"
                },
                "ActiveStartDate": "2018-09-24T17:00:00Z",
                "ActiveEndDate": "2018-11-16T18:00:00Z",
                "VisibleStartDate": "2018-09-24T17:00:00Z",
                "VisibleEndDate": "2018-11-16T18:00:00Z",
                "Threshold": 7500000,
                "ParticipationThreshold": 100
              },
              {
                "Id": "hgc2018.stage3.launch.cheer.global.milestone3",
                "Handler": "MileStone32Handler",
                "HandlerMetadata": {
                  "Rewards": [
                    {
                      "Description": "Mount",
                      "ImageUrl": "https://d3aqoihi2n8ty8.cloudfront.net/hgc2018/global-rewards/3-HGCFinalsSet-legendary.png",
                      "Type": "igc",
                      "Id": "rewards-cheering-hgc2018-champ-mount",
                      "Name": "HGC Champion Mount",
                      "FulfillmentStrategy": "blizzard",
                      "Rarity": 3,
                      "Metadata": {
                        "IsPending": true
                      }
                    }
                  ],
                  "SelectionStrategy": "ALL"
                },
                "ActiveStartDate": "2018-09-24T07:00:00Z",
                "ActiveEndDate": "2018-11-16T18:00:00Z",
                "VisibleStartDate": "2018-09-24T07:00:00Z",
                "VisibleEndDate": "2018-11-16T18:00:00Z",
                "Threshold": 10000000,
                "ParticipationThreshold": 100
              }
            ],
            "Title": "HGC 2018 Stage 3 Cheer Global"
          }
        ]
      }
    ]
  }
}