{
  "Campaigns": {
    "megacommerce_2019": [
      {
        "Id": "megacommerce_2019.megacheer",
        "ActiveStartDate": "2019-12-03T18:00:00Z",
        "ActiveEndDate": "2020-01-04T08:00:00Z",
        "Title": "megacommerce_2019",
        "Description": "megacommerce_2019",
        "AllChannels": true,
        "CompleteRewardIDs": {
          "301112670": true,
          "301112669": true,
          "301112663": true,
          "301108083": true,
          "301108082": true,
          "301108072": true,
          "301108068": true,
          "301108057": true,
          "301108047": true,
          "301108045": true,
          "301108041": true,
          "301108037": true,
          "301108032": true,
          "301108013": true,
          "301108011": true,
          "301108084": true,
          "301108081": true,
          "301108078": true,
          "301114312": true,
          "301108075": true,
          "301108063": true,
          "301108052": true,
          "301108048": true,
          "301108046": true,
          "301108053": true
        },
        "Triggers": [
          {
            "Id": "megacommerce_2019.megacheer.cheer.trigger",
            "Title": "megacommerce_2019",
            "Description": "megacommerce_2019",
            "TriggerAmountMin": 300,
            "TriggerAmountMax": 10000000,
            "TriggerType": "CHEER",
            "ActiveStartDate": "2019-12-03T18:00:00Z",
            "ActiveEndDate": "2020-01-04T08:00:00Z",
            "VisibleStartDate": "2019-12-03T18:00:00Z",
            "VisibleEndDate": "2020-01-04T08:00:00Z",
            "RecipientSelectionFormula": "holiday2019",
            "BenefactorRewardAttributes": {
              "Rewards": [
                {
                  "Description": "HahaBaby",
                  "ImageUrl": "https://static-cdn.jtvnw.net/emoticons/v1/301108084/3.0",
                  "Type": "emote",
                  "Id": "301108084",
                  "Name": "HahaBaby",
                  "OwnerID": "472873131",
                  "StartsAt": "2019-12-03T18:00:00Z",
                  "EndsAt": "2020-02-01T07:59:00Z"
                },
                {
                  "Description": "HahaElf",
                  "ImageUrl": "https://static-cdn.jtvnw.net/emoticons/v1/301108081/3.0",
                  "Type": "emote",
                  "Id": "301108081",
                  "Name": "HahaElf",
                  "OwnerID": "472873131",
                  "StartsAt": "2019-12-03T18:00:00Z",
                  "EndsAt": "2020-02-01T07:59:00Z"
                },
                {
                  "Description": "HahaGingercat",
                  "ImageUrl": "https://static-cdn.jtvnw.net/emoticons/v1/301108078/3.0",
                  "Type": "emote",
                  "Id": "301108078",
                  "Name": "HahaGingercat",
                  "OwnerID": "472873131",
                  "StartsAt": "2019-12-03T18:00:00Z",
                  "EndsAt": "2020-02-01T07:59:00Z"
                },
                {
                  "Description": "HahaNyandeer",
                  "ImageUrl": "https://static-cdn.jtvnw.net/emoticons/v1/301114312/3.0",
                  "Type": "emote",
                  "Id": "301114312",
                  "Name": "HahaNyandeer",
                  "OwnerID": "472873131",
                  "StartsAt": "2019-12-03T18:00:00Z",
                  "EndsAt": "2020-02-01T07:59:00Z"
                },
                {
                  "Description": "HahaGoose",
                  "ImageUrl": "https://static-cdn.jtvnw.net/emoticons/v1/301108075/3.0",
                  "Type": "emote",
                  "Id": "301108075",
                  "Name": "HahaGoose",
                  "OwnerID": "472873131",
                  "StartsAt": "2019-12-03T18:00:00Z",
                  "EndsAt": "2020-02-01T07:59:00Z"
                },
                {
                  "Description": "HahaNutcracker",
                  "ImageUrl": "https://static-cdn.jtvnw.net/emoticons/v1/301108063/3.0",
                  "Type": "emote",
                  "Id": "301108063",
                  "Name": "HahaNutcracker",
                  "OwnerID": "472873131",
                  "StartsAt": "2019-12-03T18:00:00Z",
                  "EndsAt": "2020-02-01T07:59:00Z"
                },
                {
                  "Description": "HahaPresent",
                  "ImageUrl": "https://static-cdn.jtvnw.net/emoticons/v1/301108052/3.0",
                  "Type": "emote",
                  "Id": "301108052",
                  "Name": "HahaPresent",
                  "OwnerID": "472873131",
                  "StartsAt": "2019-12-03T18:00:00Z",
                  "EndsAt": "2020-02-01T07:59:00Z"
                },
                {
                  "Description": "HahaReindeer",
                  "ImageUrl": "https://static-cdn.jtvnw.net/emoticons/v1/301108048/3.0",
                  "Type": "emote",
                  "Id": "301108048",
                  "Name": "HahaReindeer",
                  "OwnerID": "472873131",
                  "StartsAt": "2019-12-03T18:00:00Z",
                  "EndsAt": "2020-02-01T07:59:00Z"
                },
                {
                  "Description": "HahaShrugMiddle",
                  "ImageUrl": "https://static-cdn.jtvnw.net/emoticons/v1/301108046/3.0",
                  "Type": "emote",
                  "Id": "301108046",
                  "Name": "HahaShrugMiddle",
                  "OwnerID": "472873131",
                  "StartsAt": "2019-12-03T18:00:00Z",
                  "EndsAt": "2020-02-01T07:59:00Z"
                },
                {
                  "Description": "HahaSnowhal",
                  "ImageUrl": "https://static-cdn.jtvnw.net/emoticons/v1/301108053/3.0",
                  "Type": "emote",
                  "Id": "301108053",
                  "Name": "HahaSnowhal",
                  "OwnerID": "472873131",
                  "StartsAt": "2019-12-03T18:00:00Z",
                  "EndsAt": "2020-02-01T07:59:00Z"
                }
              ],
              "SelectionStrategy": "RANDOMINDEPENDENT",
              "SelectionAmountScaled": true
            },
            "RecipientRewardAttributes": {
              "Rewards": [
                {
                  "Description": "HahaBaby",
                  "ImageUrl": "https://static-cdn.jtvnw.net/emoticons/v1/301108084/3.0",
                  "Type": "emote",
                  "Id": "301108084",
                  "Name": "HahaBaby",
                  "OwnerID": "472873131",
                  "StartsAt": "2019-12-03T18:00:00Z",
                  "EndsAt": "2020-02-01T07:59:00Z"
                },
                {
                  "Description": "HahaElf",
                  "ImageUrl": "https://static-cdn.jtvnw.net/emoticons/v1/301108081/3.0",
                  "Type": "emote",
                  "Id": "301108081",
                  "Name": "HahaElf",
                  "OwnerID": "472873131",
                  "StartsAt": "2019-12-03T18:00:00Z",
                  "EndsAt": "2020-02-01T07:59:00Z"
                },
                {
                  "Description": "HahaGingercat",
                  "ImageUrl": "https://static-cdn.jtvnw.net/emoticons/v1/301108078/3.0",
                  "Type": "emote",
                  "Id": "301108078",
                  "Name": "HahaGingercat",
                  "OwnerID": "472873131",
                  "StartsAt": "2019-12-03T18:00:00Z",
                  "EndsAt": "2020-02-01T07:59:00Z"
                },
                {
                  "Description": "HahaNyandeer",
                  "ImageUrl": "https://static-cdn.jtvnw.net/emoticons/v1/301114312/3.0",
                  "Type": "emote",
                  "Id": "301114312",
                  "Name": "HahaNyandeer",
                  "OwnerID": "472873131",
                  "StartsAt": "2019-12-03T18:00:00Z",
                  "EndsAt": "2020-02-01T07:59:00Z"
                },
                {
                  "Description": "HahaGoose",
                  "ImageUrl": "https://static-cdn.jtvnw.net/emoticons/v1/301108075/3.0",
                  "Type": "emote",
                  "Id": "301108075",
                  "Name": "HahaGoose",
                  "OwnerID": "472873131",
                  "StartsAt": "2019-12-03T18:00:00Z",
                  "EndsAt": "2020-02-01T07:59:00Z"
                },
                {
                  "Description": "HahaNutcracker",
                  "ImageUrl": "https://static-cdn.jtvnw.net/emoticons/v1/301108063/3.0",
                  "Type": "emote",
                  "Id": "301108063",
                  "Name": "HahaNutcracker",
                  "OwnerID": "472873131",
                  "StartsAt": "2019-12-03T18:00:00Z",
                  "EndsAt": "2020-02-01T07:59:00Z"
                },
                {
                  "Description": "HahaPresent",
                  "ImageUrl": "https://static-cdn.jtvnw.net/emoticons/v1/301108052/3.0",
                  "Type": "emote",
                  "Id": "301108052",
                  "Name": "HahaPresent",
                  "OwnerID": "472873131",
                  "StartsAt": "2019-12-03T18:00:00Z",
                  "EndsAt": "2020-02-01T07:59:00Z"
                },
                {
                  "Description": "HahaReindeer",
                  "ImageUrl": "https://static-cdn.jtvnw.net/emoticons/v1/301108048/3.0",
                  "Type": "emote",
                  "Id": "301108048",
                  "Name": "HahaReindeer",
                  "OwnerID": "472873131",
                  "StartsAt": "2019-12-03T18:00:00Z",
                  "EndsAt": "2020-02-01T07:59:00Z"
                },
                {
                  "Description": "HahaShrugMiddle",
                  "ImageUrl": "https://static-cdn.jtvnw.net/emoticons/v1/301108046/3.0",
                  "Type": "emote",
                  "Id": "301108046",
                  "Name": "HahaShrugMiddle",
                  "OwnerID": "472873131",
                  "StartsAt": "2019-12-03T18:00:00Z",
                  "EndsAt": "2020-02-01T07:59:00Z"
                },
                {
                  "Description": "HahaSnowhal",
                  "ImageUrl": "https://static-cdn.jtvnw.net/emoticons/v1/301108053/3.0",
                  "Type": "emote",
                  "Id": "301108053",
                  "Name": "HahaSnowhal",
                  "OwnerID": "472873131",
                  "StartsAt": "2019-12-03T18:00:00Z",
                  "EndsAt": "2020-02-01T07:59:00Z"
                }
              ],
              "SelectionStrategy": "RANDOMINDEPENDENT",
              "SelectionAmountScaled": true
            }
          },
          {
            "Id": "megacommerce_2019.megacheer.subscription.trigger",
            "Title": "megacommerce_2019",
            "Description": "megacommerce_2019",
            "TriggerAmountMin": 1,
            "TriggerAmountMax": 10000000,
            "TriggerType": "SUBSCRIPTION",
            "ActiveStartDate": "2019-12-03T18:00:00Z",
            "ActiveEndDate": "2020-01-04T08:00:00Z",
            "VisibleStartDate": "2019-12-03T18:00:00Z",
            "VisibleEndDate": "2020-01-04T08:00:00Z",
            "RecipientSelectionFormula": "holiday2019",
            "BenefactorRewardAttributes": {
              "Rewards": [
                {
                  "Description": "Haha2020",
                  "ImageUrl": "https://static-cdn.jtvnw.net/emoticons/v1/301112670/3.0",
                  "Type": "emote",
                  "Id": "301112670",
                  "Name": "Haha2020",
                  "OwnerID": "472873131",
                  "StartsAt": "2019-12-03T18:00:00Z",
                  "EndsAt": "2020-02-01T07:59:00Z"
                },
                {
                  "Description": "HahaBall",
                  "ImageUrl": "https://static-cdn.jtvnw.net/emoticons/v1/301112669/3.0",
                  "Type": "emote",
                  "Id": "301112669",
                  "Name": "HahaBall",
                  "OwnerID": "472873131",
                  "StartsAt": "2019-12-03T18:00:00Z",
                  "EndsAt": "2020-02-01T07:59:00Z"
                },
                {
                  "Description": "HahaDreidel",
                  "ImageUrl": "https://static-cdn.jtvnw.net/emoticons/v1/301112663/3.0",
                  "Type": "emote",
                  "Id": "301112663",
                  "Name": "HahaDreidel",
                  "OwnerID": "472873131",
                  "StartsAt": "2019-12-03T18:00:00Z",
                  "EndsAt": "2020-02-01T07:59:00Z"
                },
                {
                  "Description": "HahaCat",
                  "ImageUrl": "https://static-cdn.jtvnw.net/emoticons/v1/301108083/3.0",
                  "Type": "emote",
                  "Id": "301108083",
                  "Name": "HahaCat",
                  "OwnerID": "472873131",
                  "StartsAt": "2019-12-03T18:00:00Z",
                  "EndsAt": "2020-02-01T07:59:00Z"
                },
                {
                  "Description": "HahaDoge",
                  "ImageUrl": "https://static-cdn.jtvnw.net/emoticons/v1/301108082/3.0",
                  "Type": "emote",
                  "Id": "301108082",
                  "Name": "HahaDoge",
                  "OwnerID": "472873131",
                  "StartsAt": "2019-12-03T18:00:00Z",
                  "EndsAt": "2020-02-01T07:59:00Z"
                },
                {
                  "Description": "HahaHide",
                  "ImageUrl": "https://static-cdn.jtvnw.net/emoticons/v1/301108072/3.0",
                  "Type": "emote",
                  "Id": "301108072",
                  "Name": "HahaHide",
                  "OwnerID": "472873131",
                  "StartsAt": "2019-12-03T18:00:00Z",
                  "EndsAt": "2020-02-01T07:59:00Z"
                },
                {
                  "Description": "HahaLean",
                  "ImageUrl": "https://static-cdn.jtvnw.net/emoticons/v1/301108068/3.0",
                  "Type": "emote",
                  "Id": "301108068",
                  "Name": "HahaLean",
                  "OwnerID": "472873131",
                  "StartsAt": "2019-12-03T18:00:00Z",
                  "EndsAt": "2020-02-01T07:59:00Z"
                },
                {
                  "Description": "HahaPoint",
                  "ImageUrl": "https://static-cdn.jtvnw.net/emoticons/v1/301108057/3.0",
                  "Type": "emote",
                  "Id": "301108057",
                  "Name": "HahaPoint",
                  "OwnerID": "472873131",
                  "StartsAt": "2019-12-03T18:00:00Z",
                  "EndsAt": "2020-02-01T07:59:00Z"
                },
                {
                  "Description": "HahaShrugLeft",
                  "ImageUrl": "https://static-cdn.jtvnw.net/emoticons/v1/301108047/3.0",
                  "Type": "emote",
                  "Id": "301108047",
                  "Name": "HahaShrugLeft",
                  "OwnerID": "472873131",
                  "StartsAt": "2019-12-03T18:00:00Z",
                  "EndsAt": "2020-02-01T07:59:00Z"
                },
                {
                  "Description": "HahaShrugRight",
                  "ImageUrl": "https://static-cdn.jtvnw.net/emoticons/v1/301108045/3.0",
                  "Type": "emote",
                  "Id": "301108045",
                  "Name": "HahaShrugRight",
                  "OwnerID": "472873131",
                  "StartsAt": "2019-12-03T18:00:00Z",
                  "EndsAt": "2020-02-01T07:59:00Z"
                },
                {
                  "Description": "HahaSleep",
                  "ImageUrl": "https://static-cdn.jtvnw.net/emoticons/v1/301108041/3.0",
                  "Type": "emote",
                  "Id": "301108041",
                  "Name": "HahaSleep",
                  "OwnerID": "472873131",
                  "StartsAt": "2019-12-03T18:00:00Z",
                  "EndsAt": "2020-02-01T07:59:00Z"
                },
                {
                  "Description": "HahaSweat",
                  "ImageUrl": "https://static-cdn.jtvnw.net/emoticons/v1/301108037/3.0",
                  "Type": "emote",
                  "Id": "301108037",
                  "Name": "HahaSweat",
                  "OwnerID": "472873131",
                  "StartsAt": "2019-12-03T18:00:00Z",
                  "EndsAt": "2020-02-01T07:59:00Z"
                },
                {
                  "Description": "HahaThink",
                  "ImageUrl": "https://static-cdn.jtvnw.net/emoticons/v1/301108032/3.0",
                  "Type": "emote",
                  "Id": "301108032",
                  "Name": "HahaThink",
                  "OwnerID": "472873131",
                  "StartsAt": "2019-12-03T18:00:00Z",
                  "EndsAt": "2020-02-01T07:59:00Z"
                },
                {
                  "Description": "HahaThisisfine",
                  "ImageUrl": "https://static-cdn.jtvnw.net/emoticons/v1/301108013/3.0",
                  "Type": "emote",
                  "Id": "301108013",
                  "Name": "HahaThisisfine",
                  "OwnerID": "472873131",
                  "StartsAt": "2019-12-03T18:00:00Z",
                  "EndsAt": "2020-02-01T07:59:00Z"
                },
                {
                  "Description": "HahaTurtledove",
                  "ImageUrl": "https://static-cdn.jtvnw.net/emoticons/v1/301108011/3.0",
                  "Type": "emote",
                  "Id": "301108011",
                  "Name": "HahaTurtledove",
                  "OwnerID": "472873131",
                  "StartsAt": "2019-12-03T18:00:00Z",
                  "EndsAt": "2020-02-01T07:59:00Z"
                }
              ],
              "SelectionStrategy": "RANDOMINDEPENDENT",
              "SelectionAmountScaled": true
            },
            "RecipientRewardAttributes": {
              "Rewards": [
                {
                  "Description": "Haha2020",
                  "ImageUrl": "https://static-cdn.jtvnw.net/emoticons/v1/301112670/3.0",
                  "Type": "emote",
                  "Id": "301112670",
                  "Name": "Haha2020",
                  "OwnerID": "472873131",
                  "StartsAt": "2019-12-03T18:00:00Z",
                  "EndsAt": "2020-02-01T07:59:00Z"
                },
                {
                  "Description": "HahaBall",
                  "ImageUrl": "https://static-cdn.jtvnw.net/emoticons/v1/301112669/3.0",
                  "Type": "emote",
                  "Id": "301112669",
                  "Name": "HahaBall",
                  "OwnerID": "472873131",
                  "StartsAt": "2019-12-03T18:00:00Z",
                  "EndsAt": "2020-02-01T07:59:00Z"
                },
                {
                  "Description": "HahaDreidel",
                  "ImageUrl": "https://static-cdn.jtvnw.net/emoticons/v1/301112663/3.0",
                  "Type": "emote",
                  "Id": "301112663",
                  "Name": "HahaDreidel",
                  "OwnerID": "472873131",
                  "StartsAt": "2019-12-03T18:00:00Z",
                  "EndsAt": "2020-02-01T07:59:00Z"
                },
                {
                  "Description": "HahaCat",
                  "ImageUrl": "https://static-cdn.jtvnw.net/emoticons/v1/301108083/3.0",
                  "Type": "emote",
                  "Id": "301108083",
                  "Name": "HahaCat",
                  "OwnerID": "472873131",
                  "StartsAt": "2019-12-03T18:00:00Z",
                  "EndsAt": "2020-02-01T07:59:00Z"
                },
                {
                  "Description": "HahaDoge",
                  "ImageUrl": "https://static-cdn.jtvnw.net/emoticons/v1/301108082/3.0",
                  "Type": "emote",
                  "Id": "301108082",
                  "Name": "HahaDoge",
                  "OwnerID": "472873131",
                  "StartsAt": "2019-12-03T18:00:00Z",
                  "EndsAt": "2020-02-01T07:59:00Z"
                },
                {
                  "Description": "HahaHide",
                  "ImageUrl": "https://static-cdn.jtvnw.net/emoticons/v1/301108072/3.0",
                  "Type": "emote",
                  "Id": "301108072",
                  "Name": "HahaHide",
                  "OwnerID": "472873131",
                  "StartsAt": "2019-12-03T18:00:00Z",
                  "EndsAt": "2020-02-01T07:59:00Z"
                },
                {
                  "Description": "HahaLean",
                  "ImageUrl": "https://static-cdn.jtvnw.net/emoticons/v1/301108068/3.0",
                  "Type": "emote",
                  "Id": "301108068",
                  "Name": "HahaLean",
                  "OwnerID": "472873131",
                  "StartsAt": "2019-12-03T18:00:00Z",
                  "EndsAt": "2020-02-01T07:59:00Z"
                },
                {
                  "Description": "HahaPoint",
                  "ImageUrl": "https://static-cdn.jtvnw.net/emoticons/v1/301108057/3.0",
                  "Type": "emote",
                  "Id": "301108057",
                  "Name": "HahaPoint",
                  "OwnerID": "472873131",
                  "StartsAt": "2019-12-03T18:00:00Z",
                  "EndsAt": "2020-02-01T07:59:00Z"
                },
                {
                  "Description": "HahaShrugLeft",
                  "ImageUrl": "https://static-cdn.jtvnw.net/emoticons/v1/301108047/3.0",
                  "Type": "emote",
                  "Id": "301108047",
                  "Name": "HahaShrugLeft",
                  "OwnerID": "472873131",
                  "StartsAt": "2019-12-03T18:00:00Z",
                  "EndsAt": "2020-02-01T07:59:00Z"
                },
                {
                  "Description": "HahaShrugRight",
                  "ImageUrl": "https://static-cdn.jtvnw.net/emoticons/v1/301108045/3.0",
                  "Type": "emote",
                  "Id": "301108045",
                  "Name": "HahaShrugRight",
                  "OwnerID": "472873131",
                  "StartsAt": "2019-12-03T18:00:00Z",
                  "EndsAt": "2020-02-01T07:59:00Z"
                },
                {
                  "Description": "HahaSleep",
                  "ImageUrl": "https://static-cdn.jtvnw.net/emoticons/v1/301108041/3.0",
                  "Type": "emote",
                  "Id": "301108041",
                  "Name": "HahaSleep",
                  "OwnerID": "472873131",
                  "StartsAt": "2019-12-03T18:00:00Z",
                  "EndsAt": "2020-02-01T07:59:00Z"
                },
                {
                  "Description": "HahaSweat",
                  "ImageUrl": "https://static-cdn.jtvnw.net/emoticons/v1/301108037/3.0",
                  "Type": "emote",
                  "Id": "301108037",
                  "Name": "HahaSweat",
                  "OwnerID": "472873131",
                  "StartsAt": "2019-12-03T18:00:00Z",
                  "EndsAt": "2020-02-01T07:59:00Z"
                },
                {
                  "Description": "HahaThink",
                  "ImageUrl": "https://static-cdn.jtvnw.net/emoticons/v1/301108032/3.0",
                  "Type": "emote",
                  "Id": "301108032",
                  "Name": "HahaThink",
                  "OwnerID": "472873131",
                  "StartsAt": "2019-12-03T18:00:00Z",
                  "EndsAt": "2020-02-01T07:59:00Z"
                },
                {
                  "Description": "HahaThisisfine",
                  "ImageUrl": "https://static-cdn.jtvnw.net/emoticons/v1/301108013/3.0",
                  "Type": "emote",
                  "Id": "301108013",
                  "Name": "HahaThisisfine",
                  "OwnerID": "472873131",
                  "StartsAt": "2019-12-03T18:00:00Z",
                  "EndsAt": "2020-02-01T07:59:00Z"
                },
                {
                  "Description": "HahaTurtledove",
                  "ImageUrl": "https://static-cdn.jtvnw.net/emoticons/v1/301108011/3.0",
                  "Type": "emote",
                  "Id": "301108011",
                  "Name": "HahaTurtledove",
                  "OwnerID": "472873131",
                  "StartsAt": "2019-12-03T18:00:00Z",
                  "EndsAt": "2020-02-01T07:59:00Z"
                }
              ],
              "SelectionStrategy": "RANDOMINDEPENDENT",
              "SelectionAmountScaled": true
            }
          },
          {
            "Id": "megacommerce_2019.megacheer.subgift.trigger",
            "Title": "megacommerce_2019",
            "Description": "megacommerce_2019",
            "TriggerAmountMin": 1,
            "TriggerAmountMax": 10000000,
            "TriggerType": "SUBGIFT",
            "ActiveStartDate": "2019-12-03T18:00:00Z",
            "ActiveEndDate": "2020-01-04T08:00:00Z",
            "VisibleStartDate": "2019-12-03T18:00:00Z",
            "VisibleEndDate": "2020-01-04T08:00:00Z",
            "RecipientSelectionFormula": "holiday2019",
            "BenefactorRewardAttributes": {
              "Rewards": [
                {
                  "Description": "Haha2020",
                  "ImageUrl": "https://static-cdn.jtvnw.net/emoticons/v1/301112670/3.0",
                  "Type": "emote",
                  "Id": "301112670",
                  "Name": "Haha2020",
                  "OwnerID": "472873131",
                  "StartsAt": "2019-12-03T18:00:00Z",
                  "EndsAt": "2020-02-01T07:59:00Z"
                },
                {
                  "Description": "HahaBall",
                  "ImageUrl": "https://static-cdn.jtvnw.net/emoticons/v1/301112669/3.0",
                  "Type": "emote",
                  "Id": "301112669",
                  "Name": "HahaBall",
                  "OwnerID": "472873131",
                  "StartsAt": "2019-12-03T18:00:00Z",
                  "EndsAt": "2020-02-01T07:59:00Z"
                },
                {
                  "Description": "HahaDreidel",
                  "ImageUrl": "https://static-cdn.jtvnw.net/emoticons/v1/301112663/3.0",
                  "Type": "emote",
                  "Id": "301112663",
                  "Name": "HahaDreidel",
                  "OwnerID": "472873131",
                  "StartsAt": "2019-12-03T18:00:00Z",
                  "EndsAt": "2020-02-01T07:59:00Z"
                },
                {
                  "Description": "HahaCat",
                  "ImageUrl": "https://static-cdn.jtvnw.net/emoticons/v1/301108083/3.0",
                  "Type": "emote",
                  "Id": "301108083",
                  "Name": "HahaCat",
                  "OwnerID": "472873131",
                  "StartsAt": "2019-12-03T18:00:00Z",
                  "EndsAt": "2020-02-01T07:59:00Z"
                },
                {
                  "Description": "HahaDoge",
                  "ImageUrl": "https://static-cdn.jtvnw.net/emoticons/v1/301108082/3.0",
                  "Type": "emote",
                  "Id": "301108082",
                  "Name": "HahaDoge",
                  "OwnerID": "472873131",
                  "StartsAt": "2019-12-03T18:00:00Z",
                  "EndsAt": "2020-02-01T07:59:00Z"
                },
                {
                  "Description": "HahaHide",
                  "ImageUrl": "https://static-cdn.jtvnw.net/emoticons/v1/301108072/3.0",
                  "Type": "emote",
                  "Id": "301108072",
                  "Name": "HahaHide",
                  "OwnerID": "472873131",
                  "StartsAt": "2019-12-03T18:00:00Z",
                  "EndsAt": "2020-02-01T07:59:00Z"
                },
                {
                  "Description": "HahaLean",
                  "ImageUrl": "https://static-cdn.jtvnw.net/emoticons/v1/301108068/3.0",
                  "Type": "emote",
                  "Id": "301108068",
                  "Name": "HahaLean",
                  "OwnerID": "472873131",
                  "StartsAt": "2019-12-03T18:00:00Z",
                  "EndsAt": "2020-02-01T07:59:00Z"
                },
                {
                  "Description": "HahaPoint",
                  "ImageUrl": "https://static-cdn.jtvnw.net/emoticons/v1/301108057/3.0",
                  "Type": "emote",
                  "Id": "301108057",
                  "Name": "HahaPoint",
                  "OwnerID": "472873131",
                  "StartsAt": "2019-12-03T18:00:00Z",
                  "EndsAt": "2020-02-01T07:59:00Z"
                },
                {
                  "Description": "HahaShrugLeft",
                  "ImageUrl": "https://static-cdn.jtvnw.net/emoticons/v1/301108047/3.0",
                  "Type": "emote",
                  "Id": "301108047",
                  "Name": "HahaShrugLeft",
                  "OwnerID": "472873131",
                  "StartsAt": "2019-12-03T18:00:00Z",
                  "EndsAt": "2020-02-01T07:59:00Z"
                },
                {
                  "Description": "HahaShrugRight",
                  "ImageUrl": "https://static-cdn.jtvnw.net/emoticons/v1/301108045/3.0",
                  "Type": "emote",
                  "Id": "301108045",
                  "Name": "HahaShrugRight",
                  "OwnerID": "472873131",
                  "StartsAt": "2019-12-03T18:00:00Z",
                  "EndsAt": "2020-02-01T07:59:00Z"
                },
                {
                  "Description": "HahaSleep",
                  "ImageUrl": "https://static-cdn.jtvnw.net/emoticons/v1/301108041/3.0",
                  "Type": "emote",
                  "Id": "301108041",
                  "Name": "HahaSleep",
                  "OwnerID": "472873131",
                  "StartsAt": "2019-12-03T18:00:00Z",
                  "EndsAt": "2020-02-01T07:59:00Z"
                },
                {
                  "Description": "HahaSweat",
                  "ImageUrl": "https://static-cdn.jtvnw.net/emoticons/v1/301108037/3.0",
                  "Type": "emote",
                  "Id": "301108037",
                  "Name": "HahaSweat",
                  "OwnerID": "472873131",
                  "StartsAt": "2019-12-03T18:00:00Z",
                  "EndsAt": "2020-02-01T07:59:00Z"
                },
                {
                  "Description": "HahaThink",
                  "ImageUrl": "https://static-cdn.jtvnw.net/emoticons/v1/301108032/3.0",
                  "Type": "emote",
                  "Id": "301108032",
                  "Name": "HahaThink",
                  "OwnerID": "472873131",
                  "StartsAt": "2019-12-03T18:00:00Z",
                  "EndsAt": "2020-02-01T07:59:00Z"
                },
                {
                  "Description": "HahaThisisfine",
                  "ImageUrl": "https://static-cdn.jtvnw.net/emoticons/v1/301108013/3.0",
                  "Type": "emote",
                  "Id": "301108013",
                  "Name": "HahaThisisfine",
                  "OwnerID": "472873131",
                  "StartsAt": "2019-12-03T18:00:00Z",
                  "EndsAt": "2020-02-01T07:59:00Z"
                },
                {
                  "Description": "HahaTurtledove",
                  "ImageUrl": "https://static-cdn.jtvnw.net/emoticons/v1/301108011/3.0",
                  "Type": "emote",
                  "Id": "301108011",
                  "Name": "HahaTurtledove",
                  "OwnerID": "472873131",
                  "StartsAt": "2019-12-03T18:00:00Z",
                  "EndsAt": "2020-02-01T07:59:00Z"
                }
              ],
              "SelectionStrategy": "RANDOMINDEPENDENT",
              "SelectionAmountScaled": true
            },
            "RecipientRewardAttributes": {
              "Rewards": [
                {
                  "Description": "Haha2020",
                  "ImageUrl": "https://static-cdn.jtvnw.net/emoticons/v1/301112670/3.0",
                  "Type": "emote",
                  "Id": "301112670",
                  "Name": "Haha2020",
                  "OwnerID": "472873131",
                  "StartsAt": "2019-12-03T18:00:00Z",
                  "EndsAt": "2020-02-01T07:59:00Z"
                },
                {
                  "Description": "HahaBall",
                  "ImageUrl": "https://static-cdn.jtvnw.net/emoticons/v1/301112669/3.0",
                  "Type": "emote",
                  "Id": "301112669",
                  "Name": "HahaBall",
                  "OwnerID": "472873131",
                  "StartsAt": "2019-12-03T18:00:00Z",
                  "EndsAt": "2020-02-01T07:59:00Z"
                },
                {
                  "Description": "HahaDreidel",
                  "ImageUrl": "https://static-cdn.jtvnw.net/emoticons/v1/301112663/3.0",
                  "Type": "emote",
                  "Id": "301112663",
                  "Name": "HahaDreidel",
                  "OwnerID": "472873131",
                  "StartsAt": "2019-12-03T18:00:00Z",
                  "EndsAt": "2020-02-01T07:59:00Z"
                },
                {
                  "Description": "HahaCat",
                  "ImageUrl": "https://static-cdn.jtvnw.net/emoticons/v1/301108083/3.0",
                  "Type": "emote",
                  "Id": "301108083",
                  "Name": "HahaCat",
                  "OwnerID": "472873131",
                  "StartsAt": "2019-12-03T18:00:00Z",
                  "EndsAt": "2020-02-01T07:59:00Z"
                },
                {
                  "Description": "HahaDoge",
                  "ImageUrl": "https://static-cdn.jtvnw.net/emoticons/v1/301108082/3.0",
                  "Type": "emote",
                  "Id": "301108082",
                  "Name": "HahaDoge",
                  "OwnerID": "472873131",
                  "StartsAt": "2019-12-03T18:00:00Z",
                  "EndsAt": "2020-02-01T07:59:00Z"
                },
                {
                  "Description": "HahaHide",
                  "ImageUrl": "https://static-cdn.jtvnw.net/emoticons/v1/301108072/3.0",
                  "Type": "emote",
                  "Id": "301108072",
                  "Name": "HahaHide",
                  "OwnerID": "472873131",
                  "StartsAt": "2019-12-03T18:00:00Z",
                  "EndsAt": "2020-02-01T07:59:00Z"
                },
                {
                  "Description": "HahaLean",
                  "ImageUrl": "https://static-cdn.jtvnw.net/emoticons/v1/301108068/3.0",
                  "Type": "emote",
                  "Id": "301108068",
                  "Name": "HahaLean",
                  "OwnerID": "472873131",
                  "StartsAt": "2019-12-03T18:00:00Z",
                  "EndsAt": "2020-02-01T07:59:00Z"
                },
                {
                  "Description": "HahaPoint",
                  "ImageUrl": "https://static-cdn.jtvnw.net/emoticons/v1/301108057/3.0",
                  "Type": "emote",
                  "Id": "301108057",
                  "Name": "HahaPoint",
                  "OwnerID": "472873131",
                  "StartsAt": "2019-12-03T18:00:00Z",
                  "EndsAt": "2020-02-01T07:59:00Z"
                },
                {
                  "Description": "HahaShrugLeft",
                  "ImageUrl": "https://static-cdn.jtvnw.net/emoticons/v1/301108047/3.0",
                  "Type": "emote",
                  "Id": "301108047",
                  "Name": "HahaShrugLeft",
                  "OwnerID": "472873131",
                  "StartsAt": "2019-12-03T18:00:00Z",
                  "EndsAt": "2020-02-01T07:59:00Z"
                },
                {
                  "Description": "HahaShrugRight",
                  "ImageUrl": "https://static-cdn.jtvnw.net/emoticons/v1/301108045/3.0",
                  "Type": "emote",
                  "Id": "301108045",
                  "Name": "HahaShrugRight",
                  "OwnerID": "472873131",
                  "StartsAt": "2019-12-03T18:00:00Z",
                  "EndsAt": "2020-02-01T07:59:00Z"
                },
                {
                  "Description": "HahaSleep",
                  "ImageUrl": "https://static-cdn.jtvnw.net/emoticons/v1/301108041/3.0",
                  "Type": "emote",
                  "Id": "301108041",
                  "Name": "HahaSleep",
                  "OwnerID": "472873131",
                  "StartsAt": "2019-12-03T18:00:00Z",
                  "EndsAt": "2020-02-01T07:59:00Z"
                },
                {
                  "Description": "HahaSweat",
                  "ImageUrl": "https://static-cdn.jtvnw.net/emoticons/v1/301108037/3.0",
                  "Type": "emote",
                  "Id": "301108037",
                  "Name": "HahaSweat",
                  "OwnerID": "472873131",
                  "StartsAt": "2019-12-03T18:00:00Z",
                  "EndsAt": "2020-02-01T07:59:00Z"
                },
                {
                  "Description": "HahaThink",
                  "ImageUrl": "https://static-cdn.jtvnw.net/emoticons/v1/301108032/3.0",
                  "Type": "emote",
                  "Id": "301108032",
                  "Name": "HahaThink",
                  "OwnerID": "472873131",
                  "StartsAt": "2019-12-03T18:00:00Z",
                  "EndsAt": "2020-02-01T07:59:00Z"
                },
                {
                  "Description": "HahaThisisfine",
                  "ImageUrl": "https://static-cdn.jtvnw.net/emoticons/v1/301108013/3.0",
                  "Type": "emote",
                  "Id": "301108013",
                  "Name": "HahaThisisfine",
                  "OwnerID": "472873131",
                  "StartsAt": "2019-12-03T18:00:00Z",
                  "EndsAt": "2020-02-01T07:59:00Z"
                },
                {
                  "Description": "HahaTurtledove",
                  "ImageUrl": "https://static-cdn.jtvnw.net/emoticons/v1/301108011/3.0",
                  "Type": "emote",
                  "Id": "301108011",
                  "Name": "HahaTurtledove",
                  "OwnerID": "472873131",
                  "StartsAt": "2019-12-03T18:00:00Z",
                  "EndsAt": "2020-02-01T07:59:00Z"
                }
              ],
              "SelectionStrategy": "RANDOMINDEPENDENT",
              "SelectionAmountScaled": true
            }
          }
        ]
      }
    ]
  }
}
