{
  "Campaigns": {
    "owl2019": [
      {
        "Id": "owl2019.accountlinking",
        "ActiveStartDate": "2018-12-01T00:00:00Z",
        "ActiveEndDate": "2020-02-27T18:00:00Z",
        "Title": "Overwatch League 2019 Blizzard account linking",
        "Description": "Overwatch League 2019 Blizzard account linking",
        "ChannelList": {
          "190160460": true,
          "188863650": true,
          "188864445": true,
          "138602382": true,
          "138601808": true,
          "137512364": true
        },
        "Objectives": [
          {
            "Id": "owl2019.accountlinking.individual1",
            "Description": "localizationKey:connectAccountTitle.connectAccountHeader.connectAccountBody.connectAccountFooter",
            "EventHandler": "AccountLinkHandler",
            "Title": "Connect your Battle.net account on Twitch",
            "Tag": "INDIVIDUAL",
            "ShouldAutogrant": false,
            "Milestones": [
              {
                "Id": "owl2019.accountlinking.individual1.milestone1",
                "Handler": "MileStoneHandler1",
                "HandlerMetadata": {
                  "Rewards": [],
                  "SelectionStrategy": "ALL"
                },
                "ActiveStartDate": "2019-01-31T16:00:00Z",
                "ActiveEndDate": "2020-02-25T16:00:00Z",
                "VisibleStartDate": "2019-01-31T17:40:00Z",
                "VisibleEndDate": "2020-02-25T16:00:00Z",
                "Threshold": 1,
                "ParticipationThreshold": 1
              }
            ]
          }
        ]
      }
    ]
  }
}
