{
  "Campaigns": {
    "owl2019": [
      {
        "Id": "owl2019.community.stage2",
        "ActiveStartDate": "2019-04-01T08:00:00Z",
        "ActiveEndDate": "2019-05-13T07:59:59Z",
        "Title": "owl2019 skeleton campaign",
        "Description": "owl2019 skeleton campaign",
        "ChannelList": {
          "190160460": true,
          "188863650": true,
          "188864445": true,
          "138602382": true,
          "138601808": true,
          "137512364": true
        },
        "Objectives": [
          {
            "Id": "owl2019.community.stage2.global0",
            "Description": "localizationKey:watchCCTitle.watchCC75kHeader.watchCC75kFooter.watchCCFooter",
            "EventHandler": "DiscoveryHandler",
            "DiscoveryEventType": "COMMAND_CENTER",
            "Title": "75,000 people watch in Command Center",
            "Tag": "GLOBAL",
            "ShouldAutogrant": true,
            "Milestones": [
              {
                "Id": "owl2019.community.stage2.global0.milestone1",
                "Handler": "IndividualCheerHandler",
                "HandlerMetadata": {
                  "Rewards": [
                    {
                      "Description": "OWL2019ryugekiken",
                      "ImageUrl": "https://static-cdn.jtvnw.net/emoticons/v1/1934862/3.0",
                      "Type": "emote",
                      "Id": "1601796",
                      "Name": "OWL2019ryugekiken"
                    }
                  ],
                  "SelectionStrategy": "ALL"
                },
                "ActiveStartDate": "2019-04-01T08:00:00Z",
                "ActiveEndDate": "2019-05-13T07:59:59Z",
                "VisibleStartDate": "2019-03-25T08:00:00Z",
                "VisibleEndDate": "2022-01-01T07:59:59Z",
                "Threshold": 75000,
                "ParticipationThreshold": 1
              }
            ]
          },
          {
            "Id": "owl2019.community.stage2.global1",
            "Description": "localizationKey:cheerBitsTitle.cheer15MMHeader.cheer15MMBody.cheerBitsFooter",
            "EventHandler": "GlobalCheerHandler",
            "Title": "Cheer 15 Million Bits",
            "Tag": "GLOBAL",
            "ShouldAutogrant": true,
            "Milestones": [
              {
                "Id": "owl2019.community.stage2.global1.milestone1",
                "Handler": "IndividualCheerHandler",
                "HandlerMetadata": {
                  "Rewards": [
                    {
                      "Description": "OWL2019dk",
                      "ImageUrl": "https://static-cdn.jtvnw.net/emoticons/v1/1934844/3.0",
                      "Type": "emote",
                      "Id": "1601781",
                      "Name": "OWL2019dk"
                    }
                  ],
                  "SelectionStrategy": "ALL"
                },
                "ActiveStartDate": "2019-04-01T08:00:00Z",
                "ActiveEndDate": "2019-05-13T07:59:59Z",
                "VisibleStartDate": "2019-03-25T08:00:00Z",
                "VisibleEndDate": "2022-01-01T07:59:59Z",
                "Threshold": 15000000,
                "ParticipationThreshold": 50
              }
            ]
          },
          {
            "Id": "owl2019.community.stage2.global2",
            "Description": "localizationKey:communityMegacheerTitle.megacheer15kTitle.megacheer15kBody.megacheerFooter",
            "EventHandler": "DiscreteCheerProgressionHandler",
            "Title": "Cheer 15,000 MegaCheers",
            "Tag": "GLOBAL",
            "ShouldAutogrant": true,
            "Milestones": [
              {
                "Id": "owl2019.community.stage2.global2.milestone1",
                "Handler": "IndividualCheerHandler",
                "HandlerMetadata": {
                  "Rewards": [
                    {
                      "Description": "OWL2019McCree",
                      "ImageUrl": "https://static-cdn.jtvnw.net/emoticons/v1/1934830/3.0",
                      "Type": "emote",
                      "Id": "1601765",
                      "Name": "OWL2019McCree"
                    }
                  ],
                  "MinCheerAmount": 300,
                  "SelectionStrategy": "ALL"
                },
                "ActiveStartDate": "2019-04-01T08:00:00Z",
                "ActiveEndDate": "2019-05-13T07:59:59Z",
                "VisibleStartDate": "2019-03-25T08:00:00Z",
                "VisibleEndDate": "2022-01-01T07:59:59Z",
                "Threshold": 15000,
                "ParticipationThreshold": 1
              }
            ]
          },
          {
            "Id": "owl2019.community.stage2.global3",
            "Description": "localizationKey:communityTeamCheerTitle.teamCheer150kHeader.teamCheer150kHeaderteamCheer150kBody.communityTeamCheerFooter",
            "EventHandler": "DiscreteCheerProgressionHandler",
            "Title": "Cheer 150,000 times for your teams",
            "Tag": "GLOBAL",
            "ShouldAutogrant": true,
            "Milestones": [
              {
                "Id": "owl2019.community.stage2.global3.milestone1",
                "Handler": "IndividualCheerHandler",
                "HandlerMetadata": {
                  "Rewards": [
                    {
                      "Description": "OWL2019tk",
                      "ImageUrl": "https://static-cdn.jtvnw.net/emoticons/v1/1934867/3.0",
                      "Type": "emote",
                      "Id": "1601801",
                      "Name": "OWL2019tk"
                    }
                  ],
                  "MinCheerAmount": 50,
                  "SelectionStrategy": "ALL"
                },
                "ActiveStartDate": "2019-04-01T08:00:00Z",
                "ActiveEndDate": "2019-05-13T07:59:59Z",
                "VisibleStartDate": "2019-03-25T08:00:00Z",
                "VisibleEndDate": "2022-01-01T07:59:59Z",
                "Threshold": 150000,
                "ParticipationThreshold": 1
              }
            ]
          }
        ]
      }
    ]
  }
}