{
  "Campaigns": {
    "owl2019": [
      {
        "Id": "owl2019.personal.stage1.week1",
        "ActiveStartDate": "2019-01-31T17:40:00Z",
        "ActiveEndDate": "2019-02-18T16:00:00Z",
        "Title": "Overwatch League 2019",
        "Description": "Overwatch League 2019",
        "ChannelList": {
          "190160460": true,
          "188863650": true,
          "188864445": true,
          "138602382": true,
          "138601808": true,
          "137512364": true
        },
        "CheerGroups": {
          "OWL2019TEAMS": {
            "CheerCodes": {
              "OWLBOS": true,
              "OWLVAL": true,
              "OWLDAL": true,
              "OWLFLA": true,
              "OWLGLA": true,
              "OWLHOU": true,
              "OWLLDN": true,
              "OWLNYE": true,
              "OWLPHI": true,
              "OWLSEO": true,
              "OWLSFS": true,
              "OWLSHD": true,
              "OWLHZS": true,
              "OWLGZC": true,
              "OWLCDH": true,
              "OWLATL": true,
              "OWLTOR": true,
              "OWLWAS": true,
              "OWLPAR": true,
              "OWLVAN": true
            }
          }
        },
        "Objectives": [
          {
            "Id": "owl2019.personal.stage1.week1.watchcc.individual1",
            "Description": "localizationKey:watchCCTitle.watchCCHeader.watchCCBody.watchCCFooter",
            "EventHandler": "DiscoveryHandler",
            "DiscoveryEventType": "COMMAND_CENTER",
            "Title": "Watch any 1 match in Command Center",
            "Tag": "INDIVIDUAL",
            "ShouldAutogrant": true,
            "Milestones": [
              {
                "Id": "owl2019.personal.stage1.week1.watchcc.individual1.milestone1",
                "Handler": "MilestoneHandler1",
                "HandlerMetadata": {
                  "Rewards": [
                    {
                      "Description": "OWL2019DVa",
                      "ImageUrl": "https://static-cdn.jtvnw.net/emoticons/v1/1833311/3.0",
                      "Type": "emote",
                      "Id": "1512298",
                      "Name": "D.Va"
                    }
                  ],
                  "SelectionStrategy": "ALL"
                },
                "ActiveStartDate": "2019-01-31T17:40:00Z",
                "ActiveEndDate": "2019-02-18T16:00:00Z",
                "VisibleStartDate": "2019-01-31T17:40:00Z",
                "VisibleEndDate": "2021-03-01T16:00:00Z",
                "Threshold": 1,
                "ParticipationThreshold": 1
              }
            ]
          },{
            "Id": "owl2019.personal.stage1.week1.cheerteam.individual2",
            "Description": "localizationKey:cheerTeamTitle.cheerTeamHeader.cheerTeamBody.cheerTeamFooter",
            "EventHandler": "IndividualCheerHandler",
            "Title": "Cheer once for your favorite team",
            "Tag": "INDIVIDUAL",
            "CheerGroupKey": "OWL2019TEAMS",
            "ShouldAutogrant": true,
            "Milestones": [
              {
                "Id": "owl2019.personal.stage1.week1.cheerteam.individual2.milestone1",
                "RequiredSubs": ["1189177"],
                "Handler": "TeamMilestoneHandler",
                "HandlerMetadata": {
                  "Rewards": [
                    {
                      "Description": "OWL2019Widowmaker",
                      "ImageUrl": "https://static-cdn.jtvnw.net/emoticons/v1/1833319/3.0",
                      "Type": "emote",
                      "Id": "1512304",
                      "Name": "Widowmaker"
                    }
                  ],
                  "SelectionStrategy": "ALL"
                },
                "ActiveStartDate": "2019-01-31T17:40:00Z",
                "ActiveEndDate": "2019-02-18T16:00:00Z",
                "VisibleStartDate": "2019-01-31T17:40:00Z",
                "VisibleEndDate": "2021-03-01T16:00:00Z",
                "Threshold": 1,
                "ParticipationThreshold": 1
              }
            ]
          },{
            "Id": "owl2019.personal.stage1.week1.megacheer.individual3",
            "Description": "localizationKey:megacheerTitle.megacheerHeader.megacheerBody.megacheerFooter",
            "EventHandler": "DiscreteCheerProgressionHandler",
            "Title": "Cheer 1 MegaCheer",
            "Tag": "INDIVIDUAL",
            "ShouldAutogrant": true,
            "Milestones": [
              {
                "Id": "owl2019.personal.stage1.week1.megacheer.individual3.milestone1",
                "RequiredSubs": ["1189177"],
                "Handler": "MileStoneHandler1",
                "HandlerMetadata": {
                  "Rewards": [
                    {
                      "Description": "OWL2019Reinhardt",
                      "ImageUrl": "https://static-cdn.jtvnw.net/emoticons/v1/1833316/3.0",
                      "Type": "emote",
                      "Id": "1512301",
                      "Name": "Reinhardt"
                    }
                  ],
                  "MinCheerAmount": 300,
                  "SelectionStrategy": "ALL"
                },
                "ActiveStartDate": "2019-01-31T17:40:00Z",
                "ActiveEndDate": "2019-02-18T16:00:00Z",
                "VisibleStartDate": "2019-01-31T17:40:00Z",
                "VisibleEndDate": "2021-03-01T16:00:00Z",
                "Threshold": 1,
                "ParticipationThreshold": 1
              }
            ]
          }
        ]
      },
      {
        "Id": "owl2019.personal.stage1.week2",
        "ActiveStartDate": "2019-02-18T16:00:00Z",
        "ActiveEndDate": "2019-02-25T16:00:00Z",
        "Title": "Overwatch League 2019",
        "Description": "Overwatch League 2019",
        "ChannelList": {
          "190160460": true,
          "188863650": true,
          "188864445": true,
          "138602382": true,
          "138601808": true,
          "137512364": true
        },
        "CheerGroups": {
          "OWL2019TEAMS": {
            "CheerCodes": {
              "OWLBOS": true,
              "OWLVAL": true,
              "OWLDAL": true,
              "OWLFLA": true,
              "OWLGLA": true,
              "OWLHOU": true,
              "OWLLDN": true,
              "OWLNYE": true,
              "OWLPHI": true,
              "OWLSEO": true,
              "OWLSFS": true,
              "OWLSHD": true,
              "OWLHZS": true,
              "OWLGZC": true,
              "OWLCDH": true,
              "OWLATL": true,
              "OWLTOR": true,
              "OWLWAS": true,
              "OWLPAR": true,
              "OWLVAN": true
            }
          }
        },
        "Objectives": [
          {
            "Id": "owl2019.personal.stage1.week2.connectbnet.individual1",
            "Description": "localizationKey:connectAccountTitle.connectAccountHeader.connectAccountBody.connectAccountFooter",
            "EventHandler": "AccountLinkHandler",
            "Title": "Connect your Battle.net account on Twitch",
            "Tag": "INDIVIDUAL",
            "ShouldAutogrant": true,
            "Milestones": [
              {
                "Id": "owl2019.personal.stage1.week2.connectbnet.individual1.milestone1",
                "Handler": "MileStoneHandler1",
                "HandlerMetadata": {
                  "Rewards": [
                    {
                      "Description": "OWL2019Tracer",
                      "ImageUrl": "https://static-cdn.jtvnw.net/emoticons/v1/1833318/3.0",
                      "Type": "emote",
                      "Id": "1512303",
                      "Name": "Tracer"
                    }
                  ],
                  "SelectionStrategy": "ALL"
                },
                "ActiveStartDate": "2019-02-18T16:00:00Z",
                "ActiveEndDate": "2019-02-25T16:00:00Z",
                "VisibleStartDate": "2019-01-31T17:40:00Z",
                "VisibleEndDate": "2021-03-01T16:00:00Z",
                "Threshold": 1,
                "ParticipationThreshold": 1
              }
            ]
          },
          {
            "Id": "owl2019.personal.stage1.week2.equipchannel.individual2",
            "Description": "localizationKey:equipBadgeTitle.equipChannelBadgeHeader.equipChannelBadgeBody.equipBadgeFooter",
            "EventHandler": "ChannelBadgeEquipHandler",
            "Title": "Equip OWL Channel Badge Lv1",
            "BadgeSetIds" : {
              "overwatch-league-insider_2019B": true
            },
            "Tag": "INDIVIDUAL",
            "ShouldAutogrant": true,
            "Milestones": [
              {
                "Id": "owl2019.personal.stage1.week2.equipchannel.individual2.milestone1",
                "RequiredSubs": ["1189177"],
                "Handler": "TeamMilestoneHandler",
                "HandlerMetadata": {
                  "Rewards": [
                    {
                      "Description": "OWL2019Ashe",
                      "ImageUrl": "https://static-cdn.jtvnw.net/emoticons/v1/1833309/3.0",
                      "Type": "emote",
                      "Id": "1512296",
                      "Name": "Ashe"
                    }
                  ],
                  "SelectionStrategy": "ALL"
                },
                "ActiveStartDate": "2019-02-18T16:00:00Z",
                "ActiveEndDate": "2019-02-25T16:00:00Z",
                "VisibleStartDate": "2019-01-31T17:40:00Z",
                "VisibleEndDate": "2021-03-01T16:00:00Z",
                "Threshold": 1,
                "ParticipationThreshold": 1
              }
            ]
          },{
            "Id": "owl2019.personal.stage1.week2.cheer.individual3",
            "Description": "localizationKey:cheerBitsTitle.cheerBitsHeader.cheerBitsBody.cheerBitsFooter",
            "EventHandler": "IndividualCheerHandler",
            "Title": "Cheer 50 Bits",
            "Tag": "INDIVIDUAL",
            "ShouldAutogrant": true,
            "Milestones": [
              {
                "Id": "owl2019.personal.stage1.week2.cheer.individual3.milestone1",
                "RequiredSubs": ["1189177"],
                "Handler": "MilestoneHandler1",
                "HandlerMetadata": {
                  "Rewards": [
                    {
                      "Description": "OWL2019Doomfist",
                      "ImageUrl": "https://static-cdn.jtvnw.net/emoticons/v1/1833310/3.0",
                      "Type": "emote",
                      "Id": "1512297",
                      "Name": "Doomfist"
                    }
                  ],
                  "SelectionStrategy": "ALL"
                },
                "ActiveStartDate": "2019-02-18T16:00:00Z",
                "ActiveEndDate": "2019-02-25T16:00:00Z",
                "VisibleStartDate": "2019-01-31T17:40:00Z",
                "VisibleEndDate": "2021-03-01T16:00:00Z",
                "Threshold": 50,
                "ParticipationThreshold": 50
              }
            ]
          }
        ]
      },
      {
        "Id": "owl2019.personal.stage1.week3",
        "ActiveStartDate": "2019-02-25T16:00:00Z",
        "ActiveEndDate": "2019-03-04T16:00:00Z",
        "Title": "Overwatch League 2019",
        "Description": "Overwatch League 2019",
        "ChannelList": {
          "190160460": true,
          "188863650": true,
          "188864445": true,
          "138602382": true,
          "138601808": true,
          "137512364": true
        },
        "CheerGroups": {
          "OWL2019TEAMS": {
            "CheerCodes": {
              "OWLBOS": true,
              "OWLVAL": true,
              "OWLDAL": true,
              "OWLFLA": true,
              "OWLGLA": true,
              "OWLHOU": true,
              "OWLLDN": true,
              "OWLNYE": true,
              "OWLPHI": true,
              "OWLSEO": true,
              "OWLSFS": true,
              "OWLSHD": true,
              "OWLHZS": true,
              "OWLGZC": true,
              "OWLCDH": true,
              "OWLATL": true,
              "OWLTOR": true,
              "OWLWAS": true,
              "OWLPAR": true,
              "OWLVAN": true
            }
          }
        },
        "Objectives": [
          {
            "Id": "owl2019.personal.stage1.week3.cheer.individual1",
            "Description": "localizationKey:cheerBitsTitle.cheerBitsHeader.cheerBitsBody.cheerBitsFooter",
            "EventHandler": "IndividualCheerHandler",
            "Title": "Cheer 50 Bits",
            "Tag": "INDIVIDUAL",
            "ShouldAutogrant": true,
            "Milestones": [
              {
                "Id": "owl2019.personal.stage1.week3.cheer.individual1.milestone1",
                "Handler": "MilestoneHandler1",
                "HandlerMetadata": {
                  "Rewards": [
                    {
                      "Description": "OWL2019Roadhog",
                      "ImageUrl": "https://static-cdn.jtvnw.net/emoticons/v1/1833317/3.0",
                      "Type": "emote",
                      "Id": "1512302",
                      "Name": "Roadhog"
                    }
                  ],
                  "SelectionStrategy": "ALL"
                },
                "ActiveStartDate": "2019-02-25T16:00:00Z",
                "ActiveEndDate": "2019-03-04T16:00:00Z",
                "VisibleStartDate": "2019-02-18T16:00:00Z",
                "VisibleEndDate": "2021-03-01T16:00:00Z",
                "Threshold": 50,
                "ParticipationThreshold": 50
              }
            ]
          },{
            "Id": "owl2019.personal.stage1.week3.watchcc.individual2",
            "Description": "localizationKey:watchCCTitle.watchCCHeader.watchCCBody.watchCCFooter",
            "EventHandler": "DiscoveryHandler",
            "DiscoveryEventType": "COMMAND_CENTER",
            "Title": "Watch any 1 match in Command Center",
            "Tag": "INDIVIDUAL",
            "ShouldAutogrant": true,
            "Milestones": [
              {
                "Id": "owl2019.personal.stage1.week3.watchcc.individual2.milestone1",
                "RequiredSubs": ["1189177"],
                "Handler": "MilestoneHandler1",
                "HandlerMetadata": {
                  "Rewards": [
                    {
                      "Description": "OWL2019Winston",
                      "ImageUrl": "https://static-cdn.jtvnw.net/emoticons/v1/1833320/3.0",
                      "Type": "emote",
                      "Id": "1512305",
                      "Name": "Winston"
                    }
                  ],
                  "SelectionStrategy": "ALL"
                },
                "ActiveStartDate": "2019-02-25T16:00:00Z",
                "ActiveEndDate": "2019-03-04T16:00:00Z",
                "VisibleStartDate": "2019-02-18T16:00:00Z",
                "VisibleEndDate": "2021-03-01T16:00:00Z",
                "Threshold": 1,
                "ParticipationThreshold": 1
              }
            ]
          },{
            "Id": "owl2019.personal.stage1.week3.cheerteam.individual3",
            "Description": "localizationKey:cheerTeamTitle.cheerTeamHeader.cheerTeamBody.cheerTeamFooter",
            "EventHandler": "IndividualCheerHandler",
            "Title": "Cheer once for your favorite team",
            "Tag": "INDIVIDUAL",
            "CheerGroupKey": "OWL2019TEAMS",
            "ShouldAutogrant": true,
            "Milestones": [
              {
                "Id": "owl2019.personal.stage1.week3.cheerteam.individual3.milestone1",
                "RequiredSubs": ["1189177"],
                "Handler": "TeamMilestoneHandler",
                "HandlerMetadata": {
                  "Rewards": [
                    {
                      "Description": "OWL2019Zarya",
                      "ImageUrl": "https://static-cdn.jtvnw.net/emoticons/v1/1833321/3.0",
                      "Type": "emote",
                      "Id": "1512306",
                      "Name": "Zarya"
                    }
                  ],
                  "SelectionStrategy": "ALL"
                },
                "ActiveStartDate": "2019-02-25T16:00:00Z",
                "ActiveEndDate": "2019-03-04T16:00:00Z",
                "VisibleStartDate": "2019-02-18T16:00:00Z",
                "VisibleEndDate": "2021-03-01T16:00:00Z",
                "Threshold": 1,
                "ParticipationThreshold": 1
              }
            ]
          }
        ]
      },
      {
        "Id": "owl2019.personal.stage1.week4",
        "ActiveStartDate": "2019-03-04T16:00:00Z",
        "ActiveEndDate": "2019-03-11T15:00:00Z",
        "Title": "Overwatch League 2019",
        "Description": "Overwatch League 2019",
        "ChannelList": {
          "190160460": true,
          "188863650": true,
          "188864445": true,
          "138602382": true,
          "138601808": true,
          "137512364": true
        },
        "CheerGroups": {
          "OWL2019TEAMS": {
            "CheerCodes": {
              "OWLBOS": true,
              "OWLVAL": true,
              "OWLDAL": true,
              "OWLFLA": true,
              "OWLGLA": true,
              "OWLHOU": true,
              "OWLLDN": true,
              "OWLNYE": true,
              "OWLPHI": true,
              "OWLSEO": true,
              "OWLSFS": true,
              "OWLSHD": true,
              "OWLHZS": true,
              "OWLGZC": true,
              "OWLCDH": true,
              "OWLATL": true,
              "OWLTOR": true,
              "OWLWAS": true,
              "OWLPAR": true,
              "OWLVAN": true
            }
          }
        },
        "Objectives": [
          {
            "Id": "owl2019.personal.stage1.week4.megacheer.individual1",
            "Description": "localizationKey:megacheerTitle.megacheerHeader.megacheerBody.megacheerFooter",
            "EventHandler": "DiscreteCheerProgressionHandler",
            "Title": "Cheer 1 MegaCheer",
            "Tag": "INDIVIDUAL",
            "ShouldAutogrant": true,
            "Milestones": [
              {
                "Id": "owl2019.personal.stage1.week4.megacheer.individual1.milestone1",
                "Handler": "MileStoneHandler1",
                "HandlerMetadata": {
                  "Rewards": [
                    {
                      "Description": "OWL2019Mercy",
                      "ImageUrl": "https://static-cdn.jtvnw.net/emoticons/v1/1833315/3.0",
                      "Type": "emote",
                      "Id": "1512300",
                      "Name": "Mercy"
                    }
                  ],
                  "MinCheerAmount": 300,
                  "SelectionStrategy": "ALL"
                },
                "ActiveStartDate": "2019-03-04T16:00:00Z",
                "ActiveEndDate": "2019-03-11T15:00:00Z",
                "VisibleStartDate": "2019-02-25T16:00:00Z",
                "VisibleEndDate": "2021-03-01T16:00:00Z",
                "Threshold": 1,
                "ParticipationThreshold": 1
              }
            ]
          },{
            "Id": "owl2019.personal.stage1.week4.watchcc.individual2",
            "Description": "localizationKey:watchCCTitle.watchCCHeader.watchCCBody.watchCCFooter",
            "EventHandler": "DiscoveryHandler",
            "DiscoveryEventType": "COMMAND_CENTER",
            "Title": "Watch any 1 match in Command Center",
            "Tag": "INDIVIDUAL",
            "ShouldAutogrant": true,
            "Milestones": [
              {
                "Id": "owl2019.personal.stage1.week4.watchcc.individual2.milestone1",
                "RequiredSubs": ["1189177"],
                "Handler": "MilestoneHandler1",
                "HandlerMetadata": {
                  "Rewards": [
                    {
                      "Description": "OWL2019Zenyatta",
                      "ImageUrl": "https://static-cdn.jtvnw.net/emoticons/v1/1833323/3.0",
                      "Type": "emote",
                      "Id": "1512307",
                      "Name": "Zenyatta"
                    }
                  ],
                  "SelectionStrategy": "ALL"
                },
                "ActiveStartDate": "2019-03-04T16:00:00Z",
                "ActiveEndDate": "2019-03-11T15:00:00Z",
                "VisibleStartDate": "2019-02-25T16:00:00Z",
                "VisibleEndDate": "2021-03-01T16:00:00Z",
                "Threshold": 1,
                "ParticipationThreshold": 1
              }
            ]
          },{
            "Id": "owl2019.personal.stage1.week4.cheer.individual3",
            "Description": "localizationKey:cheermoteTitle.cheermoteHeader.cheermoteBody.cheermoteFooter",
            "EventHandler": "IndividualCheerHandler",
            "Title": "Cheer once using any cheermote",
            "Tag": "INDIVIDUAL",
            "ShouldAutogrant": true,
            "Milestones": [
              {
                "Id": "owl2019.personal.stage1.week4.cheer.individual3.milestone1",
                "RequiredSubs": ["1189177"],
                "Handler": "MilestoneHandler1",
                "HandlerMetadata": {
                  "Rewards": [
                    {
                      "Description": "OWL2019Ana",
                      "ImageUrl": "https://static-cdn.jtvnw.net/emoticons/v1/1833308/3.0",
                      "Type": "emote",
                      "Id": "1512295",
                      "Name": "Ana"
                    }
                  ],
                  "SelectionStrategy": "ALL"
                },
                "ActiveStartDate": "2019-03-04T16:00:00Z",
                "ActiveEndDate": "2019-03-11T15:00:00Z",
                "VisibleStartDate": "2019-02-25T16:00:00Z",
                "VisibleEndDate": "2021-03-01T16:00:00Z",
                "Threshold": 1,
                "ParticipationThreshold": 1
              }
            ]
          }
        ]
      },
      {
        "Id": "owl2019.personal.stage1.week5",
        "ActiveStartDate": "2019-03-11T15:00:00Z",
        "ActiveEndDate": "2019-03-18T15:00:00Z",
        "Title": "Overwatch League 2019",
        "Description": "Overwatch League 2019",
        "ChannelList": {
          "190160460": true,
          "188863650": true,
          "188864445": true,
          "138602382": true,
          "138601808": true,
          "137512364": true
        },
        "CheerGroups": {
          "OWL2019TEAMS": {
            "CheerCodes": {
              "OWLBOS": true,
              "OWLVAL": true,
              "OWLDAL": true,
              "OWLFLA": true,
              "OWLGLA": true,
              "OWLHOU": true,
              "OWLLDN": true,
              "OWLNYE": true,
              "OWLPHI": true,
              "OWLSEO": true,
              "OWLSFS": true,
              "OWLSHD": true,
              "OWLHZS": true,
              "OWLGZC": true,
              "OWLCDH": true,
              "OWLATL": true,
              "OWLTOR": true,
              "OWLWAS": true,
              "OWLPAR": true,
              "OWLVAN": true
            }
          }
        },
        "Objectives": [
          {
            "Id": "owl2019.personal.stage1.week5.cheerteam.individual1",
            "Description": "localizationKey:cheerTeamTitle.cheerTeamHeader.cheerTeamBody.cheerTeamFooter",
            "EventHandler": "IndividualCheerHandler",
            "Title": "Cheer once for your favorite team",
            "Tag": "INDIVIDUAL",
            "CheerGroupKey": "OWL2019TEAMS",
            "ShouldAutogrant": true,
            "Milestones": [
              {
                "Id": "owl2019.personal.stage1.week5.cheerteam.individual1.milestone1",
                "Handler": "MilestoneHandler1",
                "HandlerMetadata": {
                  "Rewards": [
                    {
                      "Description": "OWL2019salt",
                      "ImageUrl": "https://static-cdn.jtvnw.net/emoticons/v1/1833327/3.0",
                      "Type": "emote",
                      "Id": "1512311",
                      "Name": "salt"
                    }
                  ],
                  "SelectionStrategy": "ALL"
                },
                "ActiveStartDate": "2019-03-11T15:00:00Z",
                "ActiveEndDate": "2019-03-18T15:00:00Z",
                "VisibleStartDate": "2019-03-04T16:00:00Z",
                "VisibleEndDate": "2021-03-01T16:00:00Z",
                "Threshold": 1,
                "ParticipationThreshold": 1
              }
            ]
          },{
            "Id": "owl2019.personal.stage1.week5.equipglobal.individual2",
            "Description": "localizationKey:equipBadgeTitle.equipGlobalBadgeHeader.equipGlobalBadgeBody.equipBadgeFooter",
            "EventHandler": "OWL2019GlobalBadgeEquipHandler",
            "Title": "Equip OWL Global Badge Lv1",
            "BadgeSetIds" : {
              "overwatch-league-insider_2019A": true
            },
            "Tag": "INDIVIDUAL",
            "ShouldAutogrant": true,
            "Milestones": [
              {
                "Id": "owl2019.personal.stage1.week5.equipglobal.individual2.milestone1",
                "RequiredSubs": ["1189177"],
                "Handler": "MileStoneHandler1",
                "HandlerMetadata": {
                  "Rewards": [
                    {
                      "Description": "OWL2019bioticgrenade",
                      "ImageUrl": "https://static-cdn.jtvnw.net/emoticons/v1/1833328/3.0",
                      "Type": "emote",
                      "Id": "1512312",
                      "Name": "Biotic Grenade"
                    }
                  ],
                  "SelectionStrategy": "ALL"
                },
                "ActiveStartDate": "2019-03-11T15:00:00Z",
                "ActiveEndDate": "2019-03-18T15:00:00Z",
                "VisibleStartDate": "2019-03-04T16:00:00Z",
                "VisibleEndDate": "2021-03-01T16:00:00Z",
                "Threshold": 1,
                "ParticipationThreshold": 1
              }
            ]
          },{
            "Id": "owl2019.personal.stage1.week5.cheer.individual3",
            "Description": "localizationKey:cheerBitsTitle.cheerBitsHeader.cheerBitsBody.cheerBitsFooter",
            "EventHandler": "IndividualCheerHandler",
            "Title": "Cheer 50 Bits",
            "Tag": "INDIVIDUAL",
            "ShouldAutogrant": true,
            "Milestones": [
              {
                "Id": "owl2019.personal.stage1.week5.cheer.individual3.milestone1",
                "RequiredSubs": ["1189177"],
                "Handler": "MilestoneHandler1",
                "HandlerMetadata": {
                  "Rewards": [
                    {
                      "Description": "OWL2019shuriken",
                      "ImageUrl": "https://static-cdn.jtvnw.net/emoticons/v1/1833333/3.0",
                      "Type": "emote",
                      "Id": "1512317",
                      "Name": "Genji Spray"
                    }
                  ],
                  "SelectionStrategy": "ALL"
                },
                "ActiveStartDate": "2019-03-11T15:00:00Z",
                "ActiveEndDate": "2019-03-18T15:00:00Z",
                "VisibleStartDate": "2019-03-04T16:00:00Z",
                "VisibleEndDate": "2021-03-01T16:00:00Z",
                "Threshold": 50,
                "ParticipationThreshold": 50
              }
            ]
          }
        ]
      },
      {
        "Id": "owl2019.personal.stage1.week6",
        "ActiveStartDate": "2019-03-18T15:00:00Z",
        "ActiveEndDate": "2019-04-01T15:00:00Z",
        "Title": "Overwatch League 2019",
        "Description": "Overwatch League 2019",
        "ChannelList": {
          "190160460": true,
          "188863650": true,
          "188864445": true,
          "138602382": true,
          "138601808": true,
          "137512364": true
        },
        "CheerGroups": {
          "OWL2019TEAMS": {
            "CheerCodes": {
              "OWLBOS": true,
              "OWLVAL": true,
              "OWLDAL": true,
              "OWLFLA": true,
              "OWLGLA": true,
              "OWLHOU": true,
              "OWLLDN": true,
              "OWLNYE": true,
              "OWLPHI": true,
              "OWLSEO": true,
              "OWLSFS": true,
              "OWLSHD": true,
              "OWLHZS": true,
              "OWLGZC": true,
              "OWLCDH": true,
              "OWLATL": true,
              "OWLTOR": true,
              "OWLWAS": true,
              "OWLPAR": true,
              "OWLVAN": true
            }
          }
        },
        "Objectives": [
          {
            "Id": "owl2019.personal.stage1.week6.megacheer.individual1",
            "Description": "localizationKey:megacheerTitle.megacheerHeader.megacheerBody.megacheerFooter",
            "EventHandler": "DiscreteCheerProgressionHandler",
            "Title": "Cheer 1 MegaCheer",
            "Tag": "INDIVIDUAL",
            "ShouldAutogrant": true,
            "Milestones": [
              {
                "Id": "owl2019.personal.stage1.week6.megacheer.individual1.milestone1",
                "Handler": "MileStoneHandler1",
                "HandlerMetadata": {
                  "Rewards": [
                    {
                      "Description": "OWL2019hammerdown",
                      "ImageUrl": "https://static-cdn.jtvnw.net/emoticons/v1/1833324/3.0",
                      "Type": "emote",
                      "Id": "1512308",
                      "Name": "Hammer Down"
                    }
                  ],
                  "MinCheerAmount": 300,
                  "SelectionStrategy": "ALL"
                },
                "ActiveStartDate": "2019-03-18T15:00:00Z",
                "ActiveEndDate": "2019-04-01T15:00:00Z",
                "VisibleStartDate": "2019-03-11T15:00:00Z",
                "VisibleEndDate": "2021-03-01T16:00:00Z",
                "Threshold": 1,
                "ParticipationThreshold": 1
              }
            ]
          },{
            "Id": "owl2019.personal.stage1.week6.cheer.individual2",
            "Description": "localizationKey:cheerBitsTitle.cheerBitsHeader.cheerBitsBody.cheerBitsFooter",
            "EventHandler": "IndividualCheerHandler",
            "Title": "Cheer 50 Bits",
            "Tag": "INDIVIDUAL",
            "ShouldAutogrant": true,
            "Milestones": [
              {
                "Id": "owl2019.personal.stage1.week6.cheer.individual2.milestone1",
                "RequiredSubs": ["1189177"],
                "Handler": "MilestoneHandler1",
                "HandlerMetadata": {
                  "Rewards": [
                    {
                      "Description": "OWLselfdestruct",
                      "ImageUrl": "https://static-cdn.jtvnw.net/emoticons/v1/1833326/3.0",
                      "Type": "emote",
                      "Id": "1512310",
                      "Name": "Self Destruct"
                    }
                  ],
                  "SelectionStrategy": "ALL"
                },
                "ActiveStartDate": "2019-03-18T15:00:00Z",
                "ActiveEndDate": "2019-04-01T15:00:00Z",
                "VisibleStartDate": "2019-03-11T15:00:00Z",
                "VisibleEndDate": "2021-03-01T16:00:00Z",
                "Threshold": 50,
                "ParticipationThreshold": 50
              }
            ]
          },{
            "Id": "owl2019.personal.stage1.week6.watchcc.individual3",
            "Description": "localizationKey:watchCCTitle.watchCCHeader.watchCCBody.watchCCFooter",
            "EventHandler": "DiscoveryHandler",
            "DiscoveryEventType": "COMMAND_CENTER",
            "Title": "Watch any 1 match in Command Center",
            "Tag": "INDIVIDUAL",
            "ShouldAutogrant": true,
            "Milestones": [
              {
                "Id": "owl2019.personal.stage1.week6.watchcc.individual3.milestone1",
                "RequiredSubs": ["1189177"],
                "Handler": "MilestoneHandler1",
                "HandlerMetadata": {
                  "Rewards": [
                    {
                      "Description": "OWL2019dragonblade",
                      "ImageUrl": "https://static-cdn.jtvnw.net/emoticons/v1/1833325/3.0",
                      "Type": "emote",
                      "Id": "1512309",
                      "Name": "Dragonblade"
                    }
                  ],
                  "SelectionStrategy": "ALL"
                },
                "ActiveStartDate": "2019-03-18T15:00:00Z",
                "ActiveEndDate": "2019-04-01T15:00:00Z",
                "VisibleStartDate": "2019-03-11T15:00:00Z",
                "VisibleEndDate": "2021-03-01T16:00:00Z",
                "Threshold": 1,
                "ParticipationThreshold": 1
              }
            ]
          }
        ]
      },
      {
        "Id": "owl2019.personal.stage1",
        "ActiveStartDate": "2019-01-31T17:40:00Z",
        "ActiveEndDate": "2019-04-01T15:00:00Z",
        "Title": "Overwatch League 2019",
        "Description": "Overwatch League 2019",
        "ChannelList": {
          "190160460": true,
          "188863650": true,
          "188864445": true,
          "138602382": true,
          "138601808": true,
          "137512364": true
        },
        "Objectives": [
          {
            "Id": "owl2019.personal.stage1.completed.challenges",
            "Description": "localizationKey:completePersonalChallengesTitle.complete10PersonalChallengesHeader.complete10PersonalChallengesBody.completePersonalChallengesFooter",
            "EventHandler": "CompletedChallengeHandler",
            "Title": "Complete 10 of 18 Weekly Challenges",
            "Tag": "INDIVIDUAL",
            "ShouldAutogrant": true,
            "ContributingMilestoneIds": [
              "owl2019.personal.stage1.week1.watchcc.individual1.milestone1",
              "owl2019.personal.stage1.week1.cheerteam.individual2.milestone1",
              "owl2019.personal.stage1.week1.megacheer.individual3.milestone1",
              "owl2019.personal.stage1.week2.connectbnet.individual1.milestone1",
              "owl2019.personal.stage1.week2.equipchannel.individual2.milestone1",
              "owl2019.personal.stage1.week2.cheer.individual3.milestone1",
              "owl2019.personal.stage1.week3.cheer.individual1.milestone1",
              "owl2019.personal.stage1.week3.watchcc.individual2.milestone1",
              "owl2019.personal.stage1.week3.cheerteam.individual3.milestone1",
              "owl2019.personal.stage1.week4.megacheer.individual1.milestone1",
              "owl2019.personal.stage1.week4.watchcc.individual2.milestone1",
              "owl2019.personal.stage1.week4.cheer.individual3.milestone1",
              "owl2019.personal.stage1.week5.cheerteam.individual1.milestone1",
              "owl2019.personal.stage1.week5.equipglobal.individual2.milestone1",
              "owl2019.personal.stage1.week5.cheer.individual3.milestone1",
              "owl2019.personal.stage1.week6.megacheer.individual1.milestone1",
              "owl2019.personal.stage1.week6.cheer.individual2.milestone1",
              "owl2019.personal.stage1.week6.watchcc.individual3.milestone1"
            ],
            "Milestones": [
              {
                "Id": "owl2019.personal.stage1.completed.challenges.milestone1",
                "Description": "Complete 10 of 18 Weekly Challenges",
                "Handler": "MileStoneHandler1",
                "RequiredSubs": ["1189177"],
                "HandlerMetadata": {
                  "Rewards": [
                    {
                      "Description": "OWL Badge",
                      "ImageUrl": "https://static-cdn.jtvnw.net/owl-preferences-assets/v1/badge-upgrade.png",
                      "Type": "channelBadgeUpgrade",
                      "Id": "overwatch-league-insider_2019B",
                      "Name": "OWL Channel Badge",
                      "Metadata": {
                        "SubType": "channel"
                      }
                    }
                  ],
                  "SelectionStrategy": "ALL"
                },
                "ActiveStartDate": "2019-01-31T17:40:00Z",
                "ActiveEndDate": "2019-04-01T15:00:00Z",
                "VisibleStartDate": "2019-01-31T17:40:00Z",
                "VisibleEndDate": "2021-03-01T16:00:00Z",
                "Threshold": 10,
                "ParticipationThreshold": 10
              }
            ]
          }
        ]
      },
      {
        "Id": "owl2019.community.stage1",
        "ActiveStartDate": "2019-01-31T17:40:00Z",
        "ActiveEndDate": "2019-04-01T15:00:00Z",
        "Title": "Overwatch League 2019",
        "Description": "Overwatch League 2019",
        "ChannelList": {
          "190160460": true,
          "188863650": true,
          "188864445": true,
          "138602382": true,
          "138601808": true,
          "137512364": true
        },
        "Objectives": [
          {
            "Id": "owl2019.community.stage1.cheer.global1",
            "Description": "localizationKey:cheerBitsTitle.cheer40MMHeader.cheer40MMBody.cheerBitsFooter",
            "EventHandler": "GlobalCheerHandler",
            "Title": "OWL Cheer GLOBAL",
            "Tag": "GLOBAL",
            "ShouldAutogrant": true,
            "Milestones": [
              {
                "Id": "owl2019.community.stage1.cheer.global1.milestone1",
                "Handler": "MileStoneHandler1",
                "HandlerMetadata": {
                  "Rewards": [
                    {
                      "Description": "OWL2019potg",
                      "ImageUrl": "https://static-cdn.jtvnw.net/emoticons/v1/1833331/3.0",
                      "Type": "emote",
                      "Id": "1512315",
                      "Name": "POTG"
                    }
                  ],
                  "SelectionStrategy": "ALL"
                },
                "ActiveStartDate": "2019-01-31T17:40:00Z",
                "ActiveEndDate": "2019-04-01T15:00:00Z",
                "VisibleStartDate": "2019-01-31T17:40:00Z",
                "VisibleEndDate": "2021-03-01T16:00:00Z",
                "Threshold": 40000000,
                "ParticipationThreshold": 50
              }
            ]
          },
          {
            "Id": "owl2019.community.stage1.megacheer.global2",
            "Description": "localizationKey:communityMegacheerTitle.communityMegacheer40kHeader.communityMegacheer40kBody.megacheerFooter",
            "EventHandler": "DiscreteCheerProgressionHandler",
            "Title": "Initiate 40000 MegaCheers",
            "Tag": "GLOBAL",
            "ShouldAutogrant": true,
            "Milestones": [
              {
                "Id": "owl2019.community.stage1.megacheer.global2.milestone1",
                "Handler": "MileStoneHandler1",
                "HandlerMetadata": {
                  "Rewards": [
                    {
                      "Description": "OWL2019ez",
                      "ImageUrl": "https://static-cdn.jtvnw.net/emoticons/v1/1833329/3.0",
                      "Type": "emote",
                      "Id": "1512313",
                      "Name": "EZ"
                    }
                  ],
                  "MinCheerAmount": 300,
                  "SelectionStrategy": "ALL"
                },
                "ActiveStartDate": "2019-01-31T17:40:00Z",
                "ActiveEndDate": "2019-04-01T15:00:00Z",
                "VisibleStartDate": "2019-01-31T17:40:00Z",
                "VisibleEndDate": "2021-03-01T16:00:00Z",
                "Threshold": 40000,
                "ParticipationThreshold": 1
              }
            ]
          },
          {
            "Id": "owl2019.community.stage1.watchcc.global3",
            "Description": "localizationKey:watchCCTitle.watchCC200kHeader.watchCC200kBody.watchCCFooter",
            "EventHandler": "DiscoveryHandler",
            "DiscoveryEventType": "COMMAND_CENTER",
            "Title": "200000 people use Command Center",
            "Tag": "GLOBAL",
            "DisablePubSub": true,
            "ShouldAutogrant": true,
            "Milestones": [
              {
                "Id": "owl2019.community.stage1.watchcc.global3.milestone1",
                "Handler": "MileStoneHandler1",
                "HandlerMetadata": {
                  "Rewards": [
                    {
                      "Description": "OWL2019gg",
                      "ImageUrl": "https://static-cdn.jtvnw.net/emoticons/v1/1833330/3.0",
                      "Type": "emote",
                      "Id": "1512314",
                      "Name": "GG"
                    }
                  ],
                  "SelectionStrategy": "ALL"
                },
                "ActiveStartDate": "2019-01-31T17:40:00Z",
                "ActiveEndDate": "2019-04-01T15:00:00Z",
                "VisibleStartDate": "2019-01-31T17:40:00Z",
                "VisibleEndDate": "2021-03-01T16:00:00Z",
                "Threshold": 200000,
                "ParticipationThreshold": 1
              }
            ]
          },
          {
            "Id": "owl2019.community.stage1.giftaap.global4",
            "Description": "localizationKey:giftPassTitle.giftPassHeader.giftPassBody.giftPassFooter",
            "EventHandler": "SubscriptionGiftingHandler",
            "Title": "Gift 10000 AAPs",
            "Tag": "GLOBAL",
            "ShouldAutogrant": true,
            "Milestones": [
              {
                "Id": "owl2019.community.stage1.giftaap.global4.milestone1",
                "Handler": "MileStoneHandler1",
                "Tag": "GLOBAL",
                "HandlerMetadata": {
                  "Rewards": [
                    {
                      "Description": "OWL2019gift1",
                      "ImageUrl": "https://static-cdn.jtvnw.net/owl-preferences-assets/v1/tracer_gift_set.png",
                      "Type": "emote",
                      "Id": "1540335",
                      "Name": "OWL2019gift1"
                    },
                    {
                      "Description": "OWL2019gift2",
                      "ImageUrl": "https://static-cdn.jtvnw.net/owl-preferences-assets/v1/tracer_gift_set.png",
                      "Type": "emote",
                      "Id": "1540336",
                      "Name": "OWL2019gift2"
                    },
                    {
                      "Description": "OWL2019gift3",
                      "ImageUrl": "https://static-cdn.jtvnw.net/owl-preferences-assets/v1/tracer_gift_set.png",
                      "Type": "emote",
                      "Id": "1540337",
                      "Name": "OWL2019gift3"
                    },
                    {
                      "Description": "OWL2019gift4",
                      "ImageUrl": "https://static-cdn.jtvnw.net/owl-preferences-assets/v1/tracer_gift_set.png",
                      "Type": "emote",
                      "Id": "1540338",
                      "Name": "OWL2019gift4"
                    }
                  ],
                  "SelectionStrategy": "ALL"
                },
                "ActiveStartDate": "2019-01-31T17:40:00Z",
                "ActiveEndDate": "2019-04-01T15:00:00Z",
                "VisibleStartDate": "2019-01-31T17:40:00Z",
                "VisibleEndDate": "2021-03-01T16:00:00Z",
                "Threshold": 10000,
                "ParticipationThreshold": 1
              }
            ]
          }
        ]
      }
    ]
  }
}
