{
  "Campaigns": {
    "owl2019": [
      {
        "Id": "owl2019.community.stageFinals",
        "ActiveStartDate": "2019-09-23T08:00:00Z",
        "ActiveEndDate": "2019-09-29T07:59:59Z",
        "Title": "owl2019 skeleton campaign",
        "Description": "owl2019 skeleton campaign",
        "ChannelList": {
          "190160460": true,
          "188863650": true,
          "188864445": true,
          "138602382": true,
          "138601808": true,
          "137512364": true
        },
        "Objectives": [
          {
            "Id": "owl2019.community.stageFinals.global0",
            "Description": "localizationKey:communityMegacheerTitle.megacheer3kHeader.megacheerFinalsBody.megacheerFooter",
            "EventHandler": "DiscreteCheerProgressionHandler",
            "Title": "Initiate 3000 MegaCheers",
            "Tag": "GLOBAL",
            "ShouldAutogrant": true,
            "Milestones": [
              {
                "Id": "owl2019.community.stageFinals.global0.milestone1",
                "Handler": "IndividualCheerHandler",
                "HandlerMetadata": {
                  "Rewards": [
                    {
                      "Description": "OWL2019tacvisor",
                      "ImageUrl": "https://static-cdn.jtvnw.net/emoticons/v1/1944821/3.0",
                      "Type": "emote",
                      "Id": "1610331",
                      "Name": "OWL2019tacvisor"
                    }
                  ],
                  "MinCheerAmount": 300,
                  "SelectionStrategy": "ALL"
                },
                "ActiveStartDate": "2019-09-23T08:00:00Z",
                "ActiveEndDate": "2019-09-29T07:59:59Z",
                "VisibleStartDate": "2019-09-16T08:00:00Z",
                "VisibleEndDate": "2022-01-01T07:59:59Z",
                "Threshold": 3000,
                "ParticipationThreshold": 1
              }
            ]
          },
          {
            "Id": "owl2019.community.stageFinals.global1",
            "Description": "localizationKey:cheerFinalsTitle.cheer5kFinalsHeader.cheer5kFinalsBody.cheermoteFooter",
            "EventHandler": "DiscreteCheerProgressionHandler",
            "Title": "Use 5,000 Cheermotes",
            "Tag": "GLOBAL",
            "ShouldAutogrant": true,
            "Milestones": [
              {
                "Id": "owl2019.community.stageFinals.global1.milestone1",
                "Handler": "IndividualCheerHandler",
                "HandlerMetadata": {
                  "Rewards": [
                    {
                      "Description": "OWL2019leek",
                      "ImageUrl": "https://static-cdn.jtvnw.net/emoticons/v1/300753142/3.0",
                      "Type": "emote",
                      "Id": "300462681",
                      "Name": "OWL2019leek"
                    }
                  ],
                  "SelectionStrategy": "ALL"
                },
                "ActiveStartDate": "2019-09-23T08:00:00Z",
                "ActiveEndDate": "2019-09-29T07:59:59Z",
                "VisibleStartDate": "2019-09-16T08:00:00Z",
                "VisibleEndDate": "2022-01-01T07:59:59Z",
                "Threshold": 5000,
                "ParticipationThreshold": 1
              }
            ]
          }
        ]
      }
    ]
  }
}


