[
  {
    "ParameterKey": "AppName",
    "ParameterValue": "nioh"
  },
  {
    "ParameterKey": "Environment",
    "ParameterValue": "production"
  },
  {
    "ParameterKey": "EnvironmentDisplayName",
    "ParameterValue": "Prod"
  },
  {
    "ParameterKey": "Stage",
    "ParameterValue": "production"
  },
  {
    "ParameterKey": "SubStage",
    "ParameterValue": "primary"
  },
  {
    "ParameterKey": "EnvironmentName",
    "ParameterValue": "nioh-production"
  },
  {
    "ParameterKey": "EBLoadBalancer",
    "ParameterValue": "app/awseb-AWSEB-1C06186XW9W4C/2b7376e74dcca1e9"
  }
]
