TEAM,Player Handle,Primary Role
Atlanta Reign,NLaaeR,DPS
Atlanta Reign,Masaa,Support
Atlanta Reign,Kodak,Support
Atlanta Reign,Gator,Tank
Atlanta Reign,Erster,DPS
Atlanta Reign,Pokpo,Tank
Atlanta Reign,Daco,Tank
Atlanta Reign,dafran,DPS
Boston Uprising,NotE,Tank
Boston Uprising,blase,DPS
Boston Uprising,Kellex,Support
Boston Uprising,Gamsu,Tank
Boston Uprising,ColourHex,DPS
Boston Uprising,Axxiom,Tank
Boston Uprising,AimGod,Support
Boston Uprising,alemao ,Support
Boston Uprising,Fusions,Tank
Chengdu Hunters,GARRY ,Support 
Chengdu Hunters,lateyoung ,Tank 
Chengdu Hunters,Elsa ,Tank 
Chengdu Hunters,Kyo ,Support 
Chengdu Hunters,YangXiaoLong ,DPS 
Chengdu Hunters,JinMu ,DPS 
Chengdu Hunters,ameng ,Tank
Chengdu Hunters,Yveltal ,Support 
Chengdu Hunters,Baconjack,DPS
Florida Mayhem,aKm,DPS
Florida Mayhem,Mickie,Tank
Florida Mayhem,Taimou,DPS
Florida Mayhem,uNKOE,Support
Florida Mayhem,rCk,Tank
Florida Mayhem,HarryHook,Support
Florida Mayhem,EFFECT,DPS
Florida Mayhem,OGE,Tank
Florida Mayhem,Closer,Support
Florida Mayhem,ZachaREEE,DPS
Dallas Fuel,TviQ,DPS
Dallas Fuel,bqb,DPS
Dallas Fuel,SNT,Tank
Dallas Fuel,xepheR,Tank 
Dallas Fuel,SWoN,Tank
Dallas Fuel,HaGoPeun,Support
Dallas Fuel,Kris,Support
Dallas Fuel,sayaplayer,DPS
Dallas Fuel,Apply,DPS
Guangzhou Charge,Rio,Tank
Guangzhou Charge,OnlyWish,Support
Guangzhou Charge,Eileen,DPS
Guangzhou Charge,Kyb ,DPS
Guangzhou Charge,nero,DPS
Guangzhou Charge,Chara,Support
Guangzhou Charge,shu,Support
Guangzhou Charge,Happy,DPS
Guangzhou Charge,HOTBA,Tank 
Guangzhou Charge,Rise,Support
Hangzhou Spark,iDK,Support
Hangzhou Spark,Bazzi,DPS
Hangzhou Spark,Ria,Tank 
Hangzhou Spark,GodsB,DPS
Hangzhou Spark,NoSmite,Tank
Hangzhou Spark,Revenge,Support
Hangzhou Spark,Adora,DPS
Hangzhou Spark,BEBE,Support
Hangzhou Spark,Guxue,Tank 
Hangzhou Spark,Krystal,DPS
Houston Outlaws,Muma,Tank
Houston Outlaws,LiNkzr,DPS
Houston Outlaws,Danteh,DPS
Houston Outlaws,Jake,DPS
Houston Outlaws,Boink,Support
Houston Outlaws,SPREE,Tank
Houston Outlaws,ArHaN,DPS
Houston Outlaws,Bani,Support
Houston Outlaws,coolmatt,Tank
Houston Outlaws,Rawkus,Support
LA Gladiators,BigG00se,Support
LA Gladiators,Shaz,Support
LA Gladiators,Hydration,DPS
LA Gladiators,Ripa,Support
LA Gladiators,Surefour,DPS
LA Gladiators,Void,Tank
LA Gladiators,rOar,Tank
LA Gladiators,Decay,DPS
LA Gladiators,Bischu,Tank
LA Gladiators,Panker,Tank
LA Valiant,Custa,Support
LA Valiant,SPACE,Tank
LA Valiant,Agilities,DPS
LA Valiant,KSF,DPS
LA Valiant,KuKi,Tank
LA Valiant,KariV,DPS
LA Valiant,Fate,Tank
LA Valiant,IZaYaKI,Support
LA Valiant,Bunny,DPS
London Spitfire,Krillin,Support
London Spitfire,NUS,Support
London Spitfire,Guard,DPS
London Spitfire,Profit,DPS
London Spitfire,Gesture,Tank
London Spitfire,Bdosin,Support
London Spitfire,Fury,Tank
London Spitfire,BIRDRING,DPS
New York Excelsior,Libero,DPS
New York Excelsior,Mano,Tank
New York Excelsior,Nenne,DPS
New York Excelsior,JJONAK,Support
New York Excelsior,MekO,Tank
New York Excelsior,ArK,Support
New York Excelsior,Fl0w3R,DPS
New York Excelsior,Pine,DPS
New York Excelsior,Anamo,Support
New York Excelsior,Saebyeolbe,DPS
Paris Eternal,HyP,Support
Paris Eternal,danye,DPS
Paris Eternal,Finnsi,Tank
Paris Eternal,BenBest,Tank
Paris Eternal,NiCOgdh,DPS 
Paris Eternal,LhCloudy,Tank
Paris Eternal,Kruise,Support
Paris Eternal,ShaDowBurn,DPS
Paris Eternal,Greyy,Support
Paris Eternal,SoOn,DPS
Philadelphia Fusion,Poko,Tank
Philadelphia Fusion,Elk,Support
Philadelphia Fusion,Boombox,Support
Philadelphia Fusion,neptuNo,Support
Philadelphia Fusion,eqo,DPS
Philadelphia Fusion,fragi,Tank
Philadelphia Fusion,snillo,DPS
Philadelphia Fusion,carpe,DPS
Philadelphia Fusion,Sado,Tank
Philadelphia Fusion,Beasthalo,Tank
San Francisco Shock,moth,Support
San Francisco Shock,sleepy,Support
San Francisco Shock,Viol2t,Support
San Francisco Shock,super,Tank
San Francisco Shock,Nevix,Tank
San Francisco Shock,smurf,Tank
San Francisco Shock,Rascal,DPS
San Francisco Shock,Architect,DPS 
San Francisco Shock,sinatraa,DPS
San Francisco Shock,babybay,DPS
San Francisco Shock,Choihyobin,Tank
San Francisco Shock,STRIKER,DPS
Seoul Dynasty,Fissure,Tank
Seoul Dynasty,Fleta,DPS
Seoul Dynasty,Munchkin,DPS
Seoul Dynasty,Marve1,Tank
Seoul Dynasty,tobi,Support
Seoul Dynasty,Michelle,Tank
Seoul Dynasty,ryujehong,Support
Seoul Dynasty,Jecse,Support
Seoul Dynasty,zunba,Tank
Seoul Dynasty,FITS,DPS 
Shanghai Dragons,GuardiaN,Tank
Shanghai Dragons,Luffy,Support
Shanghai Dragons,CoMa,Support
Shanghai Dragons,FEARLESS,Tank
Shanghai Dragons,diem,DPS
Shanghai Dragons,YOUNGJIN,DPS 
Shanghai Dragons,Geguri,Tank
Shanghai Dragons,DDing,DPS 
Shanghai Dragons,Diya,DPS 
Toronto Defiant, Aid,Support
Toronto Defiant,Asher,DPS
Toronto Defiant,Neko,Support
Toronto Defiant,Stellar,DPS
Toronto Defiant,Yakpung,Tank
Toronto Defiant,ivy,DPS
Toronto Defiant,Envy,Tank
Toronto Defiant,RoKy,Support
Vancouver Titans,SeoMinSoo ,DPS
Vancouver Titans,Twilight,Support
Vancouver Titans,Stitch ,DPS
Vancouver Titans,JJANU ,Tank
Vancouver Titans,SLIME ,Support
Vancouver Titans,Haksal,DPS
Vancouver Titans,Hooreg,DPS
Vancouver Titans,RAPEL ,Support
Vancouver Titans,BUMPER,Tank
Washington DC Justice,Fahzix,Support
Washington DC Justice,janus,Tank
Washington DC Justice,Gido,Support
Washington DC Justice,Sansam,Tank
Washington DC Justice,Hyeonu,Support
Washington DC Justice,Stratus,DPS
Washington DC Justice,Ado,DPS
Washington DC Justice,Corey,DPS