{
  "scopes": [
    {
      "name": "edit_playlist",
      "capabilities": ["spectre::edit_channel"]
    },
    {
      "name": "mock_spectre_authorized",
      "capabilities": ["spectre::mock_authorized"]
    },
    {
      "name": "mock_channelfeed",
      "capabilities": [
        "channelfeed::view_feed"
      ]
    },
    {
      "name": "view_channelfeed",
      "capabilities": ["channelfeed::view_feed"]
    },
    {
      "name": "edit_channelfeed",
      "capabilities": ["channelfeed::view_feed", "channelfeed::edit_feed"]
    },
    {
      "name": "create_channelfeed_comments",
      "capabilities": ["channelfeed::create_comments"]
    },
    {
      "name": "create_channelfeed_reactions",
      "capabilities": ["channelfeed::create_reactions"]
    },
    {
      "name": "mock_unauthenticated",
      "capabilities": ["mock::mock_unauthenticated"]
    },
    {
      "name": "mock_token_unauthorized",
      "capabilities": ["mock::mock_unauthorized"]
    },
    {
      "name": "mock_token_authorized",
      "capabilities": ["mock::mock_authorized"]
    },
    {
      "name": "mock_token_expired",
      "capabilities": ["mock::mock_expired"]
    },
    {
      "name": "mock_token_mismatch_audience",
      "capabilities": ["mock::mock_mismatched_audience"]
    },
    {
      "name": "mock_oauth_authorized",
      "capabilities": ["mock::mock_oauth"]
    },
    {
      "name": "mock_limit_reached",
      "capabilities": ["mock::mock_limit_reached"]
    }
  ]
}
