{
  "Tools": [
    {
      "Repository": "github.com/golang/dep/cmd/dep",
      "Commit": "66ec1e8481a55619ede9280d8ae5449247395059"
    },
    {
      "Repository": "github.com/twitchtv/retool",
      "Commit": "41330f8b4e07dd732ea7aeff69cf8a1f0e84aff7"
    }
  ],
  "RetoolVersion": "1.3.7"
}