44445592
490592527
100182904
31239503
36769016
39393054
421560387
71092938
38718052
51496027
23161357
463670670
23417509
15564828
96116107
14408894
82524912
71190292
73469143
124422593
274625
139518597
113837910
30633519
32787655
103262684
38881685
29829912
31688366
26946000
94773952
10397006
116228390
58911665
207813352
29122976
61489476
125387632
54706574
47694770
128770050
25093116
146922206
100484450
226961832
25653002
44426109
23364603
127550308
55912774
465163135
67802451
154526718
206305288
39276140
31457014
23097521
95178877
268107452
8108336
469529444
182962411
115659124
19070311
36029255
198461840
39894746
68313917
88436114
69906737
23220337
49965418
60056333
13240194
39724467
106013742
61974931
456081519
486837917
256805408
56649026
147927227
128149102
427839768
64638702
30709418
122681480
72550899
52091823
57519051
163491827
37455669
145270723
46708418
51533859
83232866
516108615
552120296
54807415
22479463